{
  "content_id": "175015",
  "title": "Осенью 41-го",
  "release_date": "2016",
  "orig_country": "Россия",
  "lang": "Русский",
  "restrict": "12+",
  "kinopoisk_id": "1002914",
  "kinopoisk_rating": "4.76",
  "duration": "5923",
  "category": "Фильмы",
  "genres": "Военные,Для всей семьи,Мелодрамы,Приключения,Русские",
  "vr_identifier": "Осенью 41-го",
  "iframe": "https://www.ivi.ru/embeds/video/?subsite=1&autostart=0&videoid=175015"
}