{
  "content_id": "214565",
  "title": "Квадраты",
  "release_date": "2017",
  "orig_country": "Россия",
  "lang": "Русский",
  "restrict": "16+",
  "kinopoisk_id": "1007331",
  "kinopoisk_rating": "0",
  "duration": "3853",
  "category": "Фильмы",
  "genres": "Документальные,Русские",
  "vr_identifier": "Квадраты",
  "iframe": "https://www.ivi.ru/embeds/video/?subsite=1&autostart=0&videoid=214565"
}