{
  "content_id": "202868",
  "title": "Супердевочка. Пародийный фильм",
  "orig_title": "Supergirl XXX: An Axel Braun Parody",
  "release_date": "2016",
  "orig_country": "США",
  "lang": "Английский",
  "restrict": "18+",
  "kinopoisk_id": "1008313",
  "kinopoisk_rating": "0",
  "imdb_rating": "7.8",
  "duration": "5022",
  "category": "Фильмы",
  "genres": "Эротика",
  "vr_identifier": "Супердевочка. Пародийный фильм",
  "iframe": "https://www.ivi.ru/embeds/video/?subsite=1&autostart=0&videoid=202868"
}