{
  "content_id": "201040",
  "title": "Инфоголик",
  "release_date": "2017",
  "orig_country": "Украина",
  "lang": "Русский",
  "restrict": "16+",
  "kinopoisk_id": "1009428",
  "kinopoisk_rating": "6.25",
  "imdb_rating": "6.3",
  "duration": "5656",
  "category": "Фильмы",
  "genres": "Зарубежные,Комедии,Фантастика",
  "vr_identifier": "Инфоголик",
  "iframe": "https://www.ivi.ru/embeds/video/?subsite=1&autostart=0&videoid=201040"
}