{
  "content_id": "184537",
  "title": "Эпоха танцев",
  "release_date": "2017",
  "orig_country": "Россия",
  "lang": "Русский",
  "restrict": "16+",
  "kinopoisk_id": "1009434",
  "duration": "4800",
  "category": "Фильмы",
  "genres": "Документальные,Музыкальные,Русские",
  "vr_identifier": "Эпоха танцев",
  "iframe": "https://www.ivi.ru/embeds/video/?subsite=1&autostart=0&videoid=184537"
}