{
  "content_id": "217238",
  "title": "Осторожно! Вход разрешен",
  "release_date": "2017",
  "orig_country": "Россия",
  "lang": "Русский",
  "restrict": "12+",
  "kinopoisk_id": "1009197",
  "kinopoisk_rating": "5.55",
  "duration": "5648",
  "category": "Фильмы",
  "genres": "Мелодрамы,Русские",
  "vr_identifier": "Осторожно! Вход разрешен",
  "iframe": "https://www.ivi.ru/embeds/video/?subsite=1&autostart=0&videoid=217238"
}