{
  "content_id": "109228",
  "title": "Иллюзионист",
  "orig_title": "The Illusionist",
  "release_date": "2005",
  "orig_country": "США",
  "lang": "Английский",
  "restrict": "16+",
  "kinopoisk_id": "102198",
  "kinopoisk_rating": "8.01",
  "imdb_rating": "7.6",
  "duration": "6268",
  "category": "Фильмы",
  "genres": "Детективы,Драмы,Зарубежные,Мелодрамы,Триллеры",
  "vr_identifier": "Иллюзионист",
  "iframe": "https://www.ivi.ru/embeds/video/?subsite=1&autostart=0&videoid=109228"
}