{
  "content_id": "99957",
  "title": "Разрисованная вуаль",
  "orig_title": "The Painted Veil",
  "release_date": "2006",
  "orig_country": "США",
  "lang": "Английский",
  "restrict": "16+",
  "kinopoisk_id": "102201",
  "kinopoisk_rating": "7.92",
  "imdb_rating": "7.5",
  "duration": "7181",
  "category": "Фильмы",
  "genres": "Драмы,Зарубежные,Мелодрамы",
  "vr_identifier": "The Painted Veil",
  "iframe": "https://www.ivi.ru/embeds/video/?subsite=1&autostart=0&videoid=99957"
}