{
  "content_id": "186176",
  "title": "Бельканто",
  "orig_title": "Bel Canto",
  "release_date": "2018",
  "orig_country": "США",
  "lang": "Английский",
  "restrict": "16+",
  "kinopoisk_id": "1028843",
  "kinopoisk_rating": "6.2",
  "imdb_rating": "5.3",
  "duration": "5810",
  "category": "Фильмы",
  "genres": "Драмы,Зарубежные,Триллеры",
  "vr_identifier": "Бельканто",
  "iframe": "https://www.ivi.ru/embeds/video/?subsite=1&autostart=0&videoid=186176"
}