{
  "content_id": "204107",
  "title": "Все пары делают это",
  "orig_title": "Daddy Cool",
  "release_date": "2017",
  "orig_country": "Франция",
  "lang": "Французский",
  "restrict": "16+",
  "kinopoisk_id": "1036975",
  "kinopoisk_rating": "5.89",
  "imdb_rating": "5.6",
  "duration": "5623",
  "category": "Фильмы",
  "genres": "Зарубежные,Комедии",
  "vr_identifier": "Все пары делают это",
  "iframe": "https://www.ivi.ru/embeds/video/?subsite=1&autostart=0&videoid=204107"
}