{
  "content_id": "207347",
  "title": "Осторожно: Грамп!",
  "orig_title": "Here Comes the Grump",
  "release_date": "2018",
  "orig_country": "Великобритания",
  "lang": "Английский",
  "restrict": "6+",
  "kinopoisk_id": "1038941",
  "kinopoisk_rating": "5.3",
  "imdb_rating": "4.8",
  "duration": "5824",
  "category": "Мультфильмы",
  "genres": "Для всей семьи,Для детей,Зарубежные,Комедия,Приключения,Фэнтези",
  "vr_identifier": "Осторожно: Грамп!",
  "iframe": "https://www.ivi.ru/embeds/video/?subsite=1&autostart=0&videoid=207347"
}