{
  "content_id": "158988",
  "title": "Северо-Юг",
  "release_date": "2015",
  "orig_country": "Россия",
  "lang": "Русский",
  "restrict": "16+",
  "kinopoisk_id": "1038265",
  "kinopoisk_rating": "0",
  "duration": "6047",
  "category": "Фильмы",
  "genres": "Драмы,Русские",
  "vr_identifier": "Северо-Юг",
  "iframe": "https://www.ivi.ru/embeds/video/?subsite=1&autostart=0&videoid=158988"
}