{
  "content_id": "208853",
  "title": "Джонни-Бони-Бо",
  "release_date": "2016",
  "orig_country": "Россия",
  "lang": "Русский",
  "restrict": "0+",
  "kinopoisk_id": "1042699",
  "duration": "801",
  "category": "Мультфильмы",
  "genres": "Для детей,Русские,Русские мультфильмы",
  "vr_identifier": "Джонни-Бони-Бо",
  "iframe": "https://www.ivi.ru/embeds/video/?subsite=1&autostart=0&videoid=208853"
}