{
  "content_id": "187136",
  "title": "Портрет женщины в красном",
  "release_date": "2016",
  "orig_country": "Россия",
  "lang": "Русский",
  "restrict": "12+",
  "kinopoisk_id": "1043989",
  "kinopoisk_rating": "0",
  "duration": "5512",
  "category": "Фильмы",
  "genres": "Мелодрамы,Русские",
  "vr_identifier": "Портрет женщины в красном",
  "iframe": "https://www.ivi.ru/embeds/video/?subsite=1&autostart=0&videoid=187136"
}