{
  "content_id": "45155",
  "title": "Трикстер",
  "release_date": "2003",
  "orig_country": "Россия",
  "lang": "Русский",
  "restrict": "0+",
  "kinopoisk_id": "1044775",
  "duration": "867",
  "category": "Мультфильмы",
  "genres": "Для детей,Русские,Русские мультфильмы",
  "vr_identifier": "Трикстер",
  "iframe": "https://www.ivi.ru/embeds/video/?subsite=1&autostart=0&videoid=45155"
}