{
  "content_id": "189100",
  "title": "Любовь в городе ангелов",
  "release_date": "2017",
  "orig_country": "Россия",
  "lang": "Русский",
  "restrict": "16+",
  "kinopoisk_id": "1045551",
  "kinopoisk_rating": "4.34",
  "imdb_rating": "4.2",
  "duration": "4877",
  "category": "Фильмы",
  "genres": "Комедии,Русские",
  "vr_identifier": "Любовь в городе ангелов",
  "iframe": "https://www.ivi.ru/embeds/video/?subsite=1&autostart=0&videoid=189100"
}