{
  "content_id": "185416",
  "title": "Опасная прогулка",
  "release_date": "2002",
  "orig_country": "Россия",
  "lang": "Русский",
  "restrict": "6+",
  "kinopoisk_id": "1046027",
  "duration": "227",
  "category": "Мультфильмы",
  "genres": "Для детей,Русские",
  "vr_identifier": "Опасная прогулка",
  "iframe": "https://www.ivi.ru/embeds/video/?subsite=1&autostart=0&videoid=185416"
}