{
  "content_id": "198595",
  "title": "Zомбоящик",
  "release_date": "2018",
  "orig_country": "Россия",
  "lang": "Русский",
  "restrict": "18+",
  "kinopoisk_id": "1047867",
  "kinopoisk_rating": "3.17",
  "imdb_rating": "3",
  "duration": "3566",
  "category": "Фильмы",
  "genres": "Комедии,Русские",
  "vr_identifier": "Zомбоящик",
  "iframe": "https://www.ivi.ru/embeds/video/?subsite=1&autostart=0&videoid=198595"
}