{
  "content_id": "188916",
  "title": "Помешанный на времени",
  "orig_title": "Time Freak",
  "release_date": "2018",
  "orig_country": "США",
  "lang": "Английский",
  "restrict": "16+",
  "kinopoisk_id": "1048852",
  "kinopoisk_rating": "5.9",
  "imdb_rating": "5.7",
  "duration": "6003",
  "category": "Фильмы",
  "genres": "Зарубежные,Комедии,Мелодрамы,Фантастика",
  "vr_identifier": "Помешанный на времени",
  "iframe": "https://www.ivi.ru/embeds/video/?subsite=1&autostart=0&videoid=188916"
}