{
  "content_id": "201114",
  "title": "Как женить холостяка",
  "orig_title": "Destination Wedding",
  "release_date": "2018",
  "orig_country": "США",
  "lang": "Английский",
  "restrict": "18+",
  "kinopoisk_id": "1048294",
  "kinopoisk_rating": "5.94",
  "imdb_rating": "6",
  "duration": "4984",
  "category": "Фильмы",
  "genres": "Зарубежные,Комедии,Мелодрамы",
  "vr_identifier": "Как женить холостяка",
  "iframe": "https://www.ivi.ru/embeds/video/?subsite=1&autostart=0&videoid=201114"
}