{
  "content_id": "206326",
  "title": "Папа, сдохни",
  "release_date": "2019",
  "orig_country": "Россия",
  "lang": "Русский",
  "restrict": "18+",
  "kinopoisk_id": "1049219",
  "kinopoisk_rating": "6.58",
  "imdb_rating": "6.8",
  "duration": "5664",
  "category": "Фильмы",
  "genres": "Комедии,Русские",
  "vr_identifier": "ПАПА, СДОХНИ",
  "iframe": "https://www.ivi.ru/embeds/video/?subsite=1&autostart=0&videoid=206326"
}