{
  "content_id": "212160",
  "title": "Белль и Себастьян: Друзья навек",
  "orig_title": "Belle et Sébastien 3, le dernier chapitre",
  "release_date": "2018",
  "orig_country": "Франция",
  "lang": "Французский",
  "restrict": "6+",
  "kinopoisk_id": "1051470",
  "kinopoisk_rating": "6.71",
  "imdb_rating": "6.3",
  "duration": "5455",
  "category": "Фильмы",
  "genres": "Для всей семьи,Зарубежные,Приключения",
  "vr_identifier": "Белль и Себастьян: Друзья навек",
  "iframe": "https://www.ivi.ru/embeds/video/?subsite=1&autostart=0&videoid=212160"
}