{
  "content_id": "190327",
  "title": "Ограбление: Код 211",
  "orig_title": "#211",
  "release_date": "2018",
  "orig_country": "США",
  "restrict": "18+",
  "kinopoisk_id": "1053008",
  "kinopoisk_rating": "4.83",
  "imdb_rating": "4.4",
  "duration": "5218",
  "category": "Фильмы",
  "genres": "Боевики,Драмы,Зарубежные",
  "vr_identifier": "Ограбление: код 211",
  "iframe": "https://www.ivi.ru/embeds/video/?subsite=1&autostart=0&videoid=190327"
}