{
  "content_id": "217842",
  "title": "День выборов по-французски",
  "orig_title": "Les Tuche 3",
  "release_date": "2018",
  "orig_country": "Франция",
  "lang": "Французский",
  "restrict": "16+",
  "kinopoisk_id": "1061552",
  "kinopoisk_rating": "4.7",
  "imdb_rating": "4.5",
  "duration": "5561",
  "category": "Фильмы",
  "genres": "Зарубежные,Комедии",
  "vr_identifier": "День выборов по-французски",
  "iframe": "https://www.ivi.ru/embeds/video/?subsite=1&autostart=0&videoid=217842"
}