{
  "content_id": "206134",
  "title": "Вернуть Бена",
  "orig_title": "Ben is Back",
  "release_date": "2018",
  "orig_country": "США",
  "lang": "Английский",
  "restrict": "18+",
  "kinopoisk_id": "1071357",
  "kinopoisk_rating": "6.75",
  "imdb_rating": "6.7",
  "duration": "5926",
  "category": "Фильмы",
  "genres": "Драмы,Зарубежные",
  "vr_identifier": "ВЕРНУТЬ БЕНА",
  "iframe": "https://www.ivi.ru/embeds/video/?subsite=1&autostart=0&videoid=206134"
}