{
  "content_id": "212717",
  "title": "Бергман",
  "orig_title": "Bergman - ett år, ett liv",
  "release_date": "2018",
  "orig_country": "Швеция",
  "restrict": "12+",
  "kinopoisk_id": "1074624",
  "kinopoisk_rating": "7.19",
  "imdb_rating": "7.3",
  "duration": "7023",
  "category": "Фильмы",
  "genres": "Биография,Документальные,Зарубежные,Интервью",
  "vr_identifier": "Бергман",
  "iframe": "https://www.ivi.ru/embeds/video/?subsite=1&autostart=0&videoid=212717"
}