{
  "content_id": "26175",
  "title": "Как потерять друзей и заставить всех тебя ненавидеть",
  "orig_title": "How to Lose Friends & Alienate People",
  "release_date": "2008",
  "orig_country": "Великобритания",
  "lang": "Английский",
  "restrict": "16+",
  "kinopoisk_id": "107413",
  "kinopoisk_rating": "6.54",
  "imdb_rating": "6.4",
  "duration": "6399",
  "category": "Фильмы",
  "genres": "Драмы,Зарубежные,Комедии,Мелодрамы",
  "vr_identifier": "Как потерять друзей и заставить всех тебя ненавидеть",
  "iframe": "https://www.ivi.ru/embeds/video/?subsite=1&autostart=0&videoid=26175"
}