{
  "content_id": "154330",
  "title": "Заброшенный",
  "orig_title": "Derelict",
  "release_date": "2016",
  "orig_country": "Австралия",
  "lang": "Английский",
  "restrict": "18+",
  "kinopoisk_id": "1094825",
  "duration": "4621",
  "category": "Фильмы",
  "genres": "Детективы,Драмы,Зарубежные,Триллеры,Ужасы",
  "vr_identifier": "Заброшенный",
  "iframe": "https://www.ivi.ru/embeds/video/?subsite=1&autostart=0&videoid=154330"
}