{
  "content_id": "213858",
  "title": "Знаешь, мама, где я был?",
  "orig_title": "Rezo",
  "release_date": "2017",
  "orig_country": "Россия",
  "lang": "Русский",
  "restrict": "12+",
  "kinopoisk_id": "1100572",
  "kinopoisk_rating": "8.22",
  "imdb_rating": "8.2",
  "duration": "3794",
  "category": "Мультфильмы",
  "genres": "Биография,Для взрослых,Документальный,Русские",
  "vr_identifier": "Знаешь, мама, где я был?",
  "iframe": "https://www.ivi.ru/embeds/video/?subsite=1&autostart=0&videoid=213858"
}