{
  "content_id": "198784",
  "title": "Гоголь. Вий",
  "release_date": "2018",
  "orig_country": "Россия",
  "lang": "Русский",
  "restrict": "16+",
  "kinopoisk_id": "1100779",
  "kinopoisk_rating": "6.24",
  "imdb_rating": "5.8",
  "duration": "5947",
  "category": "Фильмы",
  "genres": "Детективы,Драмы,Мистические,Приключения,Русские",
  "vr_identifier": "Гоголь. Вий",
  "iframe": "https://www.ivi.ru/embeds/video/?subsite=1&autostart=0&videoid=198784"
}