{
  "content_id": "413389",
  "title": "На никелевой Луне",
  "orig_title": "A Moon of Nickel and Ice",
  "release_date": "2017",
  "orig_country": "Канада",
  "lang": "Русский",
  "restrict": "18+",
  "kinopoisk_id": "1105425",
  "duration": "6720",
  "category": "Фильмы",
  "genres": "Документальные,Зарубежные",
  "vr_identifier": "A Moon of Nickel and Ice",
  "iframe": "https://www.ivi.ru/embeds/video/?subsite=1&autostart=0&videoid=413389"
}