{
  "content_id": "209910",
  "title": "В Питере – петь. Сергей Шнуров",
  "release_date": "2017",
  "orig_country": "США",
  "lang": "Русский",
  "restrict": "18+",
  "kinopoisk_id": "1105405",
  "kinopoisk_rating": "5.44",
  "duration": "3622",
  "category": "Фильмы",
  "genres": "Документальные,Интервью,Русские",
  "vr_identifier": "В Питере - петь. Сергей Шнуров",
  "iframe": "https://www.ivi.ru/embeds/video/?subsite=1&autostart=0&videoid=209910"
}