{
  "content_id": "208077",
  "title": "Фото на память",
  "release_date": "2018",
  "orig_country": "Россия",
  "lang": "Русский",
  "restrict": "16+",
  "kinopoisk_id": "1108400",
  "kinopoisk_rating": "3.89",
  "imdb_rating": "2.7",
  "duration": "4422",
  "category": "Фильмы",
  "genres": "Русские,Триллеры,Ужасы",
  "vr_identifier": "Фото на память",
  "iframe": "https://www.ivi.ru/embeds/video/?subsite=1&autostart=0&videoid=208077"
}