{
  "content_id": "231583",
  "title": "Стажер",
  "orig_title": "Il tuttofare",
  "release_date": "2018",
  "orig_country": "Италия",
  "lang": "Итальянский",
  "restrict": "16+",
  "kinopoisk_id": "1111934",
  "kinopoisk_rating": "5.66",
  "imdb_rating": "6.4",
  "duration": "5861",
  "category": "Фильмы",
  "genres": "Зарубежные,Комедии",
  "vr_identifier": "Стажёр",
  "iframe": "https://www.ivi.ru/embeds/video/?subsite=1&autostart=0&videoid=231583"
}