{
  "content_id": "224500",
  "title": "Кусама. Бесконечные миры",
  "orig_title": "Kusama: Infinity",
  "release_date": "2018",
  "orig_country": "США",
  "lang": "Английский",
  "restrict": "16+",
  "kinopoisk_id": "1112207",
  "kinopoisk_rating": "7.38",
  "imdb_rating": "7.2",
  "duration": "4592",
  "category": "Фильмы",
  "genres": "Биография,Документальные,Зарубежные",
  "vr_identifier": "Кусама: Бесконечные миры",
  "iframe": "https://www.ivi.ru/embeds/video/?subsite=1&autostart=0&videoid=224500"
}