{
  "content_id": "223843",
  "title": "Урок любви",
  "orig_title": "Lektion i kärlek, En",
  "release_date": "1954",
  "orig_country": "Швеция",
  "lang": "Шведский",
  "restrict": "16+",
  "kinopoisk_id": "112721",
  "kinopoisk_rating": "7.43",
  "imdb_rating": "7.1",
  "duration": "5526",
  "category": "Фильмы",
  "genres": "Драмы,Зарубежные,Мировая классика",
  "vr_identifier": "Урок любви",
  "iframe": "https://www.ivi.ru/embeds/video/?subsite=1&autostart=0&videoid=223843"
}