{
  "content_id": "154338",
  "title": "Убежище: Поколение первое",
  "orig_title": "Sanctuary Population One",
  "release_date": "2018",
  "orig_country": "США",
  "lang": "Английский",
  "restrict": "18+",
  "kinopoisk_id": "1163292",
  "duration": "4577",
  "category": "Фильмы",
  "genres": "Зарубежные,Фантастика",
  "vr_identifier": "Убежище: поколение первое",
  "iframe": "https://www.ivi.ru/embeds/video/?subsite=1&autostart=0&videoid=154338"
}