{
  "content_id": "224506",
  "title": "После лета",
  "release_date": "2018",
  "orig_country": "Россия",
  "lang": "Русский",
  "restrict": "16+",
  "kinopoisk_id": "1178293",
  "kinopoisk_rating": "7.09",
  "duration": "2838",
  "category": "Фильмы",
  "genres": "Документальные,Интервью,Музыкальные,Русские",
  "vr_identifier": "После лета",
  "iframe": "https://www.ivi.ru/embeds/video/?subsite=1&autostart=0&videoid=224506"
}