{
  "content_id": "224255",
  "title": "11+",
  "release_date": "2018",
  "orig_country": "Россия",
  "lang": "Русский",
  "restrict": "12+",
  "kinopoisk_id": "1181557",
  "kinopoisk_rating": "5.2",
  "duration": "5649",
  "category": "Фильмы",
  "genres": "Для всей семьи,Драмы,Комедии,Русские",
  "vr_identifier": "Манжеты, Новенький, Ты забыл, во что мы играли",
  "iframe": "https://www.ivi.ru/embeds/video/?subsite=1&autostart=0&videoid=224255"
}