{
  "content_id": "211801",
  "title": "Ёлки Последние",
  "release_date": "2018",
  "orig_country": "Россия",
  "lang": "Русский",
  "restrict": "6+",
  "kinopoisk_id": "1181562",
  "kinopoisk_rating": "5.68",
  "imdb_rating": "4.5",
  "duration": "5559",
  "category": "Фильмы",
  "genres": "Для всей семьи,Комедии,Русские",
  "vr_identifier": "Ёлки Последние",
  "iframe": "https://www.ivi.ru/embeds/video/?subsite=1&autostart=0&videoid=211801"
}