{
  "content_id": "314324",
  "title": "На волне",
  "release_date": "2019",
  "orig_country": "Россия",
  "lang": "Русский",
  "restrict": "0+",
  "kinopoisk_id": "1228484",
  "duration": "4805",
  "category": "Фильмы",
  "genres": "Документальные,Русские,Спорт",
  "vr_identifier": "На волне",
  "iframe": "https://www.ivi.ru/embeds/video/?subsite=1&autostart=0&videoid=314324"
}