{
  "content_id": "411528",
  "title": "Брат или брак 2",
  "release_date": "2018",
  "orig_country": "Казахстан",
  "lang": "Русский",
  "restrict": "12+",
  "kinopoisk_id": "1232562",
  "duration": "6032",
  "category": "Фильмы",
  "genres": "Зарубежные,Комедии",
  "vr_identifier": "Брат или Брак 2",
  "iframe": "https://www.ivi.ru/embeds/video/?subsite=1&autostart=0&videoid=411528"
}