{
  "content_id": "414276",
  "title": "Итальянские фантазии",
  "release_date": "2019",
  "orig_country": "Италия",
  "lang": "Итальянский",
  "restrict": "12+",
  "kinopoisk_id": "1252262",
  "duration": "5125",
  "category": "Фильмы",
  "genres": "Драмы,Зарубежные,Комедии,Короткометражки,Мелодрамы",
  "vr_identifier": "Итальянские фантазии",
  "iframe": "https://www.ivi.ru/embeds/video/?subsite=1&autostart=0&videoid=414276"
}