{
  "content_id": "100035",
  "title": "Жизнь других",
  "orig_title": "Das Leben der Anderen",
  "release_date": "2006",
  "orig_country": "Германия",
  "restrict": "16+",
  "kinopoisk_id": "126196",
  "kinopoisk_rating": "8.06",
  "imdb_rating": "8.4",
  "duration": "8249",
  "category": "Фильмы",
  "genres": "Драмы,Зарубежные,Триллеры",
  "vr_identifier": "Life Of The Others",
  "iframe": "https://www.ivi.ru/embeds/video/?subsite=1&autostart=0&videoid=100035"
}