{
  "content_id": "412985",
  "title": "Приговор",
  "orig_title": "Judgment",
  "release_date": "2018",
  "orig_country": "Филиппины",
  "lang": "Тагальский",
  "restrict": "12+",
  "kinopoisk_id": "1261314",
  "duration": "869",
  "category": "Фильмы",
  "genres": "Короткометражки",
  "vr_identifier": "Приговор",
  "iframe": "https://www.ivi.ru/embeds/video/?subsite=1&autostart=0&videoid=412985"
}