{
  "content_id": "217231",
  "title": "Ева",
  "release_date": "2019",
  "orig_country": "Россия",
  "lang": "Русский",
  "restrict": "12+",
  "kinopoisk_id": "1330223",
  "duration": "891",
  "category": "Фильмы",
  "genres": "Драмы,Короткометражки",
  "vr_identifier": "Ева",
  "iframe": "https://www.ivi.ru/embeds/video/?subsite=1&autostart=0&videoid=217231"
}