{
  "content_id": "100355",
  "title": "Парниковый эффект",
  "release_date": "2005",
  "orig_country": "Россия",
  "lang": "Русский",
  "restrict": "16+",
  "kinopoisk_id": "161121",
  "kinopoisk_rating": "7.29",
  "imdb_rating": "6.9",
  "duration": "5580",
  "category": "Фильмы",
  "genres": "Артхаус,Драмы,Мелодрамы,Русские",
  "vr_identifier": "Парниковый эффект",
  "iframe": "https://www.ivi.ru/embeds/video/?subsite=1&autostart=0&videoid=100355"
}