{
  "content_id": "218297",
  "title": "Пароль знали двое",
  "release_date": "1985",
  "orig_country": "СССР",
  "lang": "Русский",
  "restrict": "12+",
  "kinopoisk_id": "162828",
  "kinopoisk_rating": "5.77",
  "imdb_rating": "6.1",
  "duration": "4881",
  "category": "Фильмы",
  "genres": "Драмы,Исторические,Советское кино",
  "vr_identifier": "Пароли знали двое",
  "iframe": "https://www.ivi.ru/embeds/video/?subsite=1&autostart=0&videoid=218297"
}