{
  "content_id": "223631",
  "title": "Спасти рядового Переса",
  "orig_title": "Salvando al Soldado Pérez",
  "release_date": "2011",
  "orig_country": "Мексика",
  "lang": "Испанский",
  "restrict": "16+",
  "kinopoisk_id": "174610",
  "duration": "5960",
  "category": "Фильмы",
  "genres": "Вестерн,Зарубежные,Комедии,Приключения",
  "vr_identifier": "Спасти рядового Переса",
  "iframe": "https://www.ivi.ru/embeds/video/?subsite=1&autostart=0&videoid=223631"
}