{
  "content_id": "218311",
  "title": "Предположим, ты – капитан",
  "release_date": "1976",
  "orig_country": "СССР",
  "lang": "Русский",
  "restrict": "0+",
  "kinopoisk_id": "178714",
  "kinopoisk_rating": "5.76",
  "imdb_rating": "4.7",
  "duration": "3680",
  "category": "Фильмы",
  "genres": "Для всей семьи,Для детей,Приключения,Советское кино,Фильмы",
  "vr_identifier": "Предположим, ты-капитан",
  "iframe": "https://www.ivi.ru/embeds/video/?subsite=1&autostart=0&videoid=218311"
}