{
  "content_id": "223838",
  "title": "Жажда",
  "orig_title": "Törst",
  "release_date": "1949",
  "orig_country": "Швеция",
  "lang": "Шведский",
  "restrict": "16+",
  "kinopoisk_id": "183853",
  "kinopoisk_rating": "6.75",
  "imdb_rating": "6.7",
  "duration": "4838",
  "category": "Фильмы",
  "genres": "Драмы,Зарубежные,Мировая классика",
  "vr_identifier": "Жажда",
  "iframe": "https://www.ivi.ru/embeds/video/?subsite=1&autostart=0&videoid=223838"
}