{
  "content_id": "59749",
  "title": "Изящная эпоха",
  "orig_title": "Belle epoque",
  "release_date": "1992",
  "orig_country": "Франция",
  "lang": "Французский",
  "restrict": "16+",
  "kinopoisk_id": "18871",
  "kinopoisk_rating": "7.19",
  "imdb_rating": "7.2",
  "duration": "6283",
  "category": "Фильмы",
  "genres": "Драмы,Зарубежные,Комедии,Мелодрамы",
  "vr_identifier": "Изящная эпоха",
  "iframe": "https://www.ivi.ru/embeds/video/?subsite=1&autostart=0&videoid=59749"
}