{
  "content_id": "106300",
  "title": "Крэйзи",
  "orig_title": "Havoc",
  "release_date": "2005",
  "orig_country": "США",
  "lang": "Английский",
  "restrict": "16+",
  "kinopoisk_id": "1941",
  "kinopoisk_rating": "6.32",
  "imdb_rating": "5.5",
  "duration": "4900",
  "category": "Фильмы",
  "genres": "Драмы,Зарубежные,Криминал,Триллеры",
  "vr_identifier": "Крэйзи",
  "iframe": "https://www.ivi.ru/embeds/video/?subsite=1&autostart=0&videoid=106300"
}