{
  "content_id": "57285",
  "title": "Медовый месяц Камиллы",
  "orig_title": "Camille",
  "release_date": "2008",
  "orig_country": "США",
  "lang": "Английский",
  "restrict": "16+",
  "kinopoisk_id": "195222",
  "kinopoisk_rating": "7.15",
  "imdb_rating": "6.1",
  "duration": "5235",
  "category": "Фильмы",
  "genres": "Драмы,Зарубежные,Комедии,Мелодрамы,Приключения,Фэнтези",
  "vr_identifier": "Медовый месяц Камиллы",
  "iframe": "https://www.ivi.ru/embeds/video/?subsite=1&autostart=0&videoid=57285"
}