{
  "content_id": "60788",
  "title": "Время ведьм",
  "orig_title": "Season of the Witch",
  "release_date": "2010",
  "orig_country": "США",
  "lang": "Английский",
  "restrict": "16+",
  "kinopoisk_id": "197243",
  "kinopoisk_rating": "6.15",
  "imdb_rating": "5.4",
  "duration": "5689",
  "category": "Фильмы",
  "genres": "Боевики,Зарубежные,Мистические,Приключения,Фэнтези",
  "vr_identifier": "Время ведьм",
  "iframe": "https://www.ivi.ru/embeds/video/?subsite=1&autostart=0&videoid=60788"
}