{
  "content_id": "57314",
  "title": "Monamour: Любовь моя",
  "orig_title": "Monamour",
  "release_date": "2005",
  "orig_country": "Италия",
  "lang": "Итальянский",
  "restrict": "18+",
  "kinopoisk_id": "201512",
  "kinopoisk_rating": "6.03",
  "imdb_rating": "5.5",
  "duration": "5877",
  "category": "Фильмы",
  "genres": "Эротика",
  "vr_identifier": "Monamour",
  "iframe": "https://www.ivi.ru/embeds/video/?subsite=1&autostart=0&videoid=57314"
}