{
  "content_id": "117577",
  "title": "Поцелуй бабочки",
  "release_date": "2006",
  "orig_country": "Россия",
  "lang": "Русский",
  "restrict": "16+",
  "kinopoisk_id": "208024",
  "kinopoisk_rating": "5.5",
  "imdb_rating": "4.8",
  "duration": "6300",
  "category": "Фильмы",
  "genres": "Боевики,Криминал,Мелодрамы,Русские",
  "vr_identifier": "Китаеза",
  "iframe": "https://www.ivi.ru/embeds/video/?subsite=1&autostart=0&videoid=117577"
}