{
  "content_id": "110010",
  "title": "Дон Кихот",
  "orig_title": "Donkey Xote",
  "release_date": "2007",
  "orig_country": "Испания",
  "lang": "Испанский",
  "restrict": "12+",
  "kinopoisk_id": "216166",
  "kinopoisk_rating": "5.15",
  "imdb_rating": "4.6",
  "duration": "5030",
  "category": "Мультфильмы",
  "genres": "Для всей семьи,Для детей,Западные мультфильмы,Зарубежные,Полнометражные",
  "vr_identifier": "Дон Кихот",
  "iframe": "https://www.ivi.ru/embeds/video/?subsite=1&autostart=0&videoid=110010"
}