{
  "content_id": "53094",
  "title": "Нахалёнок",
  "release_date": "1961",
  "orig_country": "СССР",
  "lang": "Русский",
  "restrict": "0+",
  "kinopoisk_id": "222895",
  "kinopoisk_rating": "7.31",
  "imdb_rating": "7.9",
  "duration": "3226",
  "category": "Фильмы",
  "genres": "Для всей семьи,Советское кино,Фильмы",
  "vr_identifier": "Нахаленок",
  "iframe": "https://www.ivi.ru/embeds/video/?subsite=1&autostart=0&videoid=53094"
}