{
  "content_id": "52973",
  "title": "Жизнь прекрасна",
  "release_date": "1979",
  "orig_country": "СССР",
  "lang": "Русский",
  "restrict": "16+",
  "kinopoisk_id": "23194",
  "kinopoisk_rating": "6.45",
  "imdb_rating": "6.8",
  "duration": "6060",
  "category": "Фильмы",
  "genres": "Драмы",
  "vr_identifier": "Жизнь прекрасна",
  "iframe": "https://www.ivi.ru/embeds/video/?subsite=1&autostart=0&videoid=52973"
}