{
  "content_id": "45258",
  "title": "Дневник карьеристки",
  "orig_title": "Confessions of a Sociopathic Social Climber",
  "release_date": "2004",
  "orig_country": "США",
  "lang": "Английский",
  "restrict": "16+",
  "kinopoisk_id": "251717",
  "kinopoisk_rating": "5.76",
  "imdb_rating": "4.9",
  "duration": "5099",
  "category": "Фильмы",
  "genres": "Зарубежные,Комедии,Мелодрамы",
  "vr_identifier": "Дневник карьеристки",
  "iframe": "https://www.ivi.ru/embeds/video/?subsite=1&autostart=0&videoid=45258"
}