{
  "content_id": "2721",
  "title": "Обратный отсчет",
  "release_date": "2006",
  "orig_country": "Россия",
  "lang": "Русский",
  "restrict": "16+",
  "kinopoisk_id": "252040",
  "kinopoisk_rating": "5.96",
  "imdb_rating": "5.9",
  "duration": "6285",
  "category": "Фильмы",
  "genres": "Боевики,Русские,Триллеры",
  "vr_identifier": "CP0258",
  "iframe": "https://www.ivi.ru/embeds/video/?subsite=1&autostart=0&videoid=2721"
}