{
  "content_id": "130187",
  "title": "Володя большой, Володя маленький",
  "release_date": "1985",
  "orig_country": "СССР",
  "lang": "Русский",
  "restrict": "16+",
  "kinopoisk_id": "252094",
  "kinopoisk_rating": "6.81",
  "imdb_rating": "6.1",
  "duration": "3787",
  "category": "Фильмы",
  "genres": "Драмы,Советское кино",
  "vr_identifier": "Володя большой, Володя маленький",
  "iframe": "https://www.ivi.ru/embeds/video/?subsite=1&autostart=0&videoid=130187"
}