{
  "content_id": "54224",
  "title": "Четыре таксиста и собака 2",
  "release_date": "2006",
  "orig_country": "Россия",
  "lang": "Русский",
  "restrict": "6+",
  "kinopoisk_id": "252116",
  "kinopoisk_rating": "5.27",
  "imdb_rating": "4.5",
  "duration": "7768",
  "category": "Фильмы",
  "genres": "Комедии,Русские",
  "vr_identifier": "Четыре таксиста и собака 2",
  "iframe": "https://www.ivi.ru/embeds/video/?subsite=1&autostart=0&videoid=54224"
}