{
  "content_id": "42096",
  "title": "Дефицит",
  "orig_title": "Déficit",
  "release_date": "2007",
  "orig_country": "Мексика",
  "lang": "Испанский",
  "restrict": "16+",
  "kinopoisk_id": "252270",
  "kinopoisk_rating": "5.76",
  "imdb_rating": "4.6",
  "duration": "4769",
  "category": "Фильмы",
  "genres": "Драмы,Зарубежные",
  "vr_identifier": "Дефицит",
  "iframe": "https://www.ivi.ru/embeds/video/?subsite=1&autostart=0&videoid=42096"
}