{
  "content_id": "138107",
  "title": "Пятая заповедь",
  "orig_title": "The Fifth Commandment",
  "release_date": "2008",
  "orig_country": "США",
  "lang": "Английский",
  "restrict": "16+",
  "kinopoisk_id": "252522",
  "kinopoisk_rating": "5.03",
  "imdb_rating": "4.7",
  "duration": "5421",
  "category": "Фильмы",
  "genres": "Боевики,Драмы,Зарубежные,Комедии,Криминал,Триллеры",
  "vr_identifier": "Пятая заповедь",
  "iframe": "https://www.ivi.ru/embeds/video/?subsite=1&autostart=0&videoid=138107"
}