{
  "content_id": "409119",
  "title": "Смертный приговор",
  "orig_title": "Death Sentence",
  "release_date": "2007",
  "orig_country": "США",
  "lang": "Английский",
  "restrict": "16+",
  "kinopoisk_id": "256164",
  "duration": "6079",
  "category": "Фильмы",
  "genres": "Боевики,Зарубежные,Криминал,Триллеры",
  "vr_identifier": "Death Sentence",
  "iframe": "https://www.ivi.ru/embeds/video/?subsite=1&autostart=0&videoid=409119"
}