{
  "content_id": "45980",
  "title": "Привет, Малыш!",
  "release_date": "2001",
  "orig_country": "Россия",
  "lang": "Русский",
  "restrict": "12+",
  "kinopoisk_id": "257805",
  "kinopoisk_rating": "7.09",
  "duration": "5340",
  "category": "Фильмы",
  "genres": "Комедии,Мелодрамы,Русские",
  "vr_identifier": "Привет, Малыш!",
  "iframe": "https://www.ivi.ru/embeds/video/?subsite=1&autostart=0&videoid=45980"
}