{
  "content_id": "15038",
  "title": "Боба и слон",
  "release_date": "1972",
  "orig_country": "СССР",
  "lang": "Русский",
  "restrict": "0+",
  "kinopoisk_id": "257943",
  "kinopoisk_rating": "7.4",
  "imdb_rating": "6.8",
  "duration": "3816",
  "category": "Фильмы",
  "genres": "Для всей семьи,Для детей,Советское кино,Фильмы",
  "vr_identifier": "Боба и слон",
  "iframe": "https://www.ivi.ru/embeds/video/?subsite=1&autostart=0&videoid=15038"
}