{
  "content_id": "220786",
  "title": "Мы за солнышком идем",
  "release_date": "1958",
  "orig_country": "СССР",
  "lang": "Русский",
  "restrict": "0+",
  "kinopoisk_id": "257965",
  "kinopoisk_rating": "6.41",
  "duration": "597",
  "category": "Мультфильмы",
  "genres": "Для всей семьи,Для детей,Русские мультфильмы,Сказки,Советские",
  "vr_identifier": "Мы за солнышком идем",
  "iframe": "https://www.ivi.ru/embeds/video/?subsite=1&autostart=0&videoid=220786"
}