{
  "content_id": "220837",
  "title": "Разрешите погулять с вашей собакой",
  "release_date": "1984",
  "orig_country": "СССР",
  "lang": "Русский",
  "restrict": "0+",
  "kinopoisk_id": "260146",
  "kinopoisk_rating": "7.09",
  "duration": "574",
  "category": "Мультфильмы",
  "genres": "Для всей семьи,Для детей,Русские мультфильмы,Советские",
  "vr_identifier": "Разрешите погулять с вашей собакой",
  "iframe": "https://www.ivi.ru/embeds/video/?subsite=1&autostart=0&videoid=220837"
}