{
  "content_id": "87668",
  "title": "Убийства в Оксфорде",
  "orig_title": "The Oxford Murders",
  "release_date": "2008",
  "orig_country": "Франция",
  "lang": "Французский",
  "restrict": "16+",
  "kinopoisk_id": "261761",
  "kinopoisk_rating": "6.69",
  "imdb_rating": "6.1",
  "duration": "6240",
  "category": "Фильмы",
  "genres": "Детективы,Криминал,Триллеры",
  "vr_identifier": "Убийства в Оксфорде",
  "iframe": "https://www.ivi.ru/embeds/video/?subsite=1&autostart=0&videoid=87668"
}