{
  "content_id": "54234",
  "title": "Тиски",
  "release_date": "2007",
  "orig_country": "Россия",
  "lang": "Русский",
  "restrict": "16+",
  "kinopoisk_id": "271700",
  "kinopoisk_rating": "6.91",
  "imdb_rating": "6.4",
  "duration": "7555",
  "category": "Фильмы",
  "genres": "Драмы,Криминал,Русские,Триллеры",
  "vr_identifier": "Тиски",
  "iframe": "https://www.ivi.ru/embeds/video/?subsite=1&autostart=0&videoid=54234"
}