{
  "content_id": "60778",
  "title": "Залечь на дно в Брюгге",
  "orig_title": "In Bruges",
  "release_date": "2008",
  "orig_country": "США",
  "lang": "Английский",
  "restrict": "18+",
  "kinopoisk_id": "276295",
  "kinopoisk_rating": "7.75",
  "imdb_rating": "7.9",
  "duration": "6408",
  "category": "Фильмы",
  "genres": "Драмы,Зарубежные,Комедии,Криминал,Триллеры",
  "vr_identifier": "Залечь на дно в Брюгге",
  "iframe": "https://www.ivi.ru/embeds/video/?subsite=1&autostart=0&videoid=60778"
}