{
  "content_id": "96305",
  "title": "Драйв",
  "orig_title": "Drive",
  "release_date": "2011",
  "orig_country": "США",
  "lang": "Английский",
  "restrict": "18+",
  "kinopoisk_id": "276598",
  "kinopoisk_rating": "7.22",
  "imdb_rating": "7.8",
  "duration": "6000",
  "category": "Фильмы",
  "genres": "Драмы,Зарубежные,Криминал",
  "vr_identifier": "Драйв",
  "iframe": "https://www.ivi.ru/embeds/video/?subsite=1&autostart=0&videoid=96305"
}