{
  "content_id": "151782",
  "title": "Держать дистанцию",
  "orig_title": "La giusta distanza",
  "release_date": "2007",
  "orig_country": "Италия",
  "restrict": "16+",
  "kinopoisk_id": "278478",
  "kinopoisk_rating": "7.26",
  "imdb_rating": "7",
  "duration": "6372",
  "category": "Фильмы",
  "genres": "Драмы,Зарубежные",
  "vr_identifier": "Держать дистанцию",
  "iframe": "https://www.ivi.ru/embeds/video/?subsite=1&autostart=0&videoid=151782"
}