{
  "content_id": "413221",
  "title": "Купи, одолжи, укради",
  "orig_title": "Miss Conception",
  "release_date": "2008",
  "orig_country": "Германия",
  "lang": "Английский",
  "restrict": "16+",
  "kinopoisk_id": "281378",
  "duration": "5962",
  "category": "Фильмы",
  "genres": "Зарубежные,Комедии,Мелодрамы",
  "vr_identifier": "Купи, одолжи, укради",
  "iframe": "https://www.ivi.ru/embeds/video/?subsite=1&autostart=0&videoid=413221"
}