{
  "content_id": "199406",
  "title": "Город греха 2",
  "orig_title": "Private: Sex City 2",
  "release_date": "2006",
  "orig_country": "Испания",
  "lang": "Английский",
  "restrict": "18+",
  "kinopoisk_id": "283955",
  "kinopoisk_rating": "5.97",
  "imdb_rating": "5.2",
  "duration": "5962",
  "category": "Фильмы",
  "genres": "Эротика",
  "vr_identifier": "Город греха 2",
  "iframe": "https://www.ivi.ru/embeds/video/?subsite=1&autostart=0&videoid=199406"
}