{
  "content_id": "199407",
  "title": "Город греха 3",
  "orig_title": "Private: Sex City 3",
  "release_date": "2006",
  "orig_country": "Испания",
  "lang": "Английский",
  "restrict": "18+",
  "kinopoisk_id": "283954",
  "kinopoisk_rating": "5.9",
  "imdb_rating": "5.3",
  "duration": "6109",
  "category": "Фильмы",
  "genres": "Эротика",
  "vr_identifier": "Город греха 3",
  "iframe": "https://www.ivi.ru/embeds/video/?subsite=1&autostart=0&videoid=199407"
}