{
  "content_id": "132577",
  "title": "Мошенники",
  "orig_title": "Serving Sara",
  "release_date": "2002",
  "orig_country": "США",
  "restrict": "12+",
  "kinopoisk_id": "2899",
  "kinopoisk_rating": "7",
  "imdb_rating": "5.3",
  "duration": "5940",
  "category": "Фильмы",
  "genres": "Зарубежные,Комедии,Мелодрамы",
  "vr_identifier": "Мошенники",
  "iframe": "https://www.ivi.ru/embeds/video/?subsite=1&autostart=0&videoid=132577"
}