{
  "content_id": "85870",
  "title": "МакБрайд: Падший ангел",
  "orig_title": "McBride: Fallen Idol",
  "compilation_id": "8862",
  "compilation": "МакБрайд: Падший ангел",
  "release_date": "2006",
  "orig_country": "США",
  "lang": "Английский",
  "restrict": "16+",
  "kinopoisk_id": "300060",
  "kinopoisk_rating": "0",
  "imdb_rating": "6.6",
  "season": "1",
  "episode": "13",
  "duration": "4802",
  "category": "Сериалы",
  "genres": "Детективы,Зарубежные",
  "vr_identifier": "МакБрайд: Падший ангел",
  "iframe": "https://www.ivi.ru/embeds/video/?subsite=1&autostart=0&videoid=85870"
}