{
  "content_id": "130852",
  "title": "Три оплеухи",
  "release_date": "1982",
  "orig_country": "СССР",
  "lang": "Русский",
  "restrict": "0+",
  "kinopoisk_id": "301212",
  "kinopoisk_rating": "0",
  "duration": "3780",
  "category": "Фильмы",
  "genres": "Музыкальные,Советское кино,Фэнтези",
  "vr_identifier": "Три оплеухи",
  "iframe": "https://www.ivi.ru/embeds/video/?subsite=1&autostart=0&videoid=130852"
}