{
  "content_id": "220915",
  "title": "Халиф-аист",
  "release_date": "1981",
  "orig_country": "СССР",
  "lang": "Русский",
  "restrict": "6+",
  "kinopoisk_id": "304143",
  "kinopoisk_rating": "7.82",
  "imdb_rating": "7.8",
  "duration": "1182",
  "category": "Мультфильмы",
  "genres": "Для всей семьи,Для детей,Драма,Русские,Русские мультфильмы,Сказки,Советские,Фэнтези",
  "vr_identifier": "Халиф-аист",
  "iframe": "https://www.ivi.ru/embeds/video/?subsite=1&autostart=0&videoid=220915"
}