{
  "content_id": "61277",
  "title": "Ужасы Лох-Несса",
  "orig_title": "Beyond Loch Ness",
  "release_date": "2008",
  "orig_country": "Канада",
  "lang": "Русский",
  "restrict": "16+",
  "kinopoisk_id": "307420",
  "kinopoisk_rating": "3.88",
  "imdb_rating": "4.1",
  "duration": "5253",
  "category": "Фильмы",
  "genres": "Детективы,Зарубежные,Триллеры,Ужасы,Фантастика",
  "vr_identifier": "BEYOND LOCH NESS",
  "iframe": "https://www.ivi.ru/embeds/video/?subsite=1&autostart=0&videoid=61277"
}