{
  "content_id": "85864",
  "title": "Санта младший",
  "orig_title": "Santa, Jr.",
  "release_date": "2002",
  "orig_country": "США",
  "lang": "Английский",
  "restrict": "16+",
  "kinopoisk_id": "318563",
  "kinopoisk_rating": "5.86",
  "imdb_rating": "5.7",
  "duration": "5040",
  "category": "Фильмы",
  "genres": "Зарубежные,Комедии,Мелодрамы,Приключения",
  "vr_identifier": "SANTA JUNIOR",
  "iframe": "https://www.ivi.ru/embeds/video/?subsite=1&autostart=0&videoid=85864"
}