{
  "content_id": "60787",
  "title": "Путь воина",
  "orig_title": "The Warrior's Way",
  "release_date": "2010",
  "orig_country": "США",
  "lang": "Английский",
  "restrict": "16+",
  "kinopoisk_id": "325399",
  "kinopoisk_rating": "6.23",
  "imdb_rating": "6.3",
  "duration": "5765",
  "category": "Фильмы",
  "genres": "Боевики,Вестерн,Зарубежные,Фэнтези",
  "vr_identifier": "Путь воина",
  "iframe": "https://www.ivi.ru/embeds/video/?subsite=1&autostart=0&videoid=60787"
}