{
  "content_id": "53406",
  "title": "На трезвую голову",
  "orig_title": "Swing Vote",
  "release_date": "2008",
  "orig_country": "США",
  "lang": "Английский",
  "restrict": "12+",
  "kinopoisk_id": "325464",
  "kinopoisk_rating": "6.43",
  "imdb_rating": "6.1",
  "duration": "6895",
  "category": "Фильмы",
  "genres": "Драмы,Зарубежные,Комедии",
  "vr_identifier": "На трезвую голову",
  "iframe": "https://www.ivi.ru/embeds/video/?subsite=1&autostart=0&videoid=53406"
}