{
  "content_id": "59600",
  "title": "Проклятый сезон",
  "orig_title": "Dark Blue",
  "release_date": "2002",
  "orig_country": "США",
  "lang": "Английский",
  "restrict": "16+",
  "kinopoisk_id": "3443",
  "kinopoisk_rating": "6.69",
  "imdb_rating": "6.6",
  "duration": "6787",
  "category": "Фильмы",
  "genres": "Драмы,Зарубежные,Криминал,Триллеры",
  "vr_identifier": "Проклятый сезон",
  "iframe": "https://www.ivi.ru/embeds/video/?subsite=1&autostart=0&videoid=59600"
}