{
  "content_id": "59522",
  "title": "Крутой папочка",
  "orig_title": "15 ans et demi",
  "release_date": "2008",
  "orig_country": "Франция",
  "lang": "Французский",
  "restrict": "16+",
  "kinopoisk_id": "391838",
  "kinopoisk_rating": "6.4",
  "imdb_rating": "5.1",
  "duration": "5576",
  "category": "Фильмы",
  "genres": "Зарубежные,Комедии",
  "vr_identifier": "Крутой папочка",
  "iframe": "https://www.ivi.ru/embeds/video/?subsite=1&autostart=0&videoid=59522"
}