{
  "content_id": "49994",
  "title": "Тайна подземелья",
  "orig_title": "Eden Log",
  "release_date": "2007",
  "orig_country": "Франция",
  "lang": "Французский",
  "restrict": "16+",
  "kinopoisk_id": "394621",
  "kinopoisk_rating": "5.56",
  "imdb_rating": "5.3",
  "duration": "5880",
  "category": "Фильмы",
  "genres": "Детективы,Зарубежные,Триллеры,Ужасы,Фантастика",
  "vr_identifier": "Тайна подземелья",
  "iframe": "https://www.ivi.ru/embeds/video/?subsite=1&autostart=0&videoid=49994"
}