{
  "content_id": "40555",
  "title": "Звездные собаки: Белка и Стрелка",
  "release_date": "2010",
  "orig_country": "Россия",
  "lang": "Русский",
  "restrict": "0+",
  "kinopoisk_id": "395691",
  "kinopoisk_rating": "5.98",
  "imdb_rating": "5.1",
  "duration": "5301",
  "category": "Мультфильмы",
  "genres": "Для детей,Полнометражные,Про животных,Русские,Русские мультфильмы",
  "vr_identifier": "Звездные собаки: Белка и Стрелка",
  "iframe": "https://www.ivi.ru/embeds/video/?subsite=1&autostart=0&videoid=40555"
}