{
  "content_id": "54231",
  "title": "Родина или смерть",
  "release_date": "2007",
  "orig_country": "Россия",
  "lang": "Русский",
  "restrict": "12+",
  "kinopoisk_id": "397298",
  "kinopoisk_rating": "4.27",
  "imdb_rating": "3.7",
  "duration": "6000",
  "category": "Фильмы",
  "genres": "Военные,Для детей,Приключения,Русские",
  "vr_identifier": "Родина или смерть",
  "iframe": "https://www.ivi.ru/embeds/video/?subsite=1&autostart=0&videoid=54231"
}