{
  "content_id": "225350",
  "title": "Без названия",
  "orig_title": "(Untitled)",
  "release_date": "2009",
  "orig_country": "США",
  "lang": "Английский",
  "restrict": "16+",
  "kinopoisk_id": "397560",
  "duration": "5559",
  "category": "Фильмы",
  "genres": "Драмы,Зарубежные,Комедии,Музыкальные",
  "vr_identifier": "Без названия",
  "iframe": "https://www.ivi.ru/embeds/video/?subsite=1&autostart=0&videoid=225350"
}