{
  "content_id": "42106",
  "title": "Оптические иллюзии",
  "orig_title": "Ilusiones ópticas",
  "release_date": "2009",
  "orig_country": "Франция",
  "lang": "Французский",
  "restrict": "16+",
  "kinopoisk_id": "398584",
  "kinopoisk_rating": "5.27",
  "imdb_rating": "6.3",
  "duration": "6136",
  "category": "Фильмы",
  "genres": "Драмы,Зарубежные,Комедии",
  "vr_identifier": "Оптические иллюзии",
  "iframe": "https://www.ivi.ru/embeds/video/?subsite=1&autostart=0&videoid=42106"
}