{
  "content_id": "170500",
  "title": "Рэкетир",
  "release_date": "2007",
  "orig_country": "Казахстан",
  "lang": "Русский",
  "restrict": "16+",
  "kinopoisk_id": "398936",
  "kinopoisk_rating": "7.56",
  "imdb_rating": "7.1",
  "duration": "4816",
  "category": "Фильмы",
  "genres": "Боевики,Драмы,Зарубежные,Криминал",
  "vr_identifier": "Рэкетир",
  "iframe": "https://www.ivi.ru/embeds/video/?subsite=1&autostart=0&videoid=170500"
}