{
  "content_id": "85499",
  "title": "Идеальная жена",
  "release_date": "2007",
  "orig_country": "Россия",
  "lang": "Русский",
  "restrict": "16+",
  "kinopoisk_id": "400489",
  "kinopoisk_rating": "6.01",
  "imdb_rating": "6.5",
  "duration": "5708",
  "category": "Фильмы",
  "genres": "Комедии,Русские",
  "vr_identifier": "Идеальная жена",
  "iframe": "https://www.ivi.ru/embeds/video/?subsite=1&autostart=0&videoid=85499"
}