{
  "content_id": "85109",
  "title": "Откройте, Дед Мороз!",
  "release_date": "2007",
  "orig_country": "Россия",
  "lang": "Русский",
  "restrict": "12+",
  "kinopoisk_id": "403493",
  "kinopoisk_rating": "5.28",
  "imdb_rating": "5",
  "duration": "5897",
  "category": "Фильмы",
  "genres": "Комедии,Мелодрамы,Русские",
  "vr_identifier": "Откройте, Дед Мороз",
  "iframe": "https://www.ivi.ru/embeds/video/?subsite=1&autostart=0&videoid=85109"
}