{
  "content_id": "51485",
  "title": "Лучшее время года",
  "release_date": "2007",
  "orig_country": "Россия",
  "lang": "Русский",
  "restrict": "18+",
  "kinopoisk_id": "404182",
  "kinopoisk_rating": "5.84",
  "imdb_rating": "5.4",
  "duration": "5580",
  "category": "Фильмы",
  "genres": "Драмы,Русские",
  "vr_identifier": "Лучшее время года",
  "iframe": "https://www.ivi.ru/embeds/video/?subsite=1&autostart=0&videoid=51485"
}