{
  "content_id": "159996",
  "title": "Робосапиен: Перезагрузка",
  "orig_title": "Robosapien: Rebooted",
  "release_date": "2013",
  "orig_country": "США",
  "lang": "Английский",
  "restrict": "16+",
  "kinopoisk_id": "406336",
  "duration": "4936",
  "category": "Фильмы",
  "genres": "Для всей семьи,Для детей,Драмы,Зарубежные,Приключения,Фантастика,Фильмы",
  "vr_identifier": "Робосапиен: Перезагрузка",
  "iframe": "https://www.ivi.ru/embeds/video/?subsite=1&autostart=0&videoid=159996"
}