{
  "content_id": "69999",
  "title": "Знак судьбы",
  "release_date": "2007",
  "orig_country": "Украина",
  "lang": "Русский",
  "restrict": "16+",
  "kinopoisk_id": "409062",
  "kinopoisk_rating": "6.02",
  "duration": "6180",
  "category": "Фильмы",
  "genres": "Криминал,Мелодрамы,Русские",
  "vr_identifier": "Знак судьбы",
  "iframe": "https://www.ivi.ru/embeds/video/?subsite=1&autostart=0&videoid=69999"
}