{
  "content_id": "138676",
  "title": "Джиперс Криперс 3",
  "orig_title": "Jeepers Creepers 3",
  "release_date": "2017",
  "orig_country": "США",
  "lang": "Английский",
  "restrict": "18+",
  "kinopoisk_id": "409178",
  "kinopoisk_rating": "4.33",
  "imdb_rating": "4.1",
  "duration": "5825",
  "category": "Фильмы",
  "genres": "Детективы,Зарубежные,Триллеры,Ужасы",
  "vr_identifier": "Джиперс Криперс 3",
  "iframe": "https://www.ivi.ru/embeds/video/?subsite=1&autostart=0&videoid=138676"
}