{
  "content_id": "409269",
  "title": "Одноклассницы и тайна пиратского золота",
  "orig_title": "St Trinian's 2: The Legend of Fritton's Gold",
  "release_date": "2009",
  "orig_country": "Великобритания",
  "lang": "Английский",
  "restrict": "16+",
  "kinopoisk_id": "409222",
  "duration": "6067",
  "category": "Фильмы",
  "genres": "Зарубежные,Комедии,Приключения",
  "vr_identifier": "St Trinian's 2: The Legend of Fritton's Gold",
  "iframe": "https://www.ivi.ru/embeds/video/?subsite=1&autostart=0&videoid=409269"
}