{
  "content_id": "67772",
  "title": "Дикая вишня",
  "orig_title": "Wild Cherry",
  "release_date": "2009",
  "orig_country": "Канада",
  "lang": "Английский",
  "restrict": "18+",
  "kinopoisk_id": "409460",
  "kinopoisk_rating": "4.89",
  "imdb_rating": "4.2",
  "duration": "4920",
  "category": "Фильмы",
  "genres": "Комедии",
  "vr_identifier": "Дикая вишня",
  "iframe": "https://www.ivi.ru/embeds/video/?subsite=1&autostart=0&videoid=67772"
}