{
  "content_id": "50150",
  "title": "Тайный знак",
  "orig_title": "An Invisible Sign",
  "release_date": "2010",
  "orig_country": "США",
  "lang": "Английский",
  "restrict": "12+",
  "kinopoisk_id": "410566",
  "kinopoisk_rating": "5.76",
  "imdb_rating": "5.4",
  "duration": "5400",
  "category": "Фильмы",
  "genres": "Для всей семьи,Драмы,Зарубежные,Комедии,Мелодрамы",
  "vr_identifier": "Тайный знак",
  "iframe": "https://www.ivi.ru/embeds/video/?subsite=1&autostart=0&videoid=50150"
}