{
  "content_id": "109163",
  "title": "Дневник лесбиянки",
  "orig_title": "Eloïse",
  "release_date": "2009",
  "orig_country": "Испания",
  "lang": "Испанский",
  "restrict": "18+",
  "kinopoisk_id": "410880",
  "kinopoisk_rating": "6.51",
  "imdb_rating": "6.5",
  "duration": "5529",
  "category": "Фильмы",
  "genres": "Драмы,Зарубежные,Мелодрамы",
  "vr_identifier": "Дневник лесбиянки",
  "iframe": "https://www.ivi.ru/embeds/video/?subsite=1&autostart=0&videoid=109163"
}