{
  "content_id": "60211",
  "title": "Кто, если не мы",
  "release_date": "1998",
  "orig_country": "Россия",
  "lang": "Русский",
  "restrict": "12+",
  "kinopoisk_id": "41276",
  "kinopoisk_rating": "7.61",
  "imdb_rating": "6.8",
  "duration": "5239",
  "category": "Фильмы",
  "genres": "Драмы,Русские",
  "vr_identifier": "Кто, если не мы",
  "iframe": "https://www.ivi.ru/embeds/video/?subsite=1&autostart=0&videoid=60211"
}