{
  "content_id": "60218",
  "title": "Любовь зла...",
  "release_date": "1999",
  "orig_country": "Россия",
  "lang": "Русский",
  "restrict": "0+",
  "kinopoisk_id": "41310",
  "kinopoisk_rating": "6.33",
  "imdb_rating": "5.5",
  "duration": "4341",
  "category": "Фильмы",
  "genres": "Комедии,Русские",
  "vr_identifier": "Любовь зла...",
  "iframe": "https://www.ivi.ru/embeds/video/?subsite=1&autostart=0&videoid=60218"
}