{
  "content_id": "102469",
  "title": "Горячие новости",
  "release_date": "2009",
  "orig_country": "Россия",
  "lang": "Русский",
  "restrict": "16+",
  "kinopoisk_id": "415097",
  "kinopoisk_rating": "5.92",
  "imdb_rating": "5.9",
  "duration": "6420",
  "category": "Фильмы",
  "genres": "Боевики,Драмы,Криминал,Триллеры",
  "vr_identifier": "Горячие новости",
  "iframe": "https://www.ivi.ru/embeds/video/?subsite=1&autostart=0&videoid=102469"
}