{
  "content_id": "59540",
  "title": "Огонь и лед: Хроники драконов",
  "orig_title": "Fire & Ice",
  "release_date": "2008",
  "orig_country": "Румыния",
  "lang": "Английский",
  "restrict": "0+",
  "kinopoisk_id": "415628",
  "kinopoisk_rating": "4.64",
  "imdb_rating": "4.4",
  "duration": "4941",
  "category": "Фильмы",
  "genres": "Драмы,Зарубежные,Приключения,Фэнтези",
  "vr_identifier": "Огонь и лед: Хроники драконов",
  "iframe": "https://www.ivi.ru/embeds/video/?subsite=1&autostart=0&videoid=59540"
}