{
  "content_id": "59508",
  "title": "Дикая штучка",
  "orig_title": "Wild Target",
  "release_date": "2009",
  "orig_country": "Великобритания",
  "lang": "Английский",
  "restrict": "12+",
  "kinopoisk_id": "416199",
  "kinopoisk_rating": "6.92",
  "imdb_rating": "6.8",
  "duration": "5637",
  "category": "Фильмы",
  "genres": "Боевики,Зарубежные,Комедии,Криминал",
  "vr_identifier": "Дикая штучка",
  "iframe": "https://www.ivi.ru/embeds/video/?subsite=1&autostart=0&videoid=59508"
}