{
  "content_id": "21202",
  "title": "Камера 211",
  "orig_title": "Celda 211",
  "release_date": "2009",
  "orig_country": "Испания",
  "lang": "Испанский",
  "restrict": "16+",
  "kinopoisk_id": "416547",
  "kinopoisk_rating": "7.56",
  "imdb_rating": "7.7",
  "duration": "6480",
  "category": "Фильмы",
  "genres": "Боевики,Драмы,Зарубежные,Криминал,Триллеры",
  "vr_identifier": "Камера 211",
  "iframe": "https://www.ivi.ru/embeds/video/?subsite=1&autostart=0&videoid=21202"
}