{
  "content_id": "11615",
  "title": "Опасная комбинация",
  "release_date": "2008",
  "orig_country": "Россия",
  "lang": "Русский",
  "restrict": "16+",
  "kinopoisk_id": "417677",
  "kinopoisk_rating": "4.43",
  "imdb_rating": "4.3",
  "duration": "5653",
  "category": "Фильмы",
  "genres": "Боевики,Русские",
  "vr_identifier": "Опасная комбинация",
  "iframe": "https://www.ivi.ru/embeds/video/?subsite=1&autostart=0&videoid=11615"
}