{
  "content_id": "66719",
  "title": "Обратная сторона Луны",
  "release_date": "1983",
  "orig_country": "СССР",
  "lang": "Русский",
  "restrict": "0+",
  "kinopoisk_id": "417742",
  "kinopoisk_rating": "7.64",
  "imdb_rating": "7.1",
  "duration": "580",
  "category": "Мультфильмы",
  "genres": "Для взрослых,Для всей семьи,Для детей,Русские мультфильмы,Советские",
  "vr_identifier": "Обратная сторона Луны",
  "iframe": "https://www.ivi.ru/embeds/video/?subsite=1&autostart=0&videoid=66719"
}