{
  "content_id": "51047",
  "title": "Под знаком Девы",
  "release_date": "2008",
  "orig_country": "Украина",
  "lang": "Русский",
  "restrict": "16+",
  "kinopoisk_id": "417766",
  "kinopoisk_rating": "4.73",
  "duration": "5340",
  "category": "Фильмы",
  "genres": "Мелодрамы",
  "vr_identifier": "Под знаком Девы",
  "iframe": "https://www.ivi.ru/embeds/video/?subsite=1&autostart=0&videoid=51047"
}