{
  "content_id": "46327",
  "title": "Я объявляю вам войну",
  "release_date": "1990",
  "orig_country": "СССР",
  "lang": "Русский",
  "restrict": "12+",
  "kinopoisk_id": "419401",
  "kinopoisk_rating": "6.9",
  "imdb_rating": "6.8",
  "duration": "5014",
  "category": "Фильмы",
  "genres": "Криминал,Советское кино",
  "vr_identifier": "Я объявляю вам войну",
  "iframe": "https://www.ivi.ru/embeds/video/?subsite=1&autostart=0&videoid=46327"
}