{
  "content_id": "218354",
  "title": "Трудно быть богом",
  "orig_country": "Германия",
  "lang": "Русский",
  "restrict": "16+",
  "kinopoisk_id": "42000",
  "kinopoisk_rating": "6.06",
  "imdb_rating": "6.5",
  "duration": "7676",
  "category": "Фильмы",
  "genres": "Драмы,Зарубежные,Фантастика",
  "vr_identifier": "Трудно быть богом",
  "iframe": "https://www.ivi.ru/embeds/video/?subsite=1&autostart=0&videoid=218354"
}