{
  "content_id": "37221",
  "title": "Азиат",
  "release_date": "2008",
  "orig_country": "Россия",
  "lang": "Русский",
  "restrict": "16+",
  "kinopoisk_id": "420158",
  "kinopoisk_rating": "4.64",
  "duration": "5833",
  "category": "Фильмы",
  "genres": "Боевики,Приключения,Русские",
  "vr_identifier": "Азиат",
  "iframe": "https://www.ivi.ru/embeds/video/?subsite=1&autostart=0&videoid=37221"
}