{
  "content_id": "31841",
  "title": "Разборчивый жених",
  "release_date": "1992",
  "orig_country": "Россия",
  "lang": "Русский",
  "restrict": "12+",
  "kinopoisk_id": "420300",
  "kinopoisk_rating": "6.89",
  "imdb_rating": "6.6",
  "duration": "5770",
  "category": "Фильмы",
  "genres": "Комедии,Мелодрамы,Русские",
  "vr_identifier": "Разборчивый жених",
  "iframe": "https://www.ivi.ru/embeds/video/?subsite=1&autostart=0&videoid=31841"
}