{
  "content_id": "85558",
  "title": "Ловушка",
  "release_date": "2007",
  "orig_country": "Россия",
  "lang": "Русский",
  "restrict": "16+",
  "kinopoisk_id": "420404",
  "kinopoisk_rating": "5.14",
  "duration": "5160",
  "category": "Фильмы",
  "genres": "Боевики,Драмы,Русские",
  "vr_identifier": "Ловушка  для мастера (Рубеж)",
  "iframe": "https://www.ivi.ru/embeds/video/?subsite=1&autostart=0&videoid=85558"
}