{
  "content_id": "31834",
  "title": "Римский-Корсаков",
  "release_date": "1952",
  "orig_country": "СССР",
  "lang": "Русский",
  "restrict": "0+",
  "kinopoisk_id": "42095",
  "kinopoisk_rating": "7.45",
  "imdb_rating": "6.8",
  "duration": "6427",
  "category": "Фильмы",
  "genres": "Биография,Драмы,Советское кино",
  "vr_identifier": "Римский-Корсаков",
  "iframe": "https://www.ivi.ru/embeds/video/?subsite=1&autostart=0&videoid=31834"
}