{
  "content_id": "62639",
  "title": "Рок",
  "release_date": "1987",
  "orig_country": "СССР",
  "lang": "Русский",
  "restrict": "0+",
  "kinopoisk_id": "42121",
  "kinopoisk_rating": "7.36",
  "imdb_rating": "7.2",
  "duration": "4830",
  "category": "Фильмы",
  "genres": "Документальные,Музыкальные",
  "vr_identifier": "Рок",
  "iframe": "https://www.ivi.ru/embeds/video/?subsite=1&autostart=0&videoid=62639"
}