{
  "content_id": "211596",
  "title": "На исходе лета",
  "release_date": "1979",
  "orig_country": "СССР",
  "lang": "Русский",
  "restrict": "6+",
  "kinopoisk_id": "421440",
  "kinopoisk_rating": "7.6",
  "imdb_rating": "7.8",
  "duration": "4066",
  "category": "Фильмы",
  "genres": "Для всей семьи,Драмы,Советское кино",
  "vr_identifier": "На исходе лета",
  "iframe": "https://www.ivi.ru/embeds/video/?subsite=1&autostart=0&videoid=211596"
}