{
  "content_id": "53355",
  "title": "Тайна записной книжки",
  "release_date": "1981",
  "orig_country": "СССР",
  "lang": "Русский",
  "restrict": "12+",
  "kinopoisk_id": "42175",
  "kinopoisk_rating": "5.71",
  "imdb_rating": "4.8",
  "duration": "4596",
  "category": "Фильмы",
  "genres": "Детективы,Советское кино",
  "vr_identifier": "Тайна записной книжки",
  "iframe": "https://www.ivi.ru/embeds/video/?subsite=1&autostart=0&videoid=53355"
}