{
  "content_id": "34358",
  "title": "Таланты и поклонники",
  "release_date": "1955",
  "orig_country": "СССР",
  "lang": "Русский",
  "restrict": "16+",
  "kinopoisk_id": "42194",
  "kinopoisk_rating": "6.61",
  "imdb_rating": "7.5",
  "duration": "5034",
  "category": "Фильмы",
  "genres": "Драмы,Советское кино",
  "vr_identifier": "Таланты и поклонники",
  "iframe": "https://www.ivi.ru/embeds/video/?subsite=1&autostart=0&videoid=34358"
}