{
  "content_id": "218351",
  "title": "Третий удар",
  "release_date": "1948",
  "orig_country": "СССР",
  "lang": "Русский",
  "restrict": "12+",
  "kinopoisk_id": "42286",
  "kinopoisk_rating": "6.14",
  "imdb_rating": "7.4",
  "duration": "6364",
  "category": "Фильмы",
  "genres": "Военные,Исторические,Советское кино",
  "vr_identifier": "Третий удар",
  "iframe": "https://www.ivi.ru/embeds/video/?subsite=1&autostart=0&videoid=218351"
}