{
  "content_id": "31360",
  "title": "Враги",
  "release_date": "2007",
  "orig_country": "Россия",
  "lang": "Русский",
  "restrict": "16+",
  "kinopoisk_id": "423020",
  "kinopoisk_rating": "6.22",
  "imdb_rating": "6.2",
  "duration": "4682",
  "category": "Фильмы",
  "genres": "Военные,Русские",
  "vr_identifier": "Враги",
  "iframe": "https://www.ivi.ru/embeds/video/?subsite=1&autostart=0&videoid=31360"
}