{
  "content_id": "53021",
  "title": "Еще раз про любовь",
  "release_date": "1968",
  "orig_country": "СССР",
  "lang": "Русский",
  "restrict": "12+",
  "kinopoisk_id": "42443",
  "kinopoisk_rating": "8.13",
  "imdb_rating": "7.4",
  "duration": "5461",
  "category": "Фильмы",
  "genres": "Драмы,Мелодрамы,Советское кино",
  "vr_identifier": "Еще раз про любовь",
  "iframe": "https://www.ivi.ru/embeds/video/?subsite=1&autostart=0&videoid=53021"
}