{
  "content_id": "209030",
  "title": "Спящий лев",
  "release_date": "1965",
  "orig_country": "СССР",
  "lang": "Русский",
  "restrict": "12+",
  "kinopoisk_id": "425058",
  "kinopoisk_rating": "6.47",
  "imdb_rating": "6.3",
  "duration": "4244",
  "category": "Фильмы",
  "genres": "Комедии,Советское кино",
  "vr_identifier": "Спящий лев",
  "iframe": "https://www.ivi.ru/embeds/video/?subsite=1&autostart=0&videoid=209030"
}