{
  "content_id": "218356",
  "title": "Тяжелая вода",
  "release_date": "1979",
  "orig_country": "СССР",
  "lang": "Русский",
  "restrict": "12+",
  "kinopoisk_id": "425081",
  "kinopoisk_rating": "0",
  "duration": "4835",
  "category": "Фильмы",
  "genres": "Военные,Драмы,Советское кино",
  "vr_identifier": "Тяжелая вода",
  "iframe": "https://www.ivi.ru/embeds/video/?subsite=1&autostart=0&videoid=218356"
}