{
  "content_id": "315457",
  "title": "По ту сторону (На другом конце провода)",
  "orig_title": "The Other End of the Line",
  "release_date": "2008",
  "orig_country": "США",
  "lang": "Английский",
  "restrict": "16+",
  "kinopoisk_id": "425090",
  "kinopoisk_rating": "7.02",
  "imdb_rating": "6.3",
  "duration": "6063",
  "category": "Фильмы",
  "genres": "Драмы,Зарубежные,Комедии,Мелодрамы",
  "vr_identifier": "По ту сторону (На другом конце провода)",
  "iframe": "https://www.ivi.ru/embeds/video/?subsite=1&autostart=0&videoid=315457"
}