{
  "content_id": "53558",
  "title": "Успех",
  "release_date": "1987",
  "orig_country": "СССР",
  "lang": "Русский",
  "restrict": "12+",
  "kinopoisk_id": "42539",
  "kinopoisk_rating": "7.84",
  "imdb_rating": "7.5",
  "duration": "5258",
  "category": "Фильмы",
  "genres": "Драмы,Советское кино",
  "vr_identifier": "Успех",
  "iframe": "https://www.ivi.ru/embeds/video/?subsite=1&autostart=0&videoid=53558"
}