{
  "content_id": "209057",
  "title": "Идеальный муж",
  "release_date": "1980",
  "orig_country": "СССР",
  "lang": "Русский",
  "restrict": "0+",
  "kinopoisk_id": "42570",
  "kinopoisk_rating": "7.56",
  "imdb_rating": "7.4",
  "duration": "5264",
  "category": "Фильмы",
  "genres": "Комедии,Советское кино,Экранизации",
  "vr_identifier": "Идеальный муж",
  "iframe": "https://www.ivi.ru/embeds/video/?subsite=1&autostart=0&videoid=209057"
}