{
  "content_id": "53141",
  "title": "Иван Васильевич меняет профессию",
  "release_date": "1973",
  "orig_country": "СССР",
  "lang": "Русский",
  "restrict": "12+",
  "kinopoisk_id": "42664",
  "kinopoisk_rating": "8.78",
  "imdb_rating": "8.4",
  "duration": "5499",
  "category": "Фильмы",
  "genres": "Комедии,Приключения,Советское кино,Фантастика",
  "vr_identifier": "Иван Васильевич меняет профессию",
  "iframe": "https://www.ivi.ru/embeds/video/?subsite=1&autostart=0&videoid=53141"
}