{
  "content_id": "53116",
  "title": "Одиноким предоставляется общежитие",
  "release_date": "1983",
  "orig_country": "СССР",
  "lang": "Русский",
  "restrict": "12+",
  "kinopoisk_id": "42727",
  "kinopoisk_rating": "7.84",
  "imdb_rating": "6.9",
  "duration": "5022",
  "category": "Фильмы",
  "genres": "Комедии,Мелодрамы,Советское кино",
  "vr_identifier": "Одиноким предоставляется общежитие",
  "iframe": "https://www.ivi.ru/embeds/video/?subsite=1&autostart=0&videoid=53116"
}