{
  "content_id": "168056",
  "title": "Огарева, 6",
  "release_date": "1980",
  "orig_country": "СССР",
  "restrict": "12+",
  "kinopoisk_id": "42737",
  "kinopoisk_rating": "7.08",
  "imdb_rating": "6.4",
  "duration": "5012",
  "category": "Фильмы",
  "genres": "Криминал,Советское кино",
  "vr_identifier": "Огарева, 6",
  "iframe": "https://www.ivi.ru/embeds/video/?subsite=1&autostart=0&videoid=168056"
}