{
  "content_id": "50743",
  "title": "Дни Надежды",
  "release_date": "2007",
  "orig_country": "Украина",
  "lang": "Русский",
  "restrict": "16+",
  "kinopoisk_id": "427416",
  "kinopoisk_rating": "5.67",
  "duration": "5280",
  "category": "Фильмы",
  "genres": "Мелодрамы",
  "vr_identifier": "Дни Надежды",
  "iframe": "https://www.ivi.ru/embeds/video/?subsite=1&autostart=0&videoid=50743"
}