{
  "content_id": "209025",
  "title": "Охота на лис",
  "release_date": "1980",
  "orig_country": "СССР",
  "lang": "Русский",
  "restrict": "12+",
  "kinopoisk_id": "42755",
  "kinopoisk_rating": "7.16",
  "imdb_rating": "7",
  "duration": "5493",
  "category": "Фильмы",
  "genres": "Драмы,Криминал,Советское кино",
  "vr_identifier": "Охота на лис",
  "iframe": "https://www.ivi.ru/embeds/video/?subsite=1&autostart=0&videoid=209025"
}