{
  "content_id": "218408",
  "title": "Кардиограмма любви",
  "release_date": "2008",
  "orig_country": "Украина",
  "lang": "Русский",
  "restrict": "18+",
  "kinopoisk_id": "427832",
  "kinopoisk_rating": "5.83",
  "duration": "5220",
  "category": "Фильмы",
  "genres": "Драмы,Мелодрамы",
  "vr_identifier": "Кардиограмма любви",
  "iframe": "https://www.ivi.ru/embeds/video/?subsite=1&autostart=0&videoid=218408"
}