{
  "content_id": "382783",
  "title": "Остров Безымянный",
  "release_date": "1946",
  "orig_country": "СССР",
  "lang": "Русский",
  "restrict": "12+",
  "kinopoisk_id": "42823",
  "imdb_rating": "6.2",
  "duration": "4290",
  "category": "Фильмы",
  "genres": "Военные,Драмы,Советское кино",
  "vr_identifier": "Остров безымянный",
  "iframe": "https://www.ivi.ru/embeds/video/?subsite=1&autostart=0&videoid=382783"
}