{
  "content_id": "166958",
  "title": "Отроки во Вселенной",
  "release_date": "1974",
  "orig_country": "СССР",
  "restrict": "6+",
  "kinopoisk_id": "42849",
  "kinopoisk_rating": "7.37",
  "imdb_rating": "7",
  "duration": "4774",
  "category": "Фильмы",
  "genres": "Для всей семьи,Комедии,Приключения,Советское кино,Фантастика,Фильмы",
  "vr_identifier": "Отроки во Вселенной",
  "iframe": "https://www.ivi.ru/embeds/video/?subsite=1&autostart=0&videoid=166958"
}