{
  "content_id": "26624",
  "title": "Овод",
  "release_date": "1955",
  "orig_country": "СССР",
  "lang": "Русский",
  "restrict": "6+",
  "kinopoisk_id": "42860",
  "kinopoisk_rating": "7.02",
  "imdb_rating": "6.7",
  "duration": "5866",
  "category": "Фильмы",
  "genres": "Драмы,Советское кино",
  "vr_identifier": "Овод",
  "iframe": "https://www.ivi.ru/embeds/video/?subsite=1&autostart=0&videoid=26624"
}