{
  "content_id": "60289",
  "title": "Первая перчатка",
  "release_date": "1947",
  "orig_country": "СССР",
  "lang": "Русский",
  "restrict": "0+",
  "kinopoisk_id": "42936",
  "kinopoisk_rating": "7.09",
  "imdb_rating": "7.2",
  "duration": "4704",
  "category": "Фильмы",
  "genres": "Комедии,Мелодрамы,Советское кино,Спорт",
  "vr_identifier": "Первая перчатка",
  "iframe": "https://www.ivi.ru/embeds/video/?subsite=1&autostart=0&videoid=60289"
}