{
  "content_id": "62640",
  "title": "Сиреневые сумерки",
  "release_date": "2000",
  "orig_country": "Россия",
  "lang": "Русский",
  "restrict": "12+",
  "kinopoisk_id": "429751",
  "kinopoisk_rating": "3.97",
  "imdb_rating": "2.6",
  "duration": "5484",
  "category": "Фильмы",
  "genres": "Драмы,Русские",
  "vr_identifier": "Сиреневые сумерки",
  "iframe": "https://www.ivi.ru/embeds/video/?subsite=1&autostart=0&videoid=62640"
}