{
  "content_id": "60309",
  "title": "Полустанок",
  "release_date": "1963",
  "orig_country": "СССР",
  "lang": "Русский",
  "restrict": "0+",
  "kinopoisk_id": "43109",
  "kinopoisk_rating": "7.06",
  "imdb_rating": "7.3",
  "duration": "3993",
  "category": "Фильмы",
  "genres": "Комедии,Мелодрамы,Советское кино",
  "vr_identifier": "Полустанок",
  "iframe": "https://www.ivi.ru/embeds/video/?subsite=1&autostart=0&videoid=60309"
}