{
  "content_id": "69995",
  "title": "Учитель музыки",
  "release_date": "2008",
  "orig_country": "Украина",
  "lang": "Русский",
  "restrict": "16+",
  "kinopoisk_id": "431047",
  "kinopoisk_rating": "5.54",
  "duration": "5280",
  "category": "Фильмы",
  "genres": "Зарубежные,Мелодрамы",
  "vr_identifier": "Учитель музыки",
  "iframe": "https://www.ivi.ru/embeds/video/?subsite=1&autostart=0&videoid=69995"
}