{
  "content_id": "60322",
  "title": "Предчувствие любви",
  "release_date": "1983",
  "orig_country": "СССР",
  "lang": "Русский",
  "restrict": "0+",
  "kinopoisk_id": "43227",
  "kinopoisk_rating": "6.66",
  "imdb_rating": "6.6",
  "duration": "3847",
  "category": "Фильмы",
  "genres": "Комедии,Мелодрамы,Советское кино",
  "vr_identifier": "Предчувствие любви",
  "iframe": "https://www.ivi.ru/embeds/video/?subsite=1&autostart=0&videoid=60322"
}