{
  "content_id": "31840",
  "title": "Происшествие, которого никто не заметил",
  "release_date": "1967",
  "orig_country": "СССР",
  "lang": "Русский",
  "restrict": "12+",
  "kinopoisk_id": "43298",
  "kinopoisk_rating": "6.65",
  "imdb_rating": "6.2",
  "duration": "3942",
  "category": "Фильмы",
  "genres": "Мелодрамы,Советское кино",
  "vr_identifier": "Происшествие, которого никто не заметил",
  "iframe": "https://www.ivi.ru/embeds/video/?subsite=1&autostart=0&videoid=31840"
}