{
  "content_id": "138226",
  "title": "Апостол",
  "orig_title": "O Apóstolo",
  "release_date": "2012",
  "orig_country": "Испания",
  "lang": "Испанский",
  "restrict": "16+",
  "kinopoisk_id": "433186",
  "kinopoisk_rating": "6.42",
  "imdb_rating": "7.1",
  "duration": "4867",
  "category": "Мультфильмы",
  "genres": "Для взрослых,Зарубежные,Мультфильмы-ужасы,Полнометражные",
  "vr_identifier": "Апостол",
  "iframe": "https://www.ivi.ru/embeds/video/?subsite=1&autostart=0&videoid=138226"
}