{
  "content_id": "60330",
  "title": "Пять вечеров",
  "release_date": "1978",
  "orig_country": "СССР",
  "lang": "Русский",
  "restrict": "12+",
  "kinopoisk_id": "43373",
  "kinopoisk_rating": "8.03",
  "imdb_rating": "7.7",
  "duration": "5871",
  "category": "Фильмы",
  "genres": "Драмы,Мелодрамы,Советское кино",
  "vr_identifier": "Пять вечеров",
  "iframe": "https://www.ivi.ru/embeds/video/?subsite=1&autostart=0&videoid=60330"
}