{
  "content_id": "15044",
  "title": "Алеко",
  "release_date": "1953",
  "orig_country": "СССР",
  "lang": "Русский",
  "restrict": "0+",
  "kinopoisk_id": "43448",
  "kinopoisk_rating": "0",
  "imdb_rating": "7.3",
  "duration": "3412",
  "category": "Фильмы",
  "genres": "Драмы,Музыкальные,Советское кино,Фильмы-спектакли",
  "vr_identifier": "Алеко",
  "iframe": "https://www.ivi.ru/embeds/video/?subsite=1&autostart=0&videoid=15044"
}