{
  "content_id": "52921",
  "title": "Акция",
  "release_date": "1987",
  "orig_country": "СССР",
  "lang": "Русский",
  "restrict": "0+",
  "kinopoisk_id": "43442",
  "kinopoisk_rating": "6.65",
  "imdb_rating": "6.3",
  "duration": "5183",
  "category": "Фильмы",
  "genres": "Боевики,Военные,Советское кино",
  "vr_identifier": "Акция",
  "iframe": "https://www.ivi.ru/embeds/video/?subsite=1&autostart=0&videoid=52921"
}