{
  "content_id": "45982",
  "title": "Самый сильный",
  "release_date": "1973",
  "orig_country": "СССР",
  "lang": "Русский",
  "restrict": "6+",
  "kinopoisk_id": "43615",
  "kinopoisk_rating": "6.8",
  "imdb_rating": "6.4",
  "duration": "4738",
  "category": "Фильмы",
  "genres": "Для всей семьи,Советское кино,Фильмы,Фэнтези",
  "vr_identifier": "Самый сильный",
  "iframe": "https://www.ivi.ru/embeds/video/?subsite=1&autostart=0&videoid=45982"
}