{
  "content_id": "85734",
  "title": "История любви, или Новогодний розыгрыш",
  "release_date": "2009",
  "orig_country": "Россия",
  "lang": "Русский",
  "restrict": "12+",
  "kinopoisk_id": "436215",
  "kinopoisk_rating": "5.48",
  "duration": "4980",
  "category": "Фильмы",
  "genres": "Мелодрамы,Русские",
  "vr_identifier": "История любви или Новогодний розыгрыш",
  "iframe": "https://www.ivi.ru/embeds/video/?subsite=1&autostart=0&videoid=85734"
}