{
  "content_id": "209028",
  "title": "Семь нянек",
  "orig_country": "СССР",
  "lang": "Русский",
  "restrict": "12+",
  "kinopoisk_id": "43664",
  "kinopoisk_rating": "7.7",
  "imdb_rating": "7",
  "duration": "4330",
  "category": "Фильмы",
  "genres": "Комедии,Советское кино",
  "vr_identifier": "Семь нянек",
  "iframe": "https://www.ivi.ru/embeds/video/?subsite=1&autostart=0&videoid=209028"
}