{
  "content_id": "31959",
  "title": "Семь невест ефрейтора Збруева",
  "release_date": "1970",
  "orig_country": "СССР",
  "lang": "Русский",
  "restrict": "12+",
  "kinopoisk_id": "43663",
  "kinopoisk_rating": "7.16",
  "imdb_rating": "6.9",
  "duration": "5506",
  "category": "Фильмы",
  "genres": "Для всей семьи,Комедии,Мелодрамы,Советское кино",
  "vr_identifier": "Семь невест ефрейтора Збруева",
  "iframe": "https://www.ivi.ru/embeds/video/?subsite=1&autostart=0&videoid=31959"
}