{
  "content_id": "60358",
  "title": "Серафим Полубес и другие жители Земли",
  "release_date": "1984",
  "orig_country": "СССР",
  "lang": "Русский",
  "restrict": "0+",
  "kinopoisk_id": "43679",
  "kinopoisk_rating": "7.25",
  "imdb_rating": "7.6",
  "duration": "5188",
  "category": "Фильмы",
  "genres": "Драмы,Советское кино",
  "vr_identifier": "Серафим Полубес и другие жители Земли",
  "iframe": "https://www.ivi.ru/embeds/video/?subsite=1&autostart=0&videoid=60358"
}