{
  "content_id": "85014",
  "title": "Племя",
  "orig_title": "The Forgotten Ones",
  "release_date": "2009",
  "orig_country": "США",
  "lang": "Английский",
  "restrict": "16+",
  "kinopoisk_id": "437035",
  "kinopoisk_rating": "3.83",
  "imdb_rating": "4.2",
  "duration": "4980",
  "category": "Фильмы",
  "genres": "Зарубежные,Триллеры,Ужасы",
  "vr_identifier": "Племя",
  "iframe": "https://www.ivi.ru/embeds/video/?subsite=1&autostart=0&videoid=85014"
}