{
  "content_id": "54151",
  "title": "Сестры",
  "compilation_id": "7995",
  "compilation": "Хождение по мукам (1957)",
  "release_date": "1957",
  "orig_country": "СССР",
  "lang": "Русский",
  "restrict": "12+",
  "kinopoisk_id": "43703",
  "kinopoisk_rating": "7.01",
  "imdb_rating": "8",
  "episode": "1",
  "duration": "5888",
  "category": "Фильмы",
  "genres": "Драмы,Исторические,Советское кино",
  "vr_identifier": "Хождение по мукам",
  "iframe": "https://www.ivi.ru/embeds/video/?subsite=1&autostart=0&videoid=54151"
}