{
  "content_id": "53748",
  "title": "Шантажист",
  "release_date": "1987",
  "orig_country": "СССР",
  "lang": "Русский",
  "restrict": "12+",
  "kinopoisk_id": "43723",
  "kinopoisk_rating": "7.01",
  "imdb_rating": "6.6",
  "duration": "5199",
  "category": "Фильмы",
  "genres": "Драмы,Советское кино",
  "vr_identifier": "Шантажист",
  "iframe": "https://www.ivi.ru/embeds/video/?subsite=1&autostart=0&videoid=53748"
}