{
  "content_id": "110288",
  "title": "Прячься!",
  "release_date": "2010",
  "orig_country": "Россия",
  "lang": "Русский",
  "restrict": "16+",
  "kinopoisk_id": "437448",
  "kinopoisk_rating": "6.22",
  "imdb_rating": "6.2",
  "duration": "4800",
  "category": "Фильмы",
  "genres": "Детективы,Русские,Триллеры",
  "vr_identifier": "Прячься!",
  "iframe": "https://www.ivi.ru/embeds/video/?subsite=1&autostart=0&videoid=110288"
}