{
  "content_id": "209232",
  "title": "Шестое июля",
  "release_date": "1968",
  "orig_country": "СССР",
  "lang": "Русский",
  "restrict": "12+",
  "kinopoisk_id": "43746",
  "kinopoisk_rating": "7.1",
  "imdb_rating": "7.4",
  "duration": "6372",
  "category": "Фильмы",
  "genres": "Драмы,Исторические,Советское кино",
  "vr_identifier": "Шестое июля",
  "iframe": "https://www.ivi.ru/embeds/video/?subsite=1&autostart=0&videoid=209232"
}