{
  "content_id": "211620",
  "title": "Шестнадцатая весна",
  "release_date": "1963",
  "orig_country": "СССР",
  "lang": "Русский",
  "restrict": "6+",
  "kinopoisk_id": "43744",
  "kinopoisk_rating": "6.93",
  "imdb_rating": "6.5",
  "duration": "4950",
  "category": "Фильмы",
  "genres": "Для всей семьи,Мелодрамы,Советское кино",
  "vr_identifier": "Шестнадцатая весна",
  "iframe": "https://www.ivi.ru/embeds/video/?subsite=1&autostart=0&videoid=211620"
}