{
  "content_id": "132261",
  "title": "Шел четвертый год войны...",
  "release_date": "1983",
  "orig_country": "СССР",
  "lang": "Русский",
  "restrict": "12+",
  "kinopoisk_id": "43782",
  "kinopoisk_rating": "7.23",
  "imdb_rating": "6.1",
  "duration": "4904",
  "category": "Фильмы",
  "genres": "Военные",
  "vr_identifier": "Шел четвертый год войны",
  "iframe": "https://www.ivi.ru/embeds/video/?subsite=1&autostart=0&videoid=132261"
}