{
  "content_id": "54144",
  "title": "Скорый поезд",
  "release_date": "1988",
  "orig_country": "СССР",
  "lang": "Русский",
  "restrict": "12+",
  "kinopoisk_id": "43827",
  "kinopoisk_rating": "7.04",
  "imdb_rating": "5.5",
  "duration": "5652",
  "category": "Фильмы",
  "genres": "Драмы,Советское кино",
  "vr_identifier": "Скорый поезд",
  "iframe": "https://www.ivi.ru/embeds/video/?subsite=1&autostart=0&videoid=54144"
}