{
  "content_id": "3922",
  "title": "Ванька Грозный",
  "release_date": "2008",
  "orig_country": "Россия",
  "lang": "Русский",
  "restrict": "16+",
  "kinopoisk_id": "438250",
  "kinopoisk_rating": "6.19",
  "duration": "5460",
  "category": "Фильмы",
  "genres": "Комедии,Мелодрамы,Русские",
  "vr_identifier": "Ванька Грозный",
  "iframe": "https://www.ivi.ru/embeds/video/?subsite=1&autostart=0&videoid=3922"
}