{
  "content_id": "218280",
  "title": "Ни пуха, ни пера",
  "release_date": "1973",
  "orig_country": "СССР",
  "lang": "Русский",
  "restrict": "0+",
  "kinopoisk_id": "438326",
  "kinopoisk_rating": "5.9",
  "duration": "3928",
  "category": "Фильмы",
  "genres": "Комедии,Советское кино",
  "vr_identifier": "Ни пуха, ни пера",
  "iframe": "https://www.ivi.ru/embeds/video/?subsite=1&autostart=0&videoid=218280"
}