{
  "content_id": "54667",
  "title": "Скверный анекдот",
  "release_date": "1966",
  "orig_country": "СССР",
  "lang": "Русский",
  "restrict": "12+",
  "kinopoisk_id": "43830",
  "kinopoisk_rating": "7.58",
  "imdb_rating": "7.1",
  "duration": "5770",
  "category": "Фильмы",
  "genres": "Драмы,Советское кино",
  "vr_identifier": "Скверный анекдот",
  "iframe": "https://www.ivi.ru/embeds/video/?subsite=1&autostart=0&videoid=54667"
}