{
  "content_id": "45857",
  "title": "Смелого пуля боится, или Мишка принимает бой",
  "release_date": "1970",
  "orig_country": "СССР",
  "lang": "Русский",
  "restrict": "0+",
  "kinopoisk_id": "43872",
  "kinopoisk_rating": "6.92",
  "imdb_rating": "7.2",
  "duration": "4980",
  "category": "Фильмы",
  "genres": "Военные,Драмы,Советское кино",
  "vr_identifier": "Смелого пуля боится",
  "iframe": "https://www.ivi.ru/embeds/video/?subsite=1&autostart=0&videoid=45857"
}