{
  "content_id": "31954",
  "title": "Снегурочка",
  "release_date": "1968",
  "orig_country": "СССР",
  "lang": "Русский",
  "restrict": "12+",
  "kinopoisk_id": "43889",
  "kinopoisk_rating": "7.18",
  "imdb_rating": "7.1",
  "duration": "5277",
  "category": "Фильмы",
  "genres": "Драмы,Мелодрамы,Советское кино",
  "vr_identifier": "Снегурочка",
  "iframe": "https://www.ivi.ru/embeds/video/?subsite=1&autostart=0&videoid=31954"
}