{
  "content_id": "132275",
  "title": "Солдат Иван Бровкин",
  "release_date": "1955",
  "orig_country": "СССР",
  "restrict": "6+",
  "kinopoisk_id": "43899",
  "kinopoisk_rating": "7.76",
  "imdb_rating": "7",
  "duration": "5244",
  "category": "Фильмы",
  "genres": "Комедии,Мюзикл,Приключения,Советское кино",
  "vr_identifier": "Солдат Иван Бровкин",
  "iframe": "https://www.ivi.ru/embeds/video/?subsite=1&autostart=0&videoid=132275"
}