{
  "content_id": "53354",
  "title": "Сорока-воровка",
  "release_date": "1958",
  "orig_country": "СССР",
  "lang": "Русский",
  "restrict": "12+",
  "kinopoisk_id": "43923",
  "kinopoisk_rating": "6.47",
  "imdb_rating": "7.5",
  "duration": "4693",
  "category": "Фильмы",
  "genres": "Мелодрамы,Советское кино",
  "vr_identifier": "Сорока-воровка",
  "iframe": "https://www.ivi.ru/embeds/video/?subsite=1&autostart=0&videoid=53354"
}