{
  "content_id": "53392",
  "title": "Спартак",
  "release_date": "1977",
  "orig_country": "СССР",
  "lang": "Русский",
  "restrict": "0+",
  "kinopoisk_id": "43939",
  "kinopoisk_rating": "7.75",
  "imdb_rating": "5.5",
  "duration": "5355",
  "category": "Фильмы",
  "genres": "Драмы,Музыкальные,Советское кино,Фильмы-спектакли",
  "vr_identifier": "Спартак",
  "iframe": "https://www.ivi.ru/embeds/video/?subsite=1&autostart=0&videoid=53392"
}