{
  "content_id": "34369",
  "title": "Спящая красавица",
  "release_date": "1964",
  "orig_country": "СССР",
  "lang": "Русский",
  "restrict": "0+",
  "kinopoisk_id": "43956",
  "kinopoisk_rating": "0",
  "imdb_rating": "6.5",
  "duration": "4969",
  "category": "Фильмы",
  "genres": "Мелодрамы,Советское кино,Фильмы-спектакли",
  "vr_identifier": "Спящая красавица",
  "iframe": "https://www.ivi.ru/embeds/video/?subsite=1&autostart=0&videoid=34369"
}