{
  "content_id": "60361",
  "title": "Старики-разбойники",
  "release_date": "1971",
  "orig_country": "СССР",
  "lang": "Русский",
  "restrict": "12+",
  "kinopoisk_id": "43977",
  "kinopoisk_rating": "7.84",
  "imdb_rating": "7.5",
  "duration": "5186",
  "category": "Фильмы",
  "genres": "Для всей семьи,Комедии,Советское кино",
  "vr_identifier": "Старики-разбойники",
  "iframe": "https://www.ivi.ru/embeds/video/?subsite=1&autostart=0&videoid=60361"
}