{
  "content_id": "414780",
  "title": "Щит Минервы",
  "release_date": "2005",
  "orig_country": "Россия",
  "lang": "Русский",
  "restrict": "16+",
  "kinopoisk_id": "439933",
  "duration": "4925",
  "category": "Фильмы",
  "genres": "Драмы,Мелодрамы,Русские",
  "vr_identifier": "Щит Миневры",
  "iframe": "https://www.ivi.ru/embeds/video/?subsite=1&autostart=0&videoid=414780"
}