{
  "content_id": "53398",
  "title": "Суворов",
  "release_date": "1940",
  "orig_country": "СССР",
  "lang": "Русский",
  "restrict": "12+",
  "kinopoisk_id": "44040",
  "kinopoisk_rating": "7.7",
  "imdb_rating": "7.1",
  "duration": "6197",
  "category": "Фильмы",
  "genres": "Биография,Военные,Для всей семьи,Драмы,Исторические,Советское кино",
  "vr_identifier": "Суворов",
  "iframe": "https://www.ivi.ru/embeds/video/?subsite=1&autostart=0&videoid=53398"
}