{
  "content_id": "218198",
  "title": "Дама с попугаем",
  "release_date": "1988",
  "orig_country": "СССР",
  "lang": "Русский",
  "restrict": "16+",
  "kinopoisk_id": "44093",
  "kinopoisk_rating": "7.47",
  "imdb_rating": "7",
  "duration": "5650",
  "category": "Фильмы",
  "genres": "Комедии,Мелодрамы,Советское кино",
  "vr_identifier": "Дама с попугаем",
  "iframe": "https://www.ivi.ru/embeds/video/?subsite=1&autostart=0&videoid=218198"
}