{
  "content_id": "55060",
  "title": "Дело Артамоновых",
  "release_date": "1941",
  "orig_country": "СССР",
  "lang": "Русский",
  "restrict": "12+",
  "kinopoisk_id": "44122",
  "kinopoisk_rating": "6.95",
  "imdb_rating": "6.1",
  "duration": "5319",
  "category": "Фильмы",
  "genres": "Драмы,Советское кино,Экранизации",
  "vr_identifier": "Дело Артамоновых",
  "iframe": "https://www.ivi.ru/embeds/video/?subsite=1&autostart=0&videoid=55060"
}