{
  "content_id": "52976",
  "title": "Добро пожаловать, или Посторонним вход воспрещен",
  "release_date": "1964",
  "orig_country": "СССР",
  "lang": "Русский",
  "restrict": "6+",
  "kinopoisk_id": "44238",
  "kinopoisk_rating": "8.27",
  "imdb_rating": "8.2",
  "duration": "4217",
  "category": "Фильмы",
  "genres": "Для всей семьи,Для детей,Комедии,Советское кино,Фильмы",
  "vr_identifier": "Добро пожаловать, или Посторонним вход воспрещен*",
  "iframe": "https://www.ivi.ru/embeds/video/?subsite=1&autostart=0&videoid=52976"
}