{
  "content_id": "107525",
  "title": "Воин",
  "orig_title": "Warrior",
  "release_date": "2011",
  "orig_country": "США",
  "lang": "Английский",
  "restrict": "12+",
  "kinopoisk_id": "442568",
  "kinopoisk_rating": "8.03",
  "imdb_rating": "8.2",
  "duration": "8394",
  "category": "Фильмы",
  "genres": "Драмы,Зарубежные,Спорт",
  "vr_identifier": "CP0061",
  "iframe": "https://www.ivi.ru/embeds/video/?subsite=1&autostart=0&videoid=107525"
}