{
  "content_id": "15046",
  "title": "Донская повесть",
  "release_date": "1964",
  "orig_country": "СССР",
  "lang": "Русский",
  "restrict": "12+",
  "kinopoisk_id": "44278",
  "kinopoisk_rating": "7.86",
  "imdb_rating": "7.5",
  "duration": "5389",
  "category": "Фильмы",
  "genres": "Драмы,Советское кино",
  "vr_identifier": "Донская повесть",
  "iframe": "https://www.ivi.ru/embeds/video/?subsite=1&autostart=0&videoid=15046"
}