{
  "content_id": "15050",
  "title": "Дожить до рассвета",
  "release_date": "1975",
  "orig_country": "СССР",
  "lang": "Русский",
  "restrict": "16+",
  "kinopoisk_id": "44298",
  "kinopoisk_rating": "6.52",
  "imdb_rating": "7.7",
  "duration": "4435",
  "category": "Фильмы",
  "genres": "Военные,Драмы,Советское кино",
  "vr_identifier": "Дожить до рассвета",
  "iframe": "https://www.ivi.ru/embeds/video/?subsite=1&autostart=0&videoid=15050"
}