{
  "content_id": "53002",
  "title": "Друг",
  "release_date": "1987",
  "orig_country": "СССР",
  "lang": "Русский",
  "restrict": "12+",
  "kinopoisk_id": "44302",
  "kinopoisk_rating": "8.25",
  "imdb_rating": "7.4",
  "duration": "4700",
  "category": "Фильмы",
  "genres": "Драмы,Мелодрамы,Советское кино",
  "vr_identifier": "Друг",
  "iframe": "https://www.ivi.ru/embeds/video/?subsite=1&autostart=0&videoid=53002"
}