{
  "content_id": "15088",
  "title": "Двадцать дней без войны",
  "release_date": "1976",
  "orig_country": "СССР",
  "lang": "Русский",
  "restrict": "12+",
  "kinopoisk_id": "44339",
  "kinopoisk_rating": "8.02",
  "imdb_rating": "7.9",
  "duration": "5807",
  "category": "Фильмы",
  "genres": "Военные,Драмы,Исторические,Мелодрамы,Советское кино",
  "vr_identifier": "Двадцать дней без войны",
  "iframe": "https://www.ivi.ru/embeds/video/?subsite=1&autostart=0&videoid=15088"
}