{
  "content_id": "218362",
  "title": "Филер",
  "release_date": "1987",
  "orig_country": "СССР",
  "lang": "Русский",
  "restrict": "16+",
  "kinopoisk_id": "44414",
  "kinopoisk_rating": "7.11",
  "imdb_rating": "6.6",
  "duration": "4691",
  "category": "Фильмы",
  "genres": "Драмы,Советское кино",
  "vr_identifier": "Филер",
  "iframe": "https://www.ivi.ru/embeds/video/?subsite=1&autostart=0&videoid=218362"
}