{
  "content_id": "168118",
  "title": "Гиперболоид инженера Гарина",
  "release_date": "1965",
  "orig_country": "СССР",
  "lang": "Русский",
  "restrict": "16+",
  "kinopoisk_id": "44507",
  "kinopoisk_rating": "6.79",
  "imdb_rating": "6.6",
  "duration": "5460",
  "category": "Фильмы",
  "genres": "Советское кино,Фантастика",
  "vr_identifier": "Гиперболоид инженера Гарина",
  "iframe": "https://www.ivi.ru/embeds/video/?subsite=1&autostart=0&videoid=168118"
}