{
  "content_id": "46325",
  "title": "Груз 300",
  "release_date": "1990",
  "orig_country": "СССР",
  "lang": "Русский",
  "restrict": "18+",
  "kinopoisk_id": "44615",
  "kinopoisk_rating": "6.27",
  "imdb_rating": "6.1",
  "duration": "4980",
  "category": "Фильмы",
  "genres": "Военные,Драмы,Советское кино",
  "vr_identifier": "Груз 300",
  "iframe": "https://www.ivi.ru/embeds/video/?subsite=1&autostart=0&videoid=46325"
}