{
  "content_id": "53137",
  "title": "Гусарская баллада",
  "release_date": "1962",
  "orig_country": "СССР",
  "lang": "Русский",
  "restrict": "6+",
  "kinopoisk_id": "44623",
  "kinopoisk_rating": "7.96",
  "imdb_rating": "7.6",
  "duration": "5416",
  "category": "Фильмы",
  "genres": "Военные,Комедии,Музыкальные,Советское кино",
  "vr_identifier": "Гусарская баллада",
  "iframe": "https://www.ivi.ru/embeds/video/?subsite=1&autostart=0&videoid=53137"
}