{
  "content_id": "53154",
  "title": "Калина красная",
  "release_date": "1973",
  "orig_country": "СССР",
  "lang": "Русский",
  "restrict": "0+",
  "kinopoisk_id": "44691",
  "kinopoisk_rating": "8.07",
  "imdb_rating": "7.9",
  "duration": "6600",
  "category": "Фильмы",
  "genres": "Драмы,Советское кино",
  "vr_identifier": "Калина красная",
  "iframe": "https://www.ivi.ru/embeds/video/?subsite=1&autostart=0&videoid=53154"
}