{
  "content_id": "218238",
  "title": "Капель",
  "release_date": "1981",
  "orig_country": "СССР",
  "lang": "Русский",
  "restrict": "0+",
  "kinopoisk_id": "44702",
  "kinopoisk_rating": "6.29",
  "imdb_rating": "6",
  "duration": "4822",
  "category": "Фильмы",
  "genres": "Мелодрамы,Советское кино",
  "vr_identifier": "Капель",
  "iframe": "https://www.ivi.ru/embeds/video/?subsite=1&autostart=0&videoid=218238"
}