{
  "content_id": "60187",
  "title": "Карусель",
  "release_date": "1970",
  "orig_country": "СССР",
  "lang": "Русский",
  "restrict": "12+",
  "kinopoisk_id": "44723",
  "kinopoisk_rating": "7.08",
  "imdb_rating": "6.9",
  "duration": "4994",
  "category": "Фильмы",
  "genres": "Комедии,Советское кино",
  "vr_identifier": "Карусель (1970)",
  "iframe": "https://www.ivi.ru/embeds/video/?subsite=1&autostart=0&videoid=60187"
}