{
  "content_id": "53124",
  "title": "Кавказская пленница, или Новые приключения Шурика",
  "release_date": "1966",
  "orig_country": "СССР",
  "lang": "Русский",
  "restrict": "12+",
  "kinopoisk_id": "44745",
  "kinopoisk_rating": "8.46",
  "imdb_rating": "8.4",
  "duration": "4793",
  "category": "Фильмы",
  "genres": "Для всей семьи,Комедии,Мелодрамы,Музыкальные,Приключения,Советское кино",
  "vr_identifier": "Кавказская пленница, или Новые приключения Шурика",
  "iframe": "https://www.ivi.ru/embeds/video/?subsite=1&autostart=0&videoid=53124"
}