{
  "content_id": "218365",
  "title": "Храни меня, мой талисман",
  "release_date": "1986",
  "orig_country": "СССР",
  "lang": "Русский",
  "restrict": "12+",
  "kinopoisk_id": "44796",
  "kinopoisk_rating": "7.38",
  "imdb_rating": "7.2",
  "duration": "4093",
  "category": "Фильмы",
  "genres": "Драмы,Советское кино",
  "vr_identifier": "Храни меня мой талисман",
  "iframe": "https://www.ivi.ru/embeds/video/?subsite=1&autostart=0&videoid=218365"
}