{
  "content_id": "167878",
  "title": "Кольца Альманзора",
  "release_date": "1977",
  "orig_country": "СССР",
  "restrict": "12+",
  "kinopoisk_id": "44861",
  "kinopoisk_rating": "6.94",
  "imdb_rating": "6.7",
  "duration": "3629",
  "category": "Фильмы",
  "genres": "Боевики,Для всей семьи,Исторические,Советское кино,Фэнтези",
  "vr_identifier": "Кольца Альманзора",
  "iframe": "https://www.ivi.ru/embeds/video/?subsite=1&autostart=0&videoid=167878"
}