{
  "content_id": "51494",
  "title": "Король-олень",
  "release_date": "1970",
  "orig_country": "СССР",
  "lang": "Русский",
  "restrict": "6+",
  "kinopoisk_id": "44926",
  "kinopoisk_rating": "7.55",
  "imdb_rating": "6.9",
  "duration": "4620",
  "category": "Фильмы",
  "genres": "Для всей семьи,Комедии,Музыкальные,Советское кино,Фэнтези",
  "vr_identifier": "Король-Олень",
  "iframe": "https://www.ivi.ru/embeds/video/?subsite=1&autostart=0&videoid=51494"
}