{
  "content_id": "19783",
  "title": "Кортик",
  "release_date": "1954",
  "orig_country": "СССР",
  "lang": "Русский",
  "restrict": "0+",
  "kinopoisk_id": "44939",
  "kinopoisk_rating": "7.46",
  "imdb_rating": "6.4",
  "duration": "4988",
  "category": "Фильмы",
  "genres": "Для всей семьи,Приключения,Советское кино,Фильмы",
  "vr_identifier": "Кортик",
  "iframe": "https://www.ivi.ru/embeds/video/?subsite=1&autostart=0&videoid=19783"
}