{
  "content_id": "19776",
  "title": "Крепостная актриса",
  "release_date": "1963",
  "orig_country": "СССР",
  "lang": "Русский",
  "restrict": "12+",
  "kinopoisk_id": "44975",
  "kinopoisk_rating": "6.56",
  "imdb_rating": "6.7",
  "duration": "5668",
  "category": "Фильмы",
  "genres": "Мелодрамы,Советское кино",
  "vr_identifier": "Крепостная актриса",
  "iframe": "https://www.ivi.ru/embeds/video/?subsite=1&autostart=0&videoid=19776"
}