{
  "content_id": "60214",
  "title": "Ленин в Октябре",
  "release_date": "1937",
  "orig_country": "СССР",
  "lang": "Русский",
  "restrict": "6+",
  "kinopoisk_id": "45063",
  "kinopoisk_rating": "6.63",
  "imdb_rating": "6.5",
  "duration": "5826",
  "category": "Фильмы",
  "genres": "Биография,Исторические,Советское кино",
  "vr_identifier": "Ленин в Октябре",
  "iframe": "https://www.ivi.ru/embeds/video/?subsite=1&autostart=0&videoid=60214"
}