{
  "content_id": "209061",
  "title": "Лунная радуга",
  "release_date": "1983",
  "orig_country": "СССР",
  "lang": "Русский",
  "restrict": "12+",
  "kinopoisk_id": "45125",
  "kinopoisk_rating": "5.38",
  "imdb_rating": "5.9",
  "duration": "5110",
  "category": "Фильмы",
  "genres": "Детективы,Драмы,Советское кино,Фантастика",
  "vr_identifier": "Лунная радуга",
  "iframe": "https://www.ivi.ru/embeds/video/?subsite=1&autostart=0&videoid=209061"
}