{
  "content_id": "398228",
  "title": "Луна",
  "release_date": "1965",
  "orig_country": "СССР",
  "lang": "Русский",
  "restrict": "6+",
  "kinopoisk_id": "45123",
  "kinopoisk_rating": "7.78",
  "imdb_rating": "7.1",
  "duration": "3060",
  "category": "Фильмы",
  "genres": "Советское кино,Фантастика",
  "vr_identifier": "Луна",
  "iframe": "https://www.ivi.ru/embeds/video/?subsite=1&autostart=0&videoid=398228"
}