{
  "content_id": "19895",
  "title": "Здравствуй и прощай",
  "release_date": "1972",
  "orig_country": "СССР",
  "lang": "Русский",
  "restrict": "16+",
  "kinopoisk_id": "45256",
  "kinopoisk_rating": "7.86",
  "imdb_rating": "7.2",
  "duration": "5419",
  "category": "Фильмы",
  "genres": "Комедии,Мелодрамы,Советское кино",
  "vr_identifier": "Здравствуй и прощай",
  "iframe": "https://www.ivi.ru/embeds/video/?subsite=1&autostart=0&videoid=19895"
}