{
  "content_id": "19892",
  "title": "Зеленые цепочки",
  "release_date": "1970",
  "orig_country": "СССР",
  "lang": "Русский",
  "restrict": "12+",
  "kinopoisk_id": "45266",
  "kinopoisk_rating": "7.09",
  "imdb_rating": "6.3",
  "duration": "5546",
  "category": "Фильмы",
  "genres": "Приключения,Советское кино",
  "vr_identifier": "Зеленые цепочки",
  "iframe": "https://www.ivi.ru/embeds/video/?subsite=1&autostart=0&videoid=19892"
}