{
  "content_id": "53005",
  "title": "Жди меня",
  "release_date": "1943",
  "orig_country": "СССР",
  "lang": "Русский",
  "restrict": "12+",
  "kinopoisk_id": "45286",
  "kinopoisk_rating": "7.54",
  "imdb_rating": "7.3",
  "duration": "5400",
  "category": "Фильмы",
  "genres": "Военные,Драмы,Советское кино",
  "vr_identifier": "Жди меня",
  "iframe": "https://www.ivi.ru/embeds/video/?subsite=1&autostart=0&videoid=53005"
}