{
  "content_id": "18158",
  "title": "Женя, Женечка и «Катюша»",
  "release_date": "1967",
  "orig_country": "СССР",
  "lang": "Русский",
  "restrict": "12+",
  "kinopoisk_id": "45311",
  "kinopoisk_rating": "8.03",
  "imdb_rating": "7.8",
  "duration": "4805",
  "category": "Фильмы",
  "genres": "Военные,Драмы,Советское кино",
  "vr_identifier": "Женя, Женечка и «Катюша»",
  "iframe": "https://www.ivi.ru/embeds/video/?subsite=1&autostart=0&videoid=18158"
}