{
  "content_id": "84112",
  "title": "Поединок",
  "release_date": "2005",
  "orig_country": "Россия",
  "lang": "Русский",
  "restrict": "0+",
  "kinopoisk_id": "453330",
  "duration": "796",
  "category": "Мультфильмы",
  "genres": "Для детей,Про животных,Русские,Русские мультфильмы",
  "vr_identifier": "Поединок",
  "iframe": "https://www.ivi.ru/embeds/video/?subsite=1&autostart=0&videoid=84112"
}