{
  "content_id": "19884",
  "title": "Зимняя вишня",
  "release_date": "1985",
  "orig_country": "СССР",
  "lang": "Русский",
  "restrict": "16+",
  "kinopoisk_id": "45356",
  "kinopoisk_rating": "7.01",
  "imdb_rating": "6.7",
  "duration": "5292",
  "category": "Фильмы",
  "genres": "Драмы,Комедии,Мелодрамы,Советское кино",
  "vr_identifier": "Зимняя вишня",
  "iframe": "https://www.ivi.ru/embeds/video/?subsite=1&autostart=0&videoid=19884"
}