{
  "content_id": "211586",
  "title": "Золотая баба",
  "release_date": "1986",
  "orig_country": "СССР",
  "lang": "Русский",
  "restrict": "12+",
  "kinopoisk_id": "45377",
  "kinopoisk_rating": "6.06",
  "imdb_rating": "6",
  "duration": "4481",
  "category": "Фильмы",
  "genres": "Исторические,Приключения,Советское кино,Экранизации",
  "vr_identifier": "Золотая баба",
  "iframe": "https://www.ivi.ru/embeds/video/?subsite=1&autostart=0&videoid=211586"
}