{
  "content_id": "19881",
  "title": "Звезда",
  "release_date": "1949",
  "orig_country": "СССР",
  "lang": "Русский",
  "restrict": "12+",
  "kinopoisk_id": "45409",
  "kinopoisk_rating": "7.76",
  "imdb_rating": "7.2",
  "duration": "5266",
  "category": "Фильмы",
  "genres": "Военные,Для всей семьи,Драмы,Советское кино",
  "vr_identifier": "Звезда",
  "iframe": "https://www.ivi.ru/embeds/video/?subsite=1&autostart=0&videoid=19881"
}