{
  "content_id": "60804",
  "title": "Средь бела дня",
  "orig_title": "The Cold Light of Day",
  "release_date": "2011",
  "orig_country": "США",
  "lang": "Английский",
  "restrict": "16+",
  "kinopoisk_id": "454079",
  "kinopoisk_rating": "5.5",
  "imdb_rating": "4.9",
  "duration": "5370",
  "category": "Фильмы",
  "genres": "Боевики,Зарубежные,Триллеры",
  "vr_identifier": "Средь бела дня",
  "iframe": "https://www.ivi.ru/embeds/video/?subsite=1&autostart=0&videoid=60804"
}