{
  "content_id": "168089",
  "title": "Человек с планеты Земля",
  "release_date": "1959",
  "orig_country": "СССР",
  "lang": "Русский",
  "restrict": "12+",
  "kinopoisk_id": "45466",
  "kinopoisk_rating": "6.93",
  "imdb_rating": "8.6",
  "duration": "6017",
  "category": "Фильмы",
  "genres": "Биография,Драмы,Исторические,Советское кино",
  "vr_identifier": "Человек с планеты Земля",
  "iframe": "https://www.ivi.ru/embeds/video/?subsite=1&autostart=0&videoid=168089"
}