{
  "content_id": "211623",
  "title": "Только вдвоем",
  "release_date": "1976",
  "orig_country": "СССР",
  "lang": "Русский",
  "restrict": "6+",
  "kinopoisk_id": "455345",
  "kinopoisk_rating": "6.19",
  "duration": "4598",
  "category": "Фильмы",
  "genres": "Мелодрамы,Советское кино,Экранизации",
  "vr_identifier": "Только вдвоем",
  "iframe": "https://www.ivi.ru/embeds/video/?subsite=1&autostart=0&videoid=211623"
}