{
  "content_id": "69991",
  "title": "Сюрприз",
  "release_date": "2008",
  "orig_country": "Украина",
  "lang": "Русский",
  "restrict": "12+",
  "kinopoisk_id": "455587",
  "kinopoisk_rating": "5.21",
  "duration": "5697",
  "category": "Фильмы",
  "genres": "Мелодрамы,Русские",
  "vr_identifier": "Сюрприз",
  "iframe": "https://www.ivi.ru/embeds/video/?subsite=1&autostart=0&videoid=69991"
}