{
  "content_id": "14989",
  "title": "В день свадьбы",
  "release_date": "1968",
  "orig_country": "СССР",
  "lang": "Русский",
  "restrict": "16+",
  "kinopoisk_id": "45590",
  "kinopoisk_rating": "6.58",
  "imdb_rating": "6.7",
  "duration": "4131",
  "category": "Фильмы",
  "genres": "Драмы,Мелодрамы,Советское кино",
  "vr_identifier": "В день свадьбы",
  "iframe": "https://www.ivi.ru/embeds/video/?subsite=1&autostart=0&videoid=14989"
}