{
  "content_id": "15019",
  "title": "В старых ритмах",
  "release_date": "1982",
  "orig_country": "СССР",
  "lang": "Русский",
  "restrict": "12+",
  "kinopoisk_id": "45633",
  "kinopoisk_rating": "6.9",
  "imdb_rating": "6.4",
  "duration": "5117",
  "category": "Фильмы",
  "genres": "Детективы,Комедии,Советское кино",
  "vr_identifier": "В старых ритмах",
  "iframe": "https://www.ivi.ru/embeds/video/?subsite=1&autostart=0&videoid=15019"
}