{
  "content_id": "220699",
  "title": "В яранге горит огонь",
  "release_date": "1956",
  "orig_country": "СССР",
  "lang": "Русский",
  "restrict": "0+",
  "kinopoisk_id": "45647",
  "kinopoisk_rating": "7.77",
  "imdb_rating": "7.6",
  "duration": "1216",
  "category": "Мультфильмы",
  "genres": "Для всей семьи,Для детей,Русские,Русские мультфильмы,Советские",
  "vr_identifier": "В яранге горит огонь",
  "iframe": "https://www.ivi.ru/embeds/video/?subsite=1&autostart=0&videoid=220699"
}