{
  "content_id": "208938",
  "title": "Валентин и Валентина",
  "release_date": "1986",
  "orig_country": "СССР",
  "lang": "Русский",
  "restrict": "12+",
  "kinopoisk_id": "45654",
  "kinopoisk_rating": "7.3",
  "imdb_rating": "6.7",
  "duration": "5263",
  "category": "Фильмы",
  "genres": "Драмы,Мелодрамы,Советское кино,Экранизации",
  "vr_identifier": "Валентин и Валентина",
  "iframe": "https://www.ivi.ru/embeds/video/?subsite=1&autostart=0&videoid=208938"
}