{
  "content_id": "15008",
  "title": "Валерий Чкалов",
  "release_date": "1941",
  "orig_country": "СССР",
  "lang": "Русский",
  "restrict": "0+",
  "kinopoisk_id": "45657",
  "kinopoisk_rating": "6.94",
  "imdb_rating": "6.8",
  "duration": "4938",
  "category": "Фильмы",
  "genres": "Биография,Для всей семьи,Драмы,Советское кино",
  "vr_identifier": "Валерий Чкалов",
  "iframe": "https://www.ivi.ru/embeds/video/?subsite=1&autostart=0&videoid=15008"
}