{
  "content_id": "14993",
  "title": "Вдовы",
  "release_date": "1976",
  "orig_country": "СССР",
  "lang": "Русский",
  "restrict": "0+",
  "kinopoisk_id": "45686",
  "kinopoisk_rating": "8.13",
  "imdb_rating": "7.1",
  "duration": "5099",
  "category": "Фильмы",
  "genres": "Драмы,Советское кино",
  "vr_identifier": "Вдовы",
  "iframe": "https://www.ivi.ru/embeds/video/?subsite=1&autostart=0&videoid=14993"
}