{
  "content_id": "49087",
  "title": "Холостые выстрелы",
  "orig_title": "Mine Vaganti",
  "release_date": "2010",
  "orig_country": "Италия",
  "lang": "Итальянский",
  "restrict": "16+",
  "kinopoisk_id": "456927",
  "kinopoisk_rating": "7",
  "imdb_rating": "7.3",
  "duration": "6480",
  "category": "Фильмы",
  "genres": "Драмы,Комедии,Мелодрамы",
  "vr_identifier": "Холостые выстрелы/",
  "iframe": "https://www.ivi.ru/embeds/video/?subsite=1&autostart=0&videoid=49087"
}