{
  "content_id": "14997",
  "title": "Воздухоплаватель",
  "release_date": "1975",
  "orig_country": "СССР",
  "lang": "Русский",
  "restrict": "6+",
  "kinopoisk_id": "45869",
  "kinopoisk_rating": "6.04",
  "imdb_rating": "6.4",
  "duration": "5282",
  "category": "Фильмы",
  "genres": "Приключения,Советское кино",
  "vr_identifier": "Воздухоплаватель",
  "iframe": "https://www.ivi.ru/embeds/video/?subsite=1&autostart=0&videoid=14997"
}