{
  "content_id": "60173",
  "title": "Встреча на Эльбе",
  "release_date": "1949",
  "orig_country": "СССР",
  "lang": "Русский",
  "restrict": "0+",
  "kinopoisk_id": "45930",
  "kinopoisk_rating": "6.06",
  "imdb_rating": "6.4",
  "duration": "5906",
  "category": "Фильмы",
  "genres": "Военные,Советское кино",
  "vr_identifier": "Встреча на Эльбе",
  "iframe": "https://www.ivi.ru/embeds/video/?subsite=1&autostart=0&videoid=60173"
}