{
  "content_id": "109193",
  "title": "Океаны",
  "orig_title": "Océans",
  "release_date": "2009",
  "orig_country": "Франция",
  "lang": "Французский",
  "restrict": "0+",
  "kinopoisk_id": "460089",
  "kinopoisk_rating": "8.24",
  "imdb_rating": "7.8",
  "duration": "6225",
  "category": "Фильмы",
  "genres": "Для всей семьи,Документальные,Драмы,Зарубежные",
  "vr_identifier": "Океаны",
  "iframe": "https://www.ivi.ru/embeds/video/?subsite=1&autostart=0&videoid=109193"
}