{
  "content_id": "70000",
  "title": "От тюрьмы и от сумы",
  "release_date": "2008",
  "orig_country": "Украина",
  "lang": "Русский",
  "restrict": "16+",
  "kinopoisk_id": "460148",
  "kinopoisk_rating": "5.58",
  "duration": "5460",
  "category": "Фильмы",
  "genres": "Зарубежные,Мелодрамы",
  "vr_identifier": "От тюрьмы и от сумы",
  "iframe": "https://www.ivi.ru/embeds/video/?subsite=1&autostart=0&videoid=70000"
}