{
  "content_id": "220776",
  "title": "Мой друг зонтик",
  "release_date": "1982",
  "orig_country": "СССР",
  "lang": "Русский",
  "restrict": "0+",
  "kinopoisk_id": "460134",
  "kinopoisk_rating": "7.25",
  "imdb_rating": "6.3",
  "duration": "604",
  "category": "Мультфильмы",
  "genres": "Для всей семьи,Для детей,Про животных,Русские мультфильмы,Советские",
  "vr_identifier": "Мой друг зонтик",
  "iframe": "https://www.ivi.ru/embeds/video/?subsite=1&autostart=0&videoid=220776"
}