{
  "content_id": "51477",
  "title": "Баллада о Беринге и его друзьях",
  "release_date": "1970",
  "orig_country": "СССР",
  "lang": "Русский",
  "restrict": "16+",
  "kinopoisk_id": "46016",
  "kinopoisk_rating": "6.7",
  "imdb_rating": "6.9",
  "duration": "5523",
  "category": "Фильмы",
  "genres": "Биография,Приключения",
  "vr_identifier": "Баллада о Беринге и его друзьях",
  "iframe": "https://www.ivi.ru/embeds/video/?subsite=1&autostart=0&videoid=51477"
}