{
  "content_id": "383645",
  "title": "Про любовь",
  "release_date": "2008",
  "orig_country": "Украина",
  "lang": "Русский",
  "restrict": "16+",
  "kinopoisk_id": "460352",
  "kinopoisk_rating": "6.03",
  "duration": "5419",
  "category": "Фильмы",
  "genres": "Комедии,Мелодрамы,Русские",
  "vr_identifier": "Про любовь",
  "iframe": "https://www.ivi.ru/embeds/video/?subsite=1&autostart=0&videoid=383645"
}