{
  "content_id": "15064",
  "title": "Без видимых причин",
  "release_date": "1982",
  "orig_country": "СССР",
  "lang": "Русский",
  "restrict": "12+",
  "kinopoisk_id": "46120",
  "kinopoisk_rating": "6.27",
  "imdb_rating": "5.4",
  "duration": "4607",
  "category": "Фильмы",
  "genres": "Детективы,Советское кино",
  "vr_identifier": "Без видимых причин",
  "iframe": "https://www.ivi.ru/embeds/video/?subsite=1&autostart=0&videoid=15064"
}