{
  "content_id": "60168",
  "title": "Большая руда",
  "release_date": "1964",
  "orig_country": "СССР",
  "lang": "Русский",
  "restrict": "0+",
  "kinopoisk_id": "46174",
  "kinopoisk_rating": "7.35",
  "imdb_rating": "7",
  "duration": "5085",
  "category": "Фильмы",
  "genres": "Драмы,Советское кино",
  "vr_identifier": "Большая руда",
  "iframe": "https://www.ivi.ru/embeds/video/?subsite=1&autostart=0&videoid=60168"
}