{
  "content_id": "15032",
  "title": "Браслет-2",
  "release_date": "1967",
  "orig_country": "СССР",
  "lang": "Русский",
  "restrict": "0+",
  "kinopoisk_id": "46211",
  "kinopoisk_rating": "7.24",
  "imdb_rating": "7.8",
  "duration": "4440",
  "category": "Фильмы",
  "genres": "Драмы",
  "vr_identifier": "Браслет-2",
  "iframe": "https://www.ivi.ru/embeds/video/?subsite=1&autostart=0&videoid=15032"
}