{
  "content_id": "15048",
  "title": "Бродячий автобус",
  "release_date": "1989",
  "orig_country": "СССР",
  "lang": "Русский",
  "restrict": "0+",
  "kinopoisk_id": "46228",
  "kinopoisk_rating": "6.74",
  "imdb_rating": "6.8",
  "duration": "5590",
  "category": "Фильмы",
  "genres": "Драмы,Советское кино",
  "vr_identifier": "Бродячий автобус",
  "iframe": "https://www.ivi.ru/embeds/video/?subsite=1&autostart=0&videoid=15048"
}