{
  "content_id": "218166",
  "title": "Будьте готовы, ваше высочество!",
  "release_date": "1978",
  "orig_country": "СССР",
  "lang": "Русский",
  "restrict": "0+",
  "kinopoisk_id": "46234",
  "kinopoisk_rating": "6.32",
  "imdb_rating": "5.7",
  "duration": "4050",
  "category": "Фильмы",
  "genres": "Для всей семьи,Для детей,Советское кино,Экранизации",
  "vr_identifier": "Будьте готовы, ваше высочество!",
  "iframe": "https://www.ivi.ru/embeds/video/?subsite=1&autostart=0&videoid=218166"
}