{
  "content_id": "218272",
  "title": "На Киевском направлении",
  "release_date": "1967",
  "orig_country": "СССР",
  "lang": "Русский",
  "restrict": "12+",
  "kinopoisk_id": "46270",
  "kinopoisk_rating": "6.37",
  "imdb_rating": "7.2",
  "duration": "5592",
  "category": "Фильмы",
  "genres": "Военные,Советское кино",
  "vr_identifier": "На Киевском направлении",
  "iframe": "https://www.ivi.ru/embeds/video/?subsite=1&autostart=0&videoid=218272"
}