{
  "content_id": "19760",
  "title": "Начальник Чукотки",
  "release_date": "1966",
  "orig_country": "СССР",
  "lang": "Русский",
  "restrict": "6+",
  "kinopoisk_id": "46293",
  "kinopoisk_rating": "7.9",
  "imdb_rating": "7.5",
  "duration": "5168",
  "category": "Фильмы",
  "genres": "Для всей семьи,Драмы,Комедии,Советское кино",
  "vr_identifier": "Начальник Чукотки",
  "iframe": "https://www.ivi.ru/embeds/video/?subsite=1&autostart=0&videoid=19760"
}