{
  "content_id": "60249",
  "title": "Накануне",
  "release_date": "1959",
  "orig_country": "СССР",
  "lang": "Русский",
  "restrict": "12+",
  "kinopoisk_id": "46307",
  "kinopoisk_rating": "6.62",
  "imdb_rating": "6.9",
  "duration": "4984",
  "category": "Фильмы",
  "genres": "Драмы,Советское кино,Экранизации",
  "vr_identifier": "Накануне",
  "iframe": "https://www.ivi.ru/embeds/video/?subsite=1&autostart=0&videoid=60249"
}