{
  "content_id": "26575",
  "title": "Не забудь... станция Луговая",
  "release_date": "1966",
  "orig_country": "СССР",
  "lang": "Русский",
  "restrict": "0+",
  "kinopoisk_id": "46372",
  "kinopoisk_rating": "7.37",
  "imdb_rating": "7.9",
  "duration": "4744",
  "category": "Фильмы",
  "genres": "Драмы,Мелодрамы,Советское кино",
  "vr_identifier": "Не забудь... станция Луговая",
  "iframe": "https://www.ivi.ru/embeds/video/?subsite=1&autostart=0&videoid=26575"
}