{
  "content_id": "60259",
  "title": "Неподдающиеся",
  "release_date": "1959",
  "orig_country": "СССР",
  "lang": "Русский",
  "restrict": "12+",
  "kinopoisk_id": "46403",
  "kinopoisk_rating": "8.05",
  "imdb_rating": "7.4",
  "duration": "4534",
  "category": "Фильмы",
  "genres": "Комедии,Советское кино",
  "vr_identifier": "Неподдающиеся",
  "iframe": "https://www.ivi.ru/embeds/video/?subsite=1&autostart=0&videoid=60259"
}