{
  "content_id": "26593",
  "title": "Невеста",
  "release_date": "1956",
  "orig_country": "СССР",
  "lang": "Русский",
  "restrict": "16+",
  "kinopoisk_id": "46423",
  "kinopoisk_rating": "6.38",
  "imdb_rating": "6.6",
  "duration": "4901",
  "category": "Фильмы",
  "genres": "Драмы,Советское кино",
  "vr_identifier": "Невеста",
  "iframe": "https://www.ivi.ru/embeds/video/?subsite=1&autostart=0&videoid=26593"
}