{
  "content_id": "60262",
  "title": "Нормандия – Неман",
  "release_date": "1960",
  "orig_country": "СССР",
  "lang": "Русский",
  "restrict": "12+",
  "kinopoisk_id": "46463",
  "kinopoisk_rating": "7.23",
  "imdb_rating": "6.5",
  "duration": "6827",
  "category": "Фильмы",
  "genres": "Военные,Советское кино",
  "vr_identifier": "Нормандия – Неман",
  "iframe": "https://www.ivi.ru/embeds/video/?subsite=1&autostart=0&videoid=60262"
}