{
  "content_id": "51616",
  "title": "Новые приключение капитана Врунгеля",
  "release_date": "1978",
  "orig_country": "СССР",
  "lang": "Русский",
  "restrict": "12+",
  "kinopoisk_id": "46474",
  "kinopoisk_rating": "7",
  "imdb_rating": "7.1",
  "duration": "4590",
  "category": "Фильмы",
  "genres": "Для детей,Приключения,Фильмы",
  "vr_identifier": "Новые приключения капитана Врунгеля",
  "iframe": "https://www.ivi.ru/embeds/video/?subsite=1&autostart=0&videoid=51616"
}