{
  "content_id": "60325",
  "title": "Привет от Чарли-трубача",
  "release_date": "1998",
  "orig_country": "Россия",
  "lang": "Русский",
  "restrict": "0+",
  "kinopoisk_id": "464880",
  "kinopoisk_rating": "5.91",
  "duration": "4593",
  "category": "Фильмы",
  "genres": "Мелодрамы",
  "vr_identifier": "Привет от Чарли-трубача",
  "iframe": "https://www.ivi.ru/embeds/video/?subsite=1&autostart=0&videoid=60325"
}