{
  "content_id": "26609",
  "title": "Магия черная и белая",
  "release_date": "1983",
  "orig_country": "СССР",
  "lang": "Русский",
  "restrict": "6+",
  "kinopoisk_id": "46501",
  "kinopoisk_rating": "7.97",
  "imdb_rating": "7.2",
  "duration": "4321",
  "category": "Фильмы",
  "genres": "Комедии,Советское кино,Фильмы",
  "vr_identifier": "Магия черная и белая",
  "iframe": "https://www.ivi.ru/embeds/video/?subsite=1&autostart=0&videoid=26609"
}