{
  "content_id": "218261",
  "title": "Матрос Чижик",
  "release_date": "1955",
  "orig_country": "СССР",
  "lang": "Русский",
  "restrict": "12+",
  "kinopoisk_id": "46564",
  "kinopoisk_rating": "7.6",
  "imdb_rating": "7.5",
  "duration": "4898",
  "category": "Фильмы",
  "genres": "Мелодрамы,Советское кино",
  "vr_identifier": "Матрос Чижик",
  "iframe": "https://www.ivi.ru/embeds/video/?subsite=1&autostart=0&videoid=218261"
}