{
  "content_id": "26608",
  "title": "Меченый атом",
  "release_date": "1972",
  "orig_country": "СССР",
  "lang": "Русский",
  "restrict": "12+",
  "kinopoisk_id": "46584",
  "kinopoisk_rating": "6.35",
  "imdb_rating": "6.4",
  "duration": "5615",
  "category": "Фильмы",
  "genres": "Детективы,Драмы,Приключения,Советское кино",
  "vr_identifier": "Меченый атом",
  "iframe": "https://www.ivi.ru/embeds/video/?subsite=1&autostart=0&videoid=26608"
}