{
  "content_id": "9650",
  "title": "Разжалованный",
  "release_date": "2009",
  "orig_country": "Россия",
  "lang": "Русский",
  "restrict": "16+",
  "kinopoisk_id": "466444",
  "kinopoisk_rating": "6.99",
  "imdb_rating": "7.5",
  "duration": "5537",
  "category": "Фильмы",
  "genres": "Военные,Драмы,Русские",
  "vr_identifier": "Разжалованный",
  "iframe": "https://www.ivi.ru/embeds/video/?subsite=1&autostart=0&videoid=9650"
}