{
  "content_id": "60238",
  "title": "Молодые",
  "release_date": "1970",
  "orig_country": "СССР",
  "lang": "Русский",
  "restrict": "0+",
  "kinopoisk_id": "46688",
  "kinopoisk_rating": "6.88",
  "imdb_rating": "5.6",
  "duration": "5194",
  "category": "Фильмы",
  "genres": "Мелодрамы,Советское кино",
  "vr_identifier": "Молодые",
  "iframe": "https://www.ivi.ru/embeds/video/?subsite=1&autostart=0&videoid=60238"
}