{
  "content_id": "96306",
  "title": "Милый друг",
  "orig_title": "Bel Ami",
  "release_date": "2010",
  "orig_country": "Великобритания",
  "lang": "Английский",
  "restrict": "16+",
  "kinopoisk_id": "466849",
  "kinopoisk_rating": "6.02",
  "imdb_rating": "5.4",
  "duration": "5885",
  "category": "Фильмы",
  "genres": "Драмы,Зарубежные,Мелодрамы",
  "vr_identifier": "Милый друг",
  "iframe": "https://www.ivi.ru/embeds/video/?subsite=1&autostart=0&videoid=96306"
}