{
  "content_id": "7970",
  "title": "Московская элегия",
  "release_date": "1988",
  "orig_country": "СССР",
  "lang": "Русский",
  "restrict": "12+",
  "kinopoisk_id": "46706",
  "kinopoisk_rating": "7.1",
  "imdb_rating": "7.3",
  "duration": "5193",
  "category": "Фильмы",
  "genres": "Документальные,Советское кино",
  "vr_identifier": "Московская элегия",
  "iframe": "https://www.ivi.ru/embeds/video/?subsite=1&autostart=0&videoid=7970"
}