{
  "content_id": "60241",
  "title": "Мужики!",
  "release_date": "1981",
  "orig_country": "СССР",
  "lang": "Русский",
  "restrict": "0+",
  "kinopoisk_id": "46745",
  "kinopoisk_rating": "8.09",
  "imdb_rating": "7.7",
  "duration": "5530",
  "category": "Фильмы",
  "genres": "Драмы,Советское кино",
  "vr_identifier": "Мужики!",
  "iframe": "https://www.ivi.ru/embeds/video/?subsite=1&autostart=0&videoid=60241"
}