{
  "content_id": "8174",
  "title": "25-е – первый день",
  "release_date": "1968",
  "orig_country": "СССР",
  "lang": "Русский",
  "restrict": "0+",
  "kinopoisk_id": "46791",
  "kinopoisk_rating": "5.45",
  "imdb_rating": "6.1",
  "duration": "536",
  "category": "Мультфильмы",
  "genres": "Для взрослых,Русские,Советские",
  "vr_identifier": "Двадцать пятое-первый день",
  "iframe": "https://www.ivi.ru/embeds/video/?subsite=1&autostart=0&videoid=8174"
}