{
  "content_id": "52952",
  "title": "Да здравствует Мексика!",
  "release_date": "1979",
  "orig_country": "СССР",
  "lang": "Русский",
  "restrict": "12+",
  "kinopoisk_id": "46804",
  "kinopoisk_rating": "7.27",
  "imdb_rating": "7.6",
  "duration": "5052",
  "category": "Фильмы",
  "genres": "Документальные,Драмы,Советское кино",
  "vr_identifier": "Да здравствует Мексика!",
  "iframe": "https://www.ivi.ru/embeds/video/?subsite=1&autostart=0&videoid=52952"
}