{
  "content_id": "109280",
  "title": "Каденции",
  "release_date": "2010",
  "orig_country": "Россия",
  "lang": "Русский",
  "restrict": "16+",
  "kinopoisk_id": "468292",
  "kinopoisk_rating": "4.56",
  "duration": "5682",
  "category": "Фильмы",
  "genres": "Драмы,Мелодрамы,Русские",
  "vr_identifier": "Каденции",
  "iframe": "https://www.ivi.ru/embeds/video/?subsite=1&autostart=0&videoid=109280"
}