{
  "content_id": "103446",
  "title": "Беспредел",
  "orig_title": "Autoreiji",
  "release_date": "2010",
  "orig_country": "Япония",
  "lang": "Японский",
  "restrict": "18+",
  "kinopoisk_id": "468363",
  "kinopoisk_rating": "7.14",
  "imdb_rating": "6.8",
  "duration": "6313",
  "category": "Фильмы",
  "genres": "Драмы,Зарубежные,Криминал,Триллеры",
  "vr_identifier": "Беспредел",
  "iframe": "https://www.ivi.ru/embeds/video/?subsite=1&autostart=0&videoid=103446"
}