{
  "content_id": "218244",
  "title": "Когда поют соловьи",
  "release_date": "1956",
  "orig_country": "СССР",
  "lang": "Русский",
  "restrict": "12+",
  "kinopoisk_id": "469656",
  "kinopoisk_rating": "0",
  "duration": "4931",
  "category": "Фильмы",
  "genres": "Драмы,Мелодрамы,Советское кино",
  "vr_identifier": "Когда поют соловьи",
  "iframe": "https://www.ivi.ru/embeds/video/?subsite=1&autostart=0&videoid=218244"
}