{
  "content_id": "119286",
  "title": "Сезон убийц",
  "orig_title": "Killing Season",
  "release_date": "2013",
  "orig_country": "США",
  "lang": "Английский",
  "restrict": "16+",
  "kinopoisk_id": "470150",
  "kinopoisk_rating": "5.86",
  "imdb_rating": "5.4",
  "duration": "5218",
  "category": "Фильмы",
  "genres": "Боевики,Драмы,Зарубежные,Триллеры",
  "vr_identifier": "Сезон убийц",
  "iframe": "https://www.ivi.ru/embeds/video/?subsite=1&autostart=0&videoid=119286"
}