{
  "content_id": "45165",
  "title": "Дополнительные возможности Пятачка",
  "release_date": "2008",
  "orig_country": "Россия",
  "lang": "Русский",
  "restrict": "16+",
  "kinopoisk_id": "470805",
  "kinopoisk_rating": "5.98",
  "imdb_rating": "6.6",
  "duration": "316",
  "category": "Мультфильмы",
  "genres": "Для взрослых,Русские",
  "vr_identifier": "Дополнительные возможности Пятачка",
  "iframe": "https://www.ivi.ru/embeds/video/?subsite=1&autostart=0&videoid=45165"
}