{
  "content_id": "218343",
  "title": "Там, вдали за рекой",
  "release_date": "1975",
  "orig_country": "СССР",
  "lang": "Русский",
  "restrict": "12+",
  "kinopoisk_id": "475007",
  "kinopoisk_rating": "0",
  "duration": "4426",
  "category": "Фильмы",
  "genres": "Драмы,Комедии,Советское кино",
  "vr_identifier": "Там, вдали за рекой",
  "iframe": "https://www.ivi.ru/embeds/video/?subsite=1&autostart=0&videoid=218343"
}