{
  "content_id": "66821",
  "title": "Все непонятливые",
  "release_date": "1987",
  "orig_country": "СССР",
  "lang": "Русский",
  "restrict": "6+",
  "kinopoisk_id": "477326",
  "kinopoisk_rating": "6.15",
  "imdb_rating": "7",
  "duration": "436",
  "category": "Мультфильмы",
  "genres": "Для детей,Русские,Русские мультфильмы,Советские",
  "vr_identifier": "Все непонятливые",
  "iframe": "https://www.ivi.ru/embeds/video/?subsite=1&autostart=0&videoid=66821"
}