{
  "content_id": "94099",
  "title": "Хочу в Голливуд",
  "orig_title": "Di Di Hollywood",
  "release_date": "2010",
  "orig_country": "Испания",
  "lang": "Испанский",
  "restrict": "18+",
  "kinopoisk_id": "477648",
  "kinopoisk_rating": "5.38",
  "imdb_rating": "3.6",
  "duration": "5760",
  "category": "Фильмы",
  "genres": "Драмы,Зарубежные",
  "vr_identifier": "Хочу в Голливуд",
  "iframe": "https://www.ivi.ru/embeds/video/?subsite=1&autostart=0&videoid=94099"
}