{
  "content_id": "66377",
  "title": "Оторвы",
  "orig_title": "Ass Backwards",
  "release_date": "2013",
  "orig_country": "США",
  "lang": "Английский",
  "restrict": "16+",
  "kinopoisk_id": "477906",
  "kinopoisk_rating": "3.49",
  "imdb_rating": "4.2",
  "duration": "5100",
  "category": "Фильмы",
  "genres": "Зарубежные,Комедии,Приключения",
  "vr_identifier": "Оторвы",
  "iframe": "https://www.ivi.ru/embeds/video/?subsite=1&autostart=0&videoid=66377"
}