{
  "content_id": "66670",
  "title": "Сказка о старом эхо",
  "release_date": "1989",
  "orig_country": "СССР",
  "lang": "Русский",
  "restrict": "0+",
  "kinopoisk_id": "478585",
  "kinopoisk_rating": "7.81",
  "imdb_rating": "6.8",
  "duration": "378",
  "category": "Мультфильмы",
  "genres": "Для детей,Русские мультфильмы,Советские",
  "vr_identifier": "Сказка о старом эхо",
  "iframe": "https://www.ivi.ru/embeds/video/?subsite=1&autostart=0&videoid=66670"
}