{
  "content_id": "56297",
  "title": "Грань",
  "orig_title": "Cruzando el límite",
  "release_date": "2010",
  "orig_country": "Испания",
  "lang": "Испанский",
  "restrict": "18+",
  "kinopoisk_id": "479176",
  "kinopoisk_rating": "6.85",
  "imdb_rating": "6",
  "duration": "5541",
  "category": "Фильмы",
  "genres": "Драмы,Зарубежные,Триллеры",
  "vr_identifier": "Грань",
  "iframe": "https://www.ivi.ru/embeds/video/?subsite=1&autostart=0&videoid=56297"
}