{
  "content_id": "225488",
  "title": "Хэппи-энд",
  "orig_title": "Happy End",
  "release_date": "1968",
  "orig_country": "Чехия",
  "lang": "Чешский",
  "restrict": "16+",
  "kinopoisk_id": "48105",
  "kinopoisk_rating": "7.9",
  "imdb_rating": "8",
  "duration": "4163",
  "category": "Фильмы",
  "genres": "Зарубежные,Комедии,Криминал",
  "vr_identifier": "Хэппи-энд",
  "iframe": "https://www.ivi.ru/embeds/video/?subsite=1&autostart=0&videoid=225488"
}