{
  "content_id": "26587",
  "title": "Не имей сто рублей...",
  "release_date": "1959",
  "orig_country": "СССР",
  "lang": "Русский",
  "restrict": "6+",
  "kinopoisk_id": "481497",
  "kinopoisk_rating": "6.47",
  "imdb_rating": "6.1",
  "duration": "4866",
  "category": "Фильмы",
  "genres": "Комедии,Советское кино",
  "vr_identifier": "Не имей сто рублей...",
  "iframe": "https://www.ivi.ru/embeds/video/?subsite=1&autostart=0&videoid=26587"
}