{
  "content_id": "61202",
  "title": "Опасный квартал",
  "orig_title": "The Son of No One",
  "release_date": "2011",
  "orig_country": "США",
  "lang": "Английский",
  "restrict": "16+",
  "kinopoisk_id": "482217",
  "kinopoisk_rating": "5.5",
  "imdb_rating": "5.1",
  "duration": "5399",
  "category": "Фильмы",
  "genres": "Детективы,Драмы,Зарубежные,Триллеры",
  "vr_identifier": "Опасный квартал",
  "iframe": "https://www.ivi.ru/embeds/video/?subsite=1&autostart=0&videoid=61202"
}