{
  "content_id": "128854",
  "title": "3 серия",
  "compilation_id": "9594",
  "compilation": "Проделки Рамзеса",
  "release_date": "1987",
  "orig_country": "СССР",
  "lang": "Русский",
  "restrict": "0+",
  "kinopoisk_id": "485070",
  "kinopoisk_rating": "0",
  "imdb_rating": "7.3",
  "episode": "3",
  "duration": "501",
  "category": "Мультфильмы",
  "genres": "Для детей,Русские,Русские мультфильмы",
  "vr_identifier": "Проделки Рамзеса",
  "iframe": "https://www.ivi.ru/embeds/video/?subsite=1&autostart=0&videoid=128854"
}