{
  "content_id": "105868",
  "title": "На дороге",
  "orig_title": "On the Road",
  "release_date": "2012",
  "orig_country": "Франция",
  "lang": "Французский",
  "restrict": "18+",
  "kinopoisk_id": "4852",
  "kinopoisk_rating": "6.46",
  "imdb_rating": "6.1",
  "duration": "8393",
  "category": "Фильмы",
  "genres": "Драмы,Зарубежные,Мелодрамы,Приключения",
  "vr_identifier": "На дороге",
  "iframe": "https://www.ivi.ru/embeds/video/?subsite=1&autostart=0&videoid=105868"
}