{
  "content_id": "60781",
  "title": "Месть пушистых",
  "orig_title": "Furry Vengeance",
  "release_date": "2010",
  "orig_country": "США",
  "lang": "Английский",
  "restrict": "6+",
  "kinopoisk_id": "485351",
  "kinopoisk_rating": "5.08",
  "imdb_rating": "3.8",
  "duration": "5474",
  "category": "Фильмы",
  "genres": "Для всей семьи,Зарубежные,Комедии",
  "vr_identifier": "Месть пушистых",
  "iframe": "https://www.ivi.ru/embeds/video/?subsite=1&autostart=0&videoid=60781"
}