{
  "content_id": "58775",
  "title": "Крик зверя (Время зверя)",
  "orig_title": "Le poil de la bête",
  "release_date": "2010",
  "orig_country": "Канада",
  "lang": "Английский",
  "restrict": "16+",
  "kinopoisk_id": "486195",
  "kinopoisk_rating": "4.81",
  "imdb_rating": "5.2",
  "duration": "5302",
  "category": "Фильмы",
  "genres": "Зарубежные,Мелодрамы,Мистические,Приключения,Ужасы",
  "vr_identifier": "Крик зверя (Время зверя)",
  "iframe": "https://www.ivi.ru/embeds/video/?subsite=1&autostart=0&videoid=58775"
}