{
  "content_id": "218268",
  "title": "Мужчины есть мужчины",
  "release_date": "1985",
  "orig_country": "СССР",
  "lang": "Русский",
  "restrict": "12+",
  "kinopoisk_id": "489270",
  "kinopoisk_rating": "6.54",
  "duration": "3956",
  "category": "Фильмы",
  "genres": "Для всей семьи,Для детей,Комедии,Советское кино",
  "vr_identifier": "Мужчины есть мужчины",
  "iframe": "https://www.ivi.ru/embeds/video/?subsite=1&autostart=0&videoid=218268"
}