{
  "content_id": "130850",
  "title": "Солдатская сказка",
  "release_date": "1980",
  "orig_country": "СССР",
  "lang": "Русский",
  "restrict": "0+",
  "kinopoisk_id": "489286",
  "kinopoisk_rating": "6.99",
  "duration": "921",
  "category": "Мультфильмы",
  "genres": "Для детей,Советские",
  "vr_identifier": "Солдатская сказка",
  "iframe": "https://www.ivi.ru/embeds/video/?subsite=1&autostart=0&videoid=130850"
}