{
  "content_id": "218296",
  "title": "Падающий иней",
  "release_date": "1969",
  "orig_country": "СССР",
  "lang": "Русский",
  "restrict": "12+",
  "kinopoisk_id": "493764",
  "kinopoisk_rating": "0",
  "duration": "5112",
  "category": "Фильмы",
  "genres": "Драмы,Советское кино",
  "vr_identifier": "Падающий иней",
  "iframe": "https://www.ivi.ru/embeds/video/?subsite=1&autostart=0&videoid=218296"
}