{
  "content_id": "150065",
  "title": "Душевные болезни",
  "orig_title": "Maladies",
  "release_date": "2012",
  "orig_country": "США",
  "lang": "Английский",
  "restrict": "18+",
  "kinopoisk_id": "495001",
  "duration": "5824",
  "category": "Фильмы",
  "genres": "Драмы,Зарубежные",
  "vr_identifier": "Душевные болезни",
  "iframe": "https://www.ivi.ru/embeds/video/?subsite=1&autostart=0&videoid=150065"
}