{
  "content_id": "99921",
  "title": "Я видел Дьявола",
  "orig_title": "Akmareul boatda",
  "release_date": "2010",
  "orig_country": "Южная Корея",
  "restrict": "18+",
  "kinopoisk_id": "497027",
  "kinopoisk_rating": "7.55",
  "imdb_rating": "7.8",
  "duration": "8630",
  "category": "Фильмы",
  "genres": "Драмы,Криминал,Триллеры",
  "vr_identifier": "Я видел дьявола",
  "iframe": "https://www.ivi.ru/embeds/video/?subsite=1&autostart=0&videoid=99921"
}