{
  "content_id": "218291",
  "title": "Остров Волчий",
  "release_date": "1969",
  "orig_country": "СССР",
  "lang": "Русский",
  "restrict": "12+",
  "kinopoisk_id": "502846",
  "kinopoisk_rating": "6.63",
  "duration": "3792",
  "category": "Фильмы",
  "genres": "Драмы,Советское кино,Экранизации",
  "vr_identifier": "Остров Волчий",
  "iframe": "https://www.ivi.ru/embeds/video/?subsite=1&autostart=0&videoid=218291"
}