{
  "content_id": "185417",
  "title": "Осторожно, двери открываются!",
  "release_date": "2005",
  "orig_country": "Россия",
  "lang": "Русский",
  "restrict": "0+",
  "kinopoisk_id": "503079",
  "kinopoisk_rating": "7.17",
  "duration": "304",
  "category": "Мультфильмы",
  "genres": "Для детей,Русские,Русские мультфильмы",
  "vr_identifier": "Осторожно! Двери открываются!",
  "iframe": "https://www.ivi.ru/embeds/video/?subsite=1&autostart=0&videoid=185417"
}