{
  "content_id": "224122",
  "title": "Вся в меня",
  "orig_title": "Igualita a mi",
  "release_date": "2010",
  "orig_country": "Аргентина",
  "lang": "Испанский",
  "restrict": "16+",
  "kinopoisk_id": "507523",
  "duration": "6315",
  "category": "Фильмы",
  "genres": "Зарубежные,Комедии",
  "vr_identifier": "Вся в меня",
  "iframe": "https://www.ivi.ru/embeds/video/?subsite=1&autostart=0&videoid=224122"
}