{
  "content_id": "107293",
  "title": "Кубатон",
  "orig_title": "El Medico: The Cubaton Story",
  "release_date": "2011",
  "orig_country": "Куба",
  "lang": "Испанский",
  "restrict": "16+",
  "kinopoisk_id": "509089",
  "kinopoisk_rating": "6.03",
  "imdb_rating": "6.6",
  "duration": "5100",
  "category": "Фильмы",
  "genres": "Документальные,Драмы,Зарубежные,Мелодрамы",
  "vr_identifier": "Кубатон",
  "iframe": "https://www.ivi.ru/embeds/video/?subsite=1&autostart=0&videoid=107293"
}