{
  "content_id": "63136",
  "title": "Маленький Гоби",
  "orig_title": "Little Gobie",
  "release_date": "2010",
  "orig_country": "Китай",
  "lang": "Китайский",
  "restrict": "6+",
  "kinopoisk_id": "512444",
  "imdb_rating": "2.8",
  "duration": "5219",
  "category": "Мультфильмы",
  "genres": "Для детей,Западные мультфильмы,Зарубежные,Полнометражные",
  "vr_identifier": "Маленький Гоби",
  "iframe": "https://www.ivi.ru/embeds/video/?subsite=1&autostart=0&videoid=63136"
}