{
  "content_id": "86663",
  "title": "Осатаневшая",
  "orig_title": "Kim Bok-nam salinsageonui jeonmal",
  "release_date": "2010",
  "orig_country": "Южная Корея",
  "restrict": "16+",
  "kinopoisk_id": "520081",
  "kinopoisk_rating": "7.04",
  "imdb_rating": "7.3",
  "duration": "6929",
  "category": "Фильмы",
  "genres": "Детективы,Драмы,Зарубежные,Триллеры",
  "vr_identifier": "Осатаневшая",
  "iframe": "https://www.ivi.ru/embeds/video/?subsite=1&autostart=0&videoid=86663"
}