{
  "content_id": "60798",
  "title": "Коломбиана",
  "orig_title": "Colombiana",
  "release_date": "2011",
  "orig_country": "Франция",
  "lang": "Французский",
  "restrict": "16+",
  "kinopoisk_id": "523122",
  "kinopoisk_rating": "6.59",
  "imdb_rating": "6.4",
  "duration": "6207",
  "category": "Фильмы",
  "genres": "Боевики,Детективы,Драмы,Зарубежные",
  "vr_identifier": "Коломбиана",
  "iframe": "https://www.ivi.ru/embeds/video/?subsite=1&autostart=0&videoid=60798"
}