{
  "content_id": "112171",
  "title": "Открытые сердца",
  "orig_title": "Elsker dig for evigt",
  "release_date": "2002",
  "orig_country": "Дания",
  "restrict": "16+",
  "kinopoisk_id": "52509",
  "kinopoisk_rating": "7.31",
  "imdb_rating": "7.6",
  "duration": "6527",
  "category": "Фильмы",
  "genres": "Драмы,Зарубежные,Мелодрамы",
  "vr_identifier": "Открытые сердца",
  "iframe": "https://www.ivi.ru/embeds/video/?subsite=1&autostart=0&videoid=112171"
}