{
  "content_id": "127888",
  "title": "Новая попытка Кейт МакКолл",
  "orig_title": "The Trials of Cate McCall",
  "release_date": "2013",
  "orig_country": "США",
  "lang": "Английский",
  "restrict": "16+",
  "kinopoisk_id": "528140",
  "kinopoisk_rating": "6.21",
  "imdb_rating": "6.3",
  "duration": "5576",
  "category": "Фильмы",
  "genres": "Драмы,Зарубежные",
  "vr_identifier": "Новая попытка Кейт МакКолл",
  "iframe": "https://www.ivi.ru/embeds/video/?subsite=1&autostart=0&videoid=127888"
}