{
  "content_id": "120182",
  "title": "Девушка на велосипеде (Девочка на велосипеде)",
  "orig_title": "Girl on a Bicycle",
  "release_date": "2013",
  "orig_country": "США",
  "lang": "Английский",
  "restrict": "16+",
  "kinopoisk_id": "535420",
  "kinopoisk_rating": "6.15",
  "imdb_rating": "6.2",
  "duration": "5839",
  "category": "Фильмы",
  "genres": "Драмы,Зарубежные,Комедии,Мелодрамы",
  "vr_identifier": "Девушка на велосипеде",
  "iframe": "https://www.ivi.ru/embeds/video/?subsite=1&autostart=0&videoid=120182"
}