{
  "content_id": "106938",
  "title": "Покорители волн",
  "orig_title": "Chasing Mavericks",
  "release_date": "2012",
  "orig_country": "США",
  "lang": "Английский",
  "restrict": "12+",
  "kinopoisk_id": "546244",
  "kinopoisk_rating": "7.77",
  "imdb_rating": "7.2",
  "duration": "6660",
  "category": "Фильмы",
  "genres": "Биография,Драмы,Зарубежные,Спорт",
  "vr_identifier": "Покорители волн",
  "iframe": "https://www.ivi.ru/embeds/video/?subsite=1&autostart=0&videoid=106938"
}