{
  "content_id": "170721",
  "title": "Мистерия",
  "orig_title": "Mysteria",
  "release_date": "2011",
  "orig_country": "США",
  "lang": "Английский",
  "restrict": "16+",
  "kinopoisk_id": "554427",
  "kinopoisk_rating": "5.12",
  "imdb_rating": "3.9",
  "duration": "5627",
  "category": "Фильмы",
  "genres": "Детективы,Зарубежные,Триллеры",
  "vr_identifier": "Мистерия",
  "iframe": "https://www.ivi.ru/embeds/video/?subsite=1&autostart=0&videoid=170721"
}