{
  "content_id": "123299",
  "title": "Мария – королева Шотландии",
  "orig_title": "Mary Queen of Scots",
  "release_date": "2013",
  "orig_country": "Швейцария",
  "lang": "Шведский",
  "restrict": "16+",
  "kinopoisk_id": "557256",
  "kinopoisk_rating": "5.2",
  "imdb_rating": "5.5",
  "duration": "6907",
  "category": "Фильмы",
  "genres": "Биография,Драмы,Зарубежные,Исторические",
  "vr_identifier": "Мария – королева Шотландии",
  "iframe": "https://www.ivi.ru/embeds/video/?subsite=1&autostart=0&videoid=123299"
}