{
  "content_id": "107496",
  "title": "Искатели могил",
  "orig_title": "Grave Encounters",
  "release_date": "2011",
  "orig_country": "Канада",
  "lang": "Английский",
  "restrict": "16+",
  "kinopoisk_id": "557958",
  "kinopoisk_rating": "6.43",
  "imdb_rating": "6.1",
  "duration": "5598",
  "category": "Фильмы",
  "genres": "Зарубежные,Триллеры,Ужасы",
  "vr_identifier": "Искатели могил",
  "iframe": "https://www.ivi.ru/embeds/video/?subsite=1&autostart=0&videoid=107496"
}