{
  "content_id": "112403",
  "title": "Багровые реки 2: Ангелы апокалипсиса",
  "orig_title": "Les rivières pourpres 2 - Les anges de l'apocalypse",
  "release_date": "2004",
  "orig_country": "Франция",
  "lang": "Французский",
  "restrict": "16+",
  "kinopoisk_id": "5621",
  "kinopoisk_rating": "6.93",
  "imdb_rating": "5.9",
  "duration": "5946",
  "category": "Фильмы",
  "genres": "Боевики,Детективы,Зарубежные,Криминал,Триллеры,Ужасы",
  "vr_identifier": "Багровые реки 2",
  "iframe": "https://www.ivi.ru/embeds/video/?subsite=1&autostart=0&videoid=112403"
}