{
  "content_id": "61301",
  "title": "Ужас из недр",
  "orig_title": "The Terror Beneath",
  "release_date": "2011",
  "orig_country": "Канада",
  "lang": "Английский",
  "restrict": "12+",
  "kinopoisk_id": "565893",
  "kinopoisk_rating": "4.13",
  "imdb_rating": "3.6",
  "duration": "5209",
  "category": "Фильмы",
  "genres": "Боевики,Зарубежные,Фантастика",
  "vr_identifier": "SEEDS OF DESTRUCTION",
  "iframe": "https://www.ivi.ru/embeds/video/?subsite=1&autostart=0&videoid=61301"
}