{
  "content_id": "96301",
  "title": "Дети сексу не помеха",
  "orig_title": "Friends with Kids",
  "release_date": "2012",
  "orig_country": "США",
  "lang": "Английский",
  "restrict": "16+",
  "kinopoisk_id": "566175",
  "kinopoisk_rating": "6.15",
  "imdb_rating": "6.1",
  "duration": "6420",
  "category": "Фильмы",
  "genres": "Драмы,Зарубежные,Комедии,Мелодрамы",
  "vr_identifier": "Дети сексу не помеха",
  "iframe": "https://www.ivi.ru/embeds/video/?subsite=1&autostart=0&videoid=96301"
}