{
  "content_id": "63188",
  "title": "Освенцим",
  "orig_title": "Auschwitz",
  "release_date": "2011",
  "orig_country": "Германия",
  "lang": "Немецкий",
  "restrict": "16+",
  "kinopoisk_id": "566269",
  "kinopoisk_rating": "4.46",
  "imdb_rating": "3.2",
  "duration": "4253",
  "category": "Фильмы",
  "genres": "Драмы,Зарубежные",
  "vr_identifier": "Освенцим",
  "iframe": "https://www.ivi.ru/embeds/video/?subsite=1&autostart=0&videoid=63188"
}