{
  "content_id": "59450",
  "title": "21 и больше",
  "orig_title": "21 & Over",
  "release_date": "2012",
  "orig_country": "США",
  "lang": "Английский",
  "restrict": "16+",
  "kinopoisk_id": "566387",
  "kinopoisk_rating": "6.25",
  "imdb_rating": "5.9",
  "duration": "5359",
  "category": "Фильмы",
  "genres": "Зарубежные,Комедии",
  "vr_identifier": "21 и больше",
  "iframe": "https://www.ivi.ru/embeds/video/?subsite=1&autostart=0&videoid=59450"
}