{
  "content_id": "121551",
  "title": "Прежде чем я усну",
  "orig_title": "Before I Go to Sleep",
  "release_date": "2014",
  "orig_country": "США",
  "lang": "Английский",
  "restrict": "16+",
  "kinopoisk_id": "568267",
  "kinopoisk_rating": "6.6",
  "imdb_rating": "6.3",
  "duration": "5291",
  "category": "Фильмы",
  "genres": "Детективы,Драмы,Зарубежные,Триллеры",
  "vr_identifier": "Прежде чем я усну",
  "iframe": "https://www.ivi.ru/embeds/video/?subsite=1&autostart=0&videoid=121551"
}