{
  "content_id": "107448",
  "title": "Папаши без вредных привычек",
  "orig_title": "On ne choisit pas sa famille",
  "release_date": "2011",
  "orig_country": "Франция",
  "lang": "Французский",
  "restrict": "12+",
  "kinopoisk_id": "568413",
  "kinopoisk_rating": "6.56",
  "imdb_rating": "5.7",
  "duration": "6086",
  "category": "Фильмы",
  "genres": "Зарубежные,Комедии,Приключения",
  "vr_identifier": "You Don't Choose Your Family",
  "iframe": "https://www.ivi.ru/embeds/video/?subsite=1&autostart=0&videoid=107448"
}