{
  "content_id": "315549",
  "title": "Неприкасаемые",
  "orig_title": "Les Lyonnais",
  "release_date": "2011",
  "orig_country": "Франция",
  "lang": "Французский",
  "restrict": "16+",
  "kinopoisk_id": "568696",
  "kinopoisk_rating": "7.44",
  "imdb_rating": "7",
  "duration": "5881",
  "category": "Фильмы",
  "genres": "Драмы,Зарубежные,Криминал",
  "vr_identifier": "Неприкасаемые",
  "iframe": "https://www.ivi.ru/embeds/video/?subsite=1&autostart=0&videoid=315549"
}