{
  "content_id": "60808",
  "title": "Красные огни",
  "orig_title": "Red Lights",
  "release_date": "2012",
  "orig_country": "Испания",
  "lang": "Испанский",
  "restrict": "16+",
  "kinopoisk_id": "570134",
  "kinopoisk_rating": "6.93",
  "imdb_rating": "6.2",
  "duration": "6526",
  "category": "Фильмы",
  "genres": "Детективы,Драмы,Зарубежные,Триллеры",
  "vr_identifier": "Красные огни",
  "iframe": "https://www.ivi.ru/embeds/video/?subsite=1&autostart=0&videoid=60808"
}