{
  "content_id": "108987",
  "title": "Беременный",
  "release_date": "2011",
  "orig_country": "Россия",
  "lang": "Русский",
  "restrict": "12+",
  "kinopoisk_id": "571250",
  "kinopoisk_rating": "2.52",
  "imdb_rating": "4.5",
  "duration": "5029",
  "category": "Фильмы",
  "genres": "Комедии,Русские",
  "vr_identifier": "Беременный",
  "iframe": "https://www.ivi.ru/embeds/video/?subsite=1&autostart=0&videoid=108987"
}