{
  "content_id": "107283",
  "title": "Прощай, моя королева",
  "orig_title": "Les adieux à la reine",
  "release_date": "2012",
  "orig_country": "Франция",
  "lang": "Французский",
  "restrict": "16+",
  "kinopoisk_id": "571969",
  "kinopoisk_rating": "5.83",
  "imdb_rating": "6.3",
  "duration": "5965",
  "category": "Фильмы",
  "genres": "Драмы,Зарубежные,Исторические,Мелодрамы",
  "vr_identifier": "Прощай, моя королева",
  "iframe": "https://www.ivi.ru/embeds/video/?subsite=1&autostart=0&videoid=107283"
}