{
  "content_id": "98417",
  "title": "В первый раз",
  "orig_title": "The First Time",
  "release_date": "2012",
  "orig_country": "США",
  "lang": "Английский",
  "restrict": "16+",
  "kinopoisk_id": "572376",
  "kinopoisk_rating": "6.96",
  "imdb_rating": "6.9",
  "duration": "5465",
  "category": "Фильмы",
  "genres": "Зарубежные,Комедии,Мелодрамы",
  "vr_identifier": "В первый раз",
  "iframe": "https://www.ivi.ru/embeds/video/?subsite=1&autostart=0&videoid=98417"
}