{
  "content_id": "56311",
  "title": "Мой папа – Барышников",
  "release_date": "2011",
  "orig_country": "Россия",
  "lang": "Русский",
  "restrict": "12+",
  "kinopoisk_id": "573356",
  "kinopoisk_rating": "6.83",
  "imdb_rating": "6.9",
  "duration": "5247",
  "category": "Фильмы",
  "genres": "Драмы,Комедии,Русские",
  "vr_identifier": "Мой папа – Барышников",
  "iframe": "https://www.ivi.ru/embeds/video/?subsite=1&autostart=0&videoid=56311"
}