{
  "content_id": "85543",
  "title": "Слон и моська",
  "release_date": "2010",
  "orig_country": "Россия",
  "lang": "Русский",
  "restrict": "12+",
  "kinopoisk_id": "575982",
  "kinopoisk_rating": "6.17",
  "duration": "5040",
  "category": "Фильмы",
  "genres": "Мелодрамы,Русские",
  "vr_identifier": "Слон и Моська",
  "iframe": "https://www.ivi.ru/embeds/video/?subsite=1&autostart=0&videoid=85543"
}