{
  "content_id": "107207",
  "title": "Последняя искра жизни",
  "orig_title": "La chispa de la vida",
  "release_date": "2011",
  "orig_country": "Испания",
  "lang": "Испанский",
  "restrict": "16+",
  "kinopoisk_id": "577283",
  "kinopoisk_rating": "6.44",
  "imdb_rating": "6.1",
  "duration": "5669",
  "category": "Фильмы",
  "genres": "Драмы,Зарубежные",
  "vr_identifier": "Последняя искра жизни",
  "iframe": "https://www.ivi.ru/embeds/video/?subsite=1&autostart=0&videoid=107207"
}