{
  "content_id": "60816",
  "title": "Мой парень – ангел",
  "release_date": "2011",
  "orig_country": "Россия",
  "lang": "Русский",
  "restrict": "16+",
  "kinopoisk_id": "579484",
  "kinopoisk_rating": "6.62",
  "imdb_rating": "6.7",
  "duration": "5610",
  "category": "Фильмы",
  "genres": "Комедии,Мелодрамы,Приключения,Русские,Экранизации",
  "vr_identifier": "Мой парень - ангел",
  "iframe": "https://www.ivi.ru/embeds/video/?subsite=1&autostart=0&videoid=60816"
}