{
  "content_id": "109248",
  "title": "Развод Надера и Симин",
  "orig_title": "Jodaeiye Nader az Simin",
  "release_date": "2011",
  "orig_country": "Иран",
  "restrict": "16+",
  "kinopoisk_id": "579739",
  "kinopoisk_rating": "7.67",
  "imdb_rating": "8.3",
  "duration": "7372",
  "category": "Фильмы",
  "genres": "Драмы,Зарубежные",
  "vr_identifier": "Развод Надера и Симин",
  "iframe": "https://www.ivi.ru/embeds/video/?subsite=1&autostart=0&videoid=109248"
}