{
  "content_id": "112331",
  "title": "Последняя любовь мистера Моргана",
  "orig_title": "Mr. Morgan's Last Love",
  "release_date": "2013",
  "orig_country": "Германия",
  "lang": "Английский",
  "restrict": "16+",
  "kinopoisk_id": "580180",
  "kinopoisk_rating": "6.94",
  "imdb_rating": "6.8",
  "duration": "6664",
  "category": "Фильмы",
  "genres": "Драмы,Зарубежные",
  "vr_identifier": "Последняя любовь мистера Моргана",
  "iframe": "https://www.ivi.ru/embeds/video/?subsite=1&autostart=0&videoid=112331"
}