{
  "content_id": "220694",
  "title": "Букет",
  "release_date": "1966",
  "orig_country": "СССР",
  "lang": "Русский",
  "restrict": "0+",
  "kinopoisk_id": "581780",
  "kinopoisk_rating": "5.8",
  "duration": "991",
  "category": "Мультфильмы",
  "genres": "Для всей семьи,Для детей,Советские",
  "vr_identifier": "Букет",
  "iframe": "https://www.ivi.ru/embeds/video/?subsite=1&autostart=0&videoid=220694"
}