{
  "content_id": "107456",
  "title": "Обезьянки",
  "orig_title": "Apflickorna",
  "release_date": "2012",
  "orig_country": "Швеция",
  "lang": "Шведский",
  "restrict": "16+",
  "kinopoisk_id": "586307",
  "kinopoisk_rating": "5.56",
  "imdb_rating": "5.5",
  "duration": "4806",
  "category": "Фильмы",
  "genres": "Драмы,Зарубежные,Спорт",
  "vr_identifier": "Обезьянки",
  "iframe": "https://www.ivi.ru/embeds/video/?subsite=1&autostart=0&videoid=107456"
}