{
  "content_id": "98605",
  "title": "Клин клином",
  "orig_title": "Fire with Fire",
  "release_date": "2012",
  "orig_country": "США",
  "lang": "Английский",
  "restrict": "16+",
  "kinopoisk_id": "586438",
  "kinopoisk_rating": "5.63",
  "imdb_rating": "5.6",
  "duration": "5582",
  "category": "Фильмы",
  "genres": "Боевики,Драмы,Зарубежные,Криминал,Триллеры",
  "vr_identifier": "Клин клином",
  "iframe": "https://www.ivi.ru/embeds/video/?subsite=1&autostart=0&videoid=98605"
}