{
  "content_id": "95094",
  "title": "Шрамы 3D",
  "orig_title": "Paranormal Xperience 3D",
  "release_date": "2011",
  "orig_country": "Испания",
  "lang": "Испанский",
  "restrict": "18+",
  "kinopoisk_id": "586456",
  "kinopoisk_rating": "4.43",
  "imdb_rating": "3.7",
  "duration": "5220",
  "category": "Фильмы",
  "genres": "Зарубежные,Триллеры,Ужасы",
  "vr_identifier": "Шрамы 3D",
  "iframe": "https://www.ivi.ru/embeds/video/?subsite=1&autostart=0&videoid=95094"
}