{
  "content_id": "115129",
  "title": "Переполох на свадьбе",
  "orig_title": "The Knot",
  "release_date": "2012",
  "orig_country": "Великобритания",
  "lang": "Английский",
  "restrict": "16+",
  "kinopoisk_id": "586659",
  "kinopoisk_rating": "5.11",
  "imdb_rating": "4.4",
  "duration": "5288",
  "category": "Фильмы",
  "genres": "Зарубежные,Комедии,Мелодрамы",
  "vr_identifier": "Переполох на свадьбе",
  "iframe": "https://www.ivi.ru/embeds/video/?subsite=1&autostart=0&videoid=115129"
}