{
  "content_id": "103445",
  "title": "Слежка",
  "orig_title": "The Letter",
  "release_date": "2012",
  "orig_country": "США",
  "lang": "Английский",
  "restrict": "16+",
  "kinopoisk_id": "586699",
  "kinopoisk_rating": "4.22",
  "imdb_rating": "3.7",
  "duration": "5388",
  "category": "Фильмы",
  "genres": "Драмы,Зарубежные,Триллеры",
  "vr_identifier": "Слежка",
  "iframe": "https://www.ivi.ru/embeds/video/?subsite=1&autostart=0&videoid=103445"
}