{
  "content_id": "105638",
  "title": "Помпеи",
  "orig_title": "Pompeii",
  "release_date": "2014",
  "orig_country": "США",
  "lang": "Английский",
  "restrict": "12+",
  "kinopoisk_id": "588839",
  "kinopoisk_rating": "6.13",
  "imdb_rating": "5.5",
  "duration": "6007",
  "category": "Фильмы",
  "genres": "Боевики,Драмы,Зарубежные,Мелодрамы,Приключения,Фильмы-катастрофы",
  "vr_identifier": "Помпеи",
  "iframe": "https://www.ivi.ru/embeds/video/?subsite=1&autostart=0&videoid=105638"
}