{
  "content_id": "107424",
  "title": "Синистер",
  "orig_title": "Sinister",
  "release_date": "2012",
  "orig_country": "США",
  "lang": "Английский",
  "restrict": "18+",
  "kinopoisk_id": "590022",
  "kinopoisk_rating": "6.63",
  "imdb_rating": "6.8",
  "duration": "6309",
  "category": "Фильмы",
  "genres": "Детективы,Зарубежные,Триллеры,Ужасы",
  "vr_identifier": "Синистер",
  "iframe": "https://www.ivi.ru/embeds/video/?subsite=1&autostart=0&videoid=107424"
}