{
  "content_id": "94851",
  "title": "Басни для зайцев",
  "release_date": "2005",
  "orig_country": "Россия",
  "lang": "Русский",
  "restrict": "0+",
  "kinopoisk_id": "592334",
  "duration": "1810",
  "category": "Мультфильмы",
  "genres": "Для детей,Про животных,Русские,Русские мультфильмы",
  "vr_identifier": "Басни для зайцев",
  "iframe": "https://www.ivi.ru/embeds/video/?subsite=1&autostart=0&videoid=94851"
}