{
  "content_id": "102198",
  "title": "Ученик мастера",
  "orig_title": "Tai Chi 0",
  "release_date": "2012",
  "orig_country": "Китай",
  "lang": "Китайский",
  "restrict": "12+",
  "kinopoisk_id": "596221",
  "kinopoisk_rating": "5.66",
  "imdb_rating": "6.1",
  "duration": "5644",
  "category": "Фильмы",
  "genres": "Боевики,Драмы,Зарубежные,Приключения",
  "vr_identifier": "Ученик мастера",
  "iframe": "https://www.ivi.ru/embeds/video/?subsite=1&autostart=0&videoid=102198"
}