{
  "content_id": "98531",
  "title": "Кровью и потом: Анаболики",
  "orig_title": "Pain & Gain",
  "release_date": "2013",
  "orig_country": "США",
  "lang": "Английский",
  "restrict": "16+",
  "kinopoisk_id": "596227",
  "kinopoisk_rating": "6.43",
  "imdb_rating": "6.4",
  "duration": "7457",
  "category": "Фильмы",
  "genres": "Боевики,Зарубежные,Комедии,Криминал,Триллеры",
  "vr_identifier": "Кровью и потом: Анаболики",
  "iframe": "https://www.ivi.ru/embeds/video/?subsite=1&autostart=0&videoid=98531"
}