{
  "content_id": "133071",
  "title": "Девушка по вызову",
  "orig_title": "Call Girl",
  "release_date": "2012",
  "orig_country": "Швеция",
  "restrict": "16+",
  "kinopoisk_id": "596672",
  "kinopoisk_rating": "5.85",
  "imdb_rating": "6.5",
  "duration": "8040",
  "category": "Фильмы",
  "genres": "Драмы,Триллеры",
  "vr_identifier": "Девушка по вызову",
  "iframe": "https://www.ivi.ru/embeds/video/?subsite=1&autostart=0&videoid=133071"
}