{
  "content_id": "103396",
  "title": "Мерзлая земля",
  "orig_title": "The Frozen Ground",
  "release_date": "2013",
  "orig_country": "США",
  "lang": "Английский",
  "restrict": "16+",
  "kinopoisk_id": "601483",
  "kinopoisk_rating": "6.42",
  "imdb_rating": "6.4",
  "duration": "6298",
  "category": "Фильмы",
  "genres": "Детективы,Драмы,Зарубежные,Криминал,Триллеры",
  "vr_identifier": "Мерзлая земля",
  "iframe": "https://www.ivi.ru/embeds/video/?subsite=1&autostart=0&videoid=103396"
}