{
  "content_id": "191423",
  "title": "Зов природы",
  "orig_title": "Nature Calls",
  "release_date": "2012",
  "orig_country": "США",
  "lang": "Английский",
  "restrict": "16+",
  "kinopoisk_id": "603674",
  "kinopoisk_rating": "0",
  "imdb_rating": "3.9",
  "duration": "4755",
  "category": "Фильмы",
  "genres": "Зарубежные,Комедии",
  "vr_identifier": "Зов природы",
  "iframe": "https://www.ivi.ru/embeds/video/?subsite=1&autostart=0&videoid=191423"
}