{
  "content_id": "107215",
  "title": "Конвой",
  "release_date": "2012",
  "orig_country": "Россия",
  "lang": "Русский",
  "restrict": "18+",
  "kinopoisk_id": "612614",
  "kinopoisk_rating": "6.11",
  "imdb_rating": "6.3",
  "duration": "4860",
  "category": "Фильмы",
  "genres": "Драмы,Русские",
  "vr_identifier": "Конвой",
  "iframe": "https://www.ivi.ru/embeds/video/?subsite=1&autostart=0&videoid=107215"
}