{
  "content_id": "105977",
  "title": "Любовная лихорадка",
  "orig_title": "A Love Song for Bobby Long",
  "release_date": "2004",
  "orig_country": "США",
  "lang": "Английский",
  "restrict": "16+",
  "kinopoisk_id": "61272",
  "kinopoisk_rating": "7.37",
  "imdb_rating": "7.2",
  "duration": "7193",
  "category": "Фильмы",
  "genres": "Драмы,Зарубежные",
  "vr_identifier": "A Love Song for Bobby Long",
  "iframe": "https://www.ivi.ru/embeds/video/?subsite=1&autostart=0&videoid=105977"
}