{
  "content_id": "115621",
  "title": "Восьмерка",
  "release_date": "2013",
  "orig_country": "Россия",
  "lang": "Русский",
  "restrict": "16+",
  "kinopoisk_id": "613621",
  "kinopoisk_rating": "5.62",
  "imdb_rating": "5.3",
  "duration": "4911",
  "category": "Фильмы",
  "genres": "Боевики,Мелодрамы,Русские",
  "vr_identifier": "Восьмерка",
  "iframe": "https://www.ivi.ru/embeds/video/?subsite=1&autostart=0&videoid=115621"
}