{
  "content_id": "103302",
  "title": "Внутри Льюина Дэвиса",
  "orig_title": "Inside Llewyn Davis",
  "release_date": "2012",
  "orig_country": "США",
  "lang": "Английский",
  "restrict": "16+",
  "kinopoisk_id": "615583",
  "kinopoisk_rating": "6.96",
  "imdb_rating": "7.5",
  "duration": "6281",
  "category": "Фильмы",
  "genres": "Драмы,Зарубежные,Музыкальные",
  "vr_identifier": "Внутри Льюина Дэвиса",
  "iframe": "https://www.ivi.ru/embeds/video/?subsite=1&autostart=0&videoid=103302"
}