{
  "content_id": "70365",
  "title": "Опасное секс свидание",
  "orig_title": "Amorestremo",
  "release_date": "2001",
  "orig_country": "Италия",
  "lang": "Итальянский",
  "restrict": "18+",
  "kinopoisk_id": "61583",
  "kinopoisk_rating": "4.4",
  "imdb_rating": "3.4",
  "duration": "5819",
  "category": "Фильмы",
  "genres": "Эротика",
  "vr_identifier": "THE DANGEROUS SEX DATE",
  "iframe": "https://www.ivi.ru/embeds/video/?subsite=1&autostart=0&videoid=70365"
}