{
  "content_id": "62643",
  "title": "Захар",
  "release_date": "2011",
  "orig_country": "Россия",
  "lang": "Русский",
  "restrict": "16+",
  "kinopoisk_id": "631019",
  "kinopoisk_rating": "7.01",
  "duration": "2580",
  "category": "Фильмы",
  "genres": "Биография,Документальные,Русские",
  "vr_identifier": "Захар",
  "iframe": "https://www.ivi.ru/embeds/video/?subsite=1&autostart=0&videoid=62643"
}