{
  "content_id": "98585",
  "title": "Разрешите вас прикончить?",
  "orig_title": "May I Kill U?",
  "release_date": "2012",
  "orig_country": "Великобритания",
  "lang": "Английский",
  "restrict": "16+",
  "kinopoisk_id": "634086",
  "kinopoisk_rating": "5.36",
  "imdb_rating": "5.6",
  "duration": "5026",
  "category": "Фильмы",
  "genres": "Зарубежные,Комедии,Триллеры",
  "vr_identifier": "Разрешите вас прикончить?",
  "iframe": "https://www.ivi.ru/embeds/video/?subsite=1&autostart=0&videoid=98585"
}