{
  "content_id": "98524",
  "title": "Приключения Гекльберри Финна",
  "orig_title": "Die Abenteuer des Huck Finn",
  "release_date": "2012",
  "orig_country": "Германия",
  "lang": "Немецкий",
  "restrict": "6+",
  "kinopoisk_id": "634300",
  "kinopoisk_rating": "6.29",
  "imdb_rating": "5.8",
  "duration": "6024",
  "category": "Фильмы",
  "genres": "Для всей семьи,Зарубежные,Приключения,Фильмы",
  "vr_identifier": "Приключения Гекльберри Финна",
  "iframe": "https://www.ivi.ru/embeds/video/?subsite=1&autostart=0&videoid=98524"
}