{
  "content_id": "60549",
  "title": "Рэмбо: Первая кровь 2",
  "orig_title": "Rambo: First Blood Part II",
  "release_date": "1985",
  "orig_country": "США",
  "lang": "Английский",
  "restrict": "16+",
  "kinopoisk_id": "6352",
  "kinopoisk_rating": "6.67",
  "imdb_rating": "6.5",
  "duration": "5520",
  "category": "Фильмы",
  "genres": "Боевики,Военные,Зарубежные,Приключения,Триллеры",
  "vr_identifier": "Рэмбо: Первая кровь 2",
  "iframe": "https://www.ivi.ru/embeds/video/?subsite=1&autostart=0&videoid=60549"
}