{
  "content_id": "123559",
  "title": "Игра в имитацию",
  "orig_title": "The Imitation Game",
  "release_date": "2014",
  "orig_country": "Великобритания",
  "lang": "Английский",
  "restrict": "12+",
  "kinopoisk_id": "635772",
  "kinopoisk_rating": "7.61",
  "imdb_rating": "8",
  "duration": "6853",
  "category": "Фильмы",
  "genres": "Биография,Военные,Драмы,Зарубежные,Триллеры",
  "vr_identifier": "Игра в имитацию",
  "iframe": "https://www.ivi.ru/embeds/video/?subsite=1&autostart=0&videoid=123559"
}