{
  "content_id": "368295",
  "title": "Последнее дело Ламарки",
  "orig_title": "City by the Sea",
  "release_date": "2002",
  "orig_country": "США",
  "lang": "Английский",
  "restrict": "16+",
  "kinopoisk_id": "639",
  "kinopoisk_rating": "6.21",
  "imdb_rating": "6.1",
  "duration": "6244",
  "category": "Фильмы",
  "genres": "Детективы,Драмы,Зарубежные,Криминал,Триллеры",
  "vr_identifier": "Последнее дело Ламарки",
  "iframe": "https://www.ivi.ru/embeds/video/?subsite=1&autostart=0&videoid=368295"
}