{
  "content_id": "220843",
  "title": "С 9.00 до 18.00",
  "release_date": "1987",
  "orig_country": "СССР",
  "lang": "Русский",
  "restrict": "6+",
  "kinopoisk_id": "639382",
  "duration": "622",
  "category": "Мультфильмы",
  "genres": "Для всей семьи,Для детей,Русские,Русские мультфильмы,Советские",
  "vr_identifier": "С 9:00 до 18:00",
  "iframe": "https://www.ivi.ru/embeds/video/?subsite=1&autostart=0&videoid=220843"
}