{
  "content_id": "98352",
  "title": "1812: Уланская баллада",
  "release_date": "2012",
  "orig_country": "Россия",
  "lang": "Русский",
  "restrict": "12+",
  "kinopoisk_id": "644717",
  "kinopoisk_rating": "2.65",
  "imdb_rating": "2.4",
  "duration": "5692",
  "category": "Фильмы",
  "genres": "Военные,Комедии,Приключения,Русские",
  "vr_identifier": "CP0002",
  "iframe": "https://www.ivi.ru/embeds/video/?subsite=1&autostart=0&videoid=98352"
}