{
  "content_id": "151210",
  "title": "Элвис и Никсон",
  "orig_title": "Elvis & Nixon",
  "release_date": "2016",
  "orig_country": "США",
  "lang": "Английский",
  "restrict": "18+",
  "kinopoisk_id": "645044",
  "kinopoisk_rating": "6.36",
  "imdb_rating": "6.4",
  "duration": "4955",
  "category": "Фильмы",
  "genres": "Зарубежные,Исторические,Комедии",
  "vr_identifier": "Элвис и Никсон",
  "iframe": "https://www.ivi.ru/embeds/video/?subsite=1&autostart=0&videoid=151210"
}