{
  "content_id": "95897",
  "title": "Болт и Блип спешат на помощь",
  "orig_title": "Bolt & Blip: Battle of the Lunar League",
  "release_date": "2011",
  "orig_country": "Южная Корея",
  "lang": "Английский",
  "restrict": "6+",
  "kinopoisk_id": "647505",
  "kinopoisk_rating": "4.22",
  "imdb_rating": "5.3",
  "duration": "4440",
  "category": "Мультфильмы",
  "genres": "Для детей,Западные мультфильмы,Зарубежные,Полнометражные",
  "vr_identifier": "Болт и Блип спешат на помощь",
  "iframe": "https://www.ivi.ru/embeds/video/?subsite=1&autostart=0&videoid=95897"
}