{
  "content_id": "73152",
  "title": "Опрометчивый",
  "orig_title": "HairBrained",
  "release_date": "2013",
  "orig_country": "США",
  "lang": "Английский",
  "restrict": "16+",
  "kinopoisk_id": "661110",
  "duration": "5569",
  "category": "Фильмы",
  "genres": "Драмы,Зарубежные,Комедии,Фэнтези",
  "vr_identifier": "Опрометчивый",
  "iframe": "https://www.ivi.ru/embeds/video/?subsite=1&autostart=0&videoid=73152"
}