{
  "content_id": "413416",
  "title": "Крепыш",
  "orig_title": "10 timer til Paradis",
  "release_date": "2011",
  "orig_country": "Дания",
  "lang": "Датский",
  "restrict": "12+",
  "kinopoisk_id": "661203",
  "duration": "5524",
  "category": "Фильмы",
  "genres": "Драмы,Зарубежные,Мелодрамы",
  "vr_identifier": "Крепыш",
  "iframe": "https://www.ivi.ru/embeds/video/?subsite=1&autostart=0&videoid=413416"
}