{
  "content_id": "218227",
  "title": "Зозуля с дипломом",
  "release_date": "1971",
  "orig_country": "СССР",
  "lang": "Русский",
  "restrict": "6+",
  "kinopoisk_id": "661752",
  "duration": "3811",
  "category": "Фильмы",
  "genres": "Комедии,Мелодрамы,Советское кино",
  "vr_identifier": "Зозуля с дипломом",
  "iframe": "https://www.ivi.ru/embeds/video/?subsite=1&autostart=0&videoid=218227"
}