{
  "content_id": "412872",
  "title": "Незнакомые",
  "orig_title": "Notanish",
  "release_date": "2007",
  "orig_country": "Узбекистан",
  "lang": "Узбекский",
  "restrict": "12+",
  "kinopoisk_id": "664056",
  "duration": "5773",
  "category": "Фильмы",
  "genres": "Мелодрамы",
  "vr_identifier": "Незнакомые",
  "iframe": "https://www.ivi.ru/embeds/video/?subsite=1&autostart=0&videoid=412872"
}