{
  "content_id": "202237",
  "title": "Неравенство для всех",
  "orig_title": "Inequality for All",
  "release_date": "2013",
  "orig_country": "США",
  "lang": "Английский",
  "restrict": "12+",
  "kinopoisk_id": "665345",
  "kinopoisk_rating": "7.47",
  "imdb_rating": "8.1",
  "duration": "5170",
  "category": "Фильмы",
  "genres": "Документальные,Зарубежные",
  "vr_identifier": "Неравенство для всех",
  "iframe": "https://www.ivi.ru/embeds/video/?subsite=1&autostart=0&videoid=202237"
}