{
  "content_id": "313610",
  "title": "Двойная жизнь Камиллы",
  "orig_title": "Camille redouble",
  "release_date": "2012",
  "orig_country": "Франция",
  "lang": "Французский",
  "restrict": "16+",
  "kinopoisk_id": "668444",
  "kinopoisk_rating": "6.01",
  "imdb_rating": "6.3",
  "duration": "6638",
  "category": "Фильмы",
  "genres": "Драмы,Зарубежные,Комедии,Мелодрамы",
  "vr_identifier": "Двойная жизнь Камиллы",
  "iframe": "https://www.ivi.ru/embeds/video/?subsite=1&autostart=0&videoid=313610"
}