{
  "content_id": "186565",
  "title": "Смерть Эйприл",
  "orig_title": "The Death of April",
  "release_date": "2013",
  "orig_country": "США",
  "restrict": "16+",
  "kinopoisk_id": "675930",
  "kinopoisk_rating": "0",
  "imdb_rating": "4.8",
  "duration": "4948",
  "category": "Фильмы",
  "genres": "Детективы,Зарубежные,Ужасы",
  "vr_identifier": "Смерть Эйприл",
  "iframe": "https://www.ivi.ru/embeds/video/?subsite=1&autostart=0&videoid=186565"
}