{
  "content_id": "98610",
  "title": "Ренуар",
  "orig_title": "Renoir",
  "release_date": "2012",
  "orig_country": "Франция",
  "lang": "Французский",
  "restrict": "16+",
  "kinopoisk_id": "678531",
  "kinopoisk_rating": "6.51",
  "imdb_rating": "6.6",
  "duration": "6434",
  "category": "Фильмы",
  "genres": "Биография,Зарубежные,Мелодрамы",
  "vr_identifier": "Ренуар. Последняя любовь",
  "iframe": "https://www.ivi.ru/embeds/video/?subsite=1&autostart=0&videoid=98610"
}