{
  "content_id": "171729",
  "title": "Атлантида",
  "orig_title": "Cold Skin",
  "release_date": "2017",
  "orig_country": "Испания",
  "lang": "Испанский",
  "restrict": "16+",
  "kinopoisk_id": "678639",
  "kinopoisk_rating": "5.62",
  "imdb_rating": "6",
  "duration": "6146",
  "category": "Фильмы",
  "genres": "Зарубежные,Приключения,Триллеры,Ужасы,Фантастика",
  "vr_identifier": "Атлантида",
  "iframe": "https://www.ivi.ru/embeds/video/?subsite=1&autostart=0&videoid=171729"
}