{
  "content_id": "307336",
  "title": "Интимные отношения",
  "orig_title": "Intimate Relations",
  "release_date": "1996",
  "orig_country": "Великобритания",
  "lang": "Английский",
  "restrict": "18+",
  "kinopoisk_id": "6791",
  "kinopoisk_rating": "6.4",
  "imdb_rating": "6.4",
  "duration": "5951",
  "category": "Фильмы",
  "genres": "Драмы,Зарубежные,Комедии",
  "vr_identifier": "Интимные отношения",
  "iframe": "https://www.ivi.ru/embeds/video/?subsite=1&autostart=0&videoid=307336"
}