{
  "content_id": "413306",
  "title": "Это я, это я!",
  "orig_title": "Ore Ore",
  "release_date": "2013",
  "orig_country": "Япония",
  "lang": "Японский",
  "restrict": "16+",
  "kinopoisk_id": "681061",
  "duration": "6815",
  "category": "Фильмы",
  "genres": "Драмы,Зарубежные,Комедии,Триллеры,Фантастика",
  "vr_identifier": "Это я, это я!",
  "iframe": "https://www.ivi.ru/embeds/video/?subsite=1&autostart=0&videoid=413306"
}