{
  "content_id": "304271",
  "title": "Американские охотники на ведьм",
  "orig_title": "American Witch Hunters",
  "release_date": "2013",
  "orig_country": "США",
  "lang": "Английский",
  "restrict": "18+",
  "kinopoisk_id": "681625",
  "kinopoisk_rating": "0",
  "imdb_rating": "2.5",
  "duration": "5335",
  "category": "Фильмы",
  "genres": "Зарубежные,Триллеры,Ужасы",
  "vr_identifier": "Американские охотники на ведьм",
  "iframe": "https://www.ivi.ru/embeds/video/?subsite=1&autostart=0&videoid=304271"
}