{
  "content_id": "150698",
  "title": "Отель для Золушки",
  "release_date": "2012",
  "orig_country": "Россия",
  "lang": "Русский",
  "restrict": "12+",
  "kinopoisk_id": "682050",
  "duration": "6255",
  "category": "Фильмы",
  "genres": "Мелодрамы,Русские",
  "vr_identifier": "Отель для Золушки",
  "iframe": "https://www.ivi.ru/embeds/video/?subsite=1&autostart=0&videoid=150698"
}