{
  "content_id": "120789",
  "title": "К Элизе",
  "orig_title": "Para Elisa",
  "release_date": "2013",
  "orig_country": "Испания",
  "lang": "Испанский",
  "restrict": "16+",
  "kinopoisk_id": "682753",
  "kinopoisk_rating": "3.71",
  "imdb_rating": "4.2",
  "duration": "4291",
  "category": "Фильмы",
  "genres": "Зарубежные,Триллеры",
  "vr_identifier": "К Элизе",
  "iframe": "https://www.ivi.ru/embeds/video/?subsite=1&autostart=0&videoid=120789"
}