{
  "content_id": "192112",
  "title": "Петрович",
  "release_date": "2012",
  "orig_country": "Россия",
  "lang": "Русский",
  "restrict": "12+",
  "kinopoisk_id": "689088",
  "kinopoisk_rating": "6.55",
  "imdb_rating": "8.3",
  "duration": "5957",
  "category": "Фильмы",
  "genres": "Мелодрамы,Русские",
  "vr_identifier": "Петрович",
  "iframe": "https://www.ivi.ru/embeds/video/?subsite=1&autostart=0&videoid=192112"
}