{
  "content_id": "224240",
  "title": "Продается кошка",
  "release_date": "2012",
  "orig_country": "Россия",
  "lang": "Русский",
  "restrict": "12+",
  "kinopoisk_id": "693940",
  "duration": "6297",
  "category": "Фильмы",
  "genres": "Мелодрамы,Русские",
  "vr_identifier": "Продается кошка",
  "iframe": "https://www.ivi.ru/embeds/video/?subsite=1&autostart=0&videoid=224240"
}