{
  "content_id": "118335",
  "title": "Люблю твою жену",
  "orig_title": "The Right Kind of Wrong",
  "release_date": "2013",
  "orig_country": "Канада",
  "restrict": "16+",
  "kinopoisk_id": "693988",
  "kinopoisk_rating": "6.01",
  "imdb_rating": "6.1",
  "duration": "5574",
  "category": "Фильмы",
  "genres": "Зарубежные,Комедии,Мелодрамы",
  "vr_identifier": "Люблю твою жену",
  "iframe": "https://www.ivi.ru/embeds/video/?subsite=1&autostart=0&videoid=118335"
}