{
  "content_id": "121536",
  "title": "Фабрика футбольных хулиганов",
  "orig_title": "The Hooligan Factory",
  "release_date": "2013",
  "orig_country": "Великобритания",
  "lang": "Английский",
  "restrict": "16+",
  "kinopoisk_id": "702723",
  "kinopoisk_rating": "5.46",
  "imdb_rating": "4.9",
  "duration": "5165",
  "category": "Фильмы",
  "genres": "Зарубежные,Комедии",
  "vr_identifier": "Фабрика футбольных хулиганов",
  "iframe": "https://www.ivi.ru/embeds/video/?subsite=1&autostart=0&videoid=121536"
}