{
  "content_id": "133529",
  "title": "Богатырша",
  "release_date": "2015",
  "orig_country": "Россия",
  "lang": "Русский",
  "restrict": "6+",
  "kinopoisk_id": "704920",
  "kinopoisk_rating": "2.81",
  "imdb_rating": "2.8",
  "duration": "4552",
  "category": "Мультфильмы",
  "genres": "Для детей,Полнометражные,Русские,Русские мультфильмы",
  "vr_identifier": "Богатырша",
  "iframe": "https://www.ivi.ru/embeds/video/?subsite=1&autostart=0&videoid=133529"
}