{
  "content_id": "126955",
  "title": "Матильда",
  "release_date": "2017",
  "orig_country": "Россия",
  "lang": "Русский",
  "restrict": "16+",
  "kinopoisk_id": "705382",
  "kinopoisk_rating": "5.69",
  "imdb_rating": "5.3",
  "duration": "6518",
  "category": "Фильмы",
  "genres": "Драмы,Исторические,Мелодрамы,Русские",
  "vr_identifier": "Матильда",
  "iframe": "https://www.ivi.ru/embeds/video/?subsite=1&autostart=0&videoid=126955"
}