{
  "content_id": "156563",
  "title": "Лучшие дни впереди",
  "orig_title": "Les beaux jours",
  "release_date": "2013",
  "orig_country": "Франция",
  "lang": "Французский",
  "restrict": "16+",
  "kinopoisk_id": "707731",
  "kinopoisk_rating": "6.6",
  "imdb_rating": "6.3",
  "duration": "5640",
  "category": "Фильмы",
  "genres": "Драмы,Зарубежные,Комедии",
  "vr_identifier": "Лучшие дни впереди",
  "iframe": "https://www.ivi.ru/embeds/video/?subsite=1&autostart=0&videoid=156563"
}