{
  "content_id": "133345",
  "title": "Мама поневоле",
  "release_date": "2012",
  "orig_country": "Россия",
  "lang": "Русский",
  "restrict": "12+",
  "kinopoisk_id": "709432",
  "kinopoisk_rating": "6.2",
  "duration": "6712",
  "category": "Фильмы",
  "genres": "Мелодрамы,Русские",
  "vr_identifier": "Мама поневоле",
  "iframe": "https://www.ivi.ru/embeds/video/?subsite=1&autostart=0&videoid=133345"
}