{
  "content_id": "412944",
  "title": "Атлантик Авеню",
  "orig_title": "Atlantic Avenue",
  "release_date": "2013",
  "orig_country": "США",
  "lang": "Английский",
  "restrict": "16+",
  "kinopoisk_id": "710173",
  "duration": "770",
  "category": "Фильмы",
  "genres": "Короткометражки",
  "vr_identifier": "Атлантик Авеню",
  "iframe": "https://www.ivi.ru/embeds/video/?subsite=1&autostart=0&videoid=412944"
}