{
  "content_id": "218220",
  "title": "Живая вода",
  "release_date": "1971",
  "orig_country": "СССР",
  "lang": "Русский",
  "restrict": "12+",
  "kinopoisk_id": "710856",
  "kinopoisk_rating": "0",
  "duration": "4509",
  "category": "Фильмы",
  "genres": "Мелодрамы,Советское кино",
  "vr_identifier": "Живая вода",
  "iframe": "https://www.ivi.ru/embeds/video/?subsite=1&autostart=0&videoid=218220"
}