{
  "content_id": "151068",
  "title": "В ожидании весны",
  "release_date": "2012",
  "orig_country": "Россия",
  "lang": "Русский",
  "restrict": "12+",
  "kinopoisk_id": "712704",
  "duration": "5537",
  "category": "Фильмы",
  "genres": "Мелодрамы,Русские",
  "vr_identifier": "В ожидании весны",
  "iframe": "https://www.ivi.ru/embeds/video/?subsite=1&autostart=0&videoid=151068"
}