{
  "content_id": "115614",
  "title": "Блондинка в эфире",
  "orig_title": "Walk of Shame",
  "release_date": "2014",
  "orig_country": "США",
  "lang": "Английский",
  "restrict": "16+",
  "kinopoisk_id": "714408",
  "kinopoisk_rating": "6.22",
  "imdb_rating": "6",
  "duration": "5435",
  "category": "Фильмы",
  "genres": "Зарубежные,Комедии,Приключения",
  "vr_identifier": "Блондинка в эфире",
  "iframe": "https://www.ivi.ru/embeds/video/?subsite=1&autostart=0&videoid=115614"
}