{
  "content_id": "123773",
  "title": "Лгут не только убийцы",
  "orig_title": "Mördaren ljuger inte ensam",
  "compilation_id": "10876",
  "compilation": "Преступления страсти",
  "release_date": "2013",
  "orig_country": "Швеция",
  "lang": "Шведский",
  "restrict": "18+",
  "kinopoisk_id": "716744",
  "kinopoisk_rating": "5.92",
  "imdb_rating": "5.8",
  "season": "1",
  "episode": "1",
  "duration": "5125",
  "category": "Сериалы",
  "genres": "Зарубежные,Криминал",
  "vr_identifier": "Преступления страсти",
  "iframe": "https://www.ivi.ru/embeds/video/?subsite=1&autostart=0&videoid=123773"
}