{
  "content_id": "412498",
  "title": "В осаде",
  "orig_title": "Suddenly",
  "release_date": "2013",
  "orig_country": "США",
  "lang": "Английский",
  "restrict": "16+",
  "kinopoisk_id": "723461",
  "kinopoisk_rating": "3.46",
  "imdb_rating": "3.6",
  "duration": "5403",
  "category": "Фильмы",
  "genres": "Боевики,Зарубежные,Криминал,Триллеры",
  "vr_identifier": "В ОСАДЕ",
  "iframe": "https://www.ivi.ru/embeds/video/?subsite=1&autostart=0&videoid=412498"
}