{
  "content_id": "383854",
  "title": "Удача напрокат",
  "release_date": "2012",
  "orig_country": "Украина",
  "lang": "Русский",
  "restrict": "12+",
  "kinopoisk_id": "727740",
  "kinopoisk_rating": "5.77",
  "duration": "5369",
  "category": "Фильмы",
  "genres": "Комедии,Мелодрамы,Русские",
  "vr_identifier": "Удача напрокат",
  "iframe": "https://www.ivi.ru/embeds/video/?subsite=1&autostart=0&videoid=383854"
}