{
  "content_id": "207324",
  "title": "Помощничек",
  "release_date": "2007",
  "orig_country": "Россия",
  "lang": "Русский",
  "restrict": "16+",
  "kinopoisk_id": "728090",
  "kinopoisk_rating": "5.91",
  "duration": "3718",
  "category": "Фильмы",
  "genres": "Комедии,Приключения,Русские",
  "vr_identifier": "Помощничек",
  "iframe": "https://www.ivi.ru/embeds/video/?subsite=1&autostart=0&videoid=207324"
}