{
  "content_id": "124528",
  "title": "Вне игры",
  "release_date": "2011",
  "orig_country": "Россия",
  "lang": "Русский",
  "restrict": "0+",
  "kinopoisk_id": "728575",
  "kinopoisk_rating": "6.53",
  "imdb_rating": "7",
  "duration": "365",
  "category": "Мультфильмы",
  "genres": "Для взрослых,Для всей семьи,Для детей,Русские,Русские мультфильмы",
  "vr_identifier": "Вне игры",
  "iframe": "https://www.ivi.ru/embeds/video/?subsite=1&autostart=0&videoid=124528"
}