{
  "content_id": "45176",
  "title": "Одноразовый рай",
  "release_date": "2003",
  "orig_country": "Россия",
  "lang": "Русский",
  "restrict": "0+",
  "kinopoisk_id": "732542",
  "kinopoisk_rating": "0",
  "imdb_rating": "5.6",
  "duration": "600",
  "category": "Мультфильмы",
  "genres": "Для взрослых,Русские",
  "vr_identifier": "Одноразовый рай",
  "iframe": "https://www.ivi.ru/embeds/video/?subsite=1&autostart=0&videoid=45176"
}