{
  "content_id": "223844",
  "title": "Женщины ждут",
  "orig_title": "Kvinnors väntan",
  "release_date": "1952",
  "orig_country": "Швеция",
  "lang": "Шведский",
  "restrict": "16+",
  "kinopoisk_id": "73868",
  "kinopoisk_rating": "7.11",
  "imdb_rating": "7.1",
  "duration": "6216",
  "category": "Фильмы",
  "genres": "Драмы,Зарубежные,Мировая классика",
  "vr_identifier": "Женщины ждут",
  "iframe": "https://www.ivi.ru/embeds/video/?subsite=1&autostart=0&videoid=223844"
}