{
  "content_id": "223834",
  "title": "Музыка во тьме",
  "orig_title": "Musik i mörker",
  "release_date": "1947",
  "orig_country": "Швеция",
  "lang": "Шведский",
  "restrict": "16+",
  "kinopoisk_id": "74158",
  "kinopoisk_rating": "7.06",
  "imdb_rating": "6.5",
  "duration": "4984",
  "category": "Фильмы",
  "genres": "Драмы,Зарубежные,Мировая классика",
  "vr_identifier": "Музыка во тьме",
  "iframe": "https://www.ivi.ru/embeds/video/?subsite=1&autostart=0&videoid=223834"
}