{
  "content_id": "144750",
  "title": "Монах и бес",
  "release_date": "2016",
  "orig_country": "Россия",
  "lang": "Русский",
  "restrict": "12+",
  "kinopoisk_id": "742184",
  "kinopoisk_rating": "6.93",
  "imdb_rating": "6.9",
  "duration": "6784",
  "category": "Фильмы",
  "genres": "Комедии,Русские,Фантастика",
  "vr_identifier": "Монах и Бес",
  "iframe": "https://www.ivi.ru/embeds/video/?subsite=1&autostart=0&videoid=144750"
}