{
  "content_id": "118338",
  "title": "Лесной патруль",
  "orig_title": "Pelle Politibil på sporet",
  "release_date": "2013",
  "orig_country": "Норвегия",
  "lang": "Английский",
  "restrict": "0+",
  "kinopoisk_id": "744074",
  "kinopoisk_rating": "5.62",
  "imdb_rating": "4.8",
  "duration": "4189",
  "category": "Мультфильмы",
  "genres": "Для детей,Зарубежные,Полнометражные",
  "vr_identifier": "Лесной патруль",
  "iframe": "https://www.ivi.ru/embeds/video/?subsite=1&autostart=0&videoid=118338"
}