{
  "content_id": "190649",
  "title": "Исключение из правил",
  "release_date": "2012",
  "orig_country": "Россия",
  "lang": "Русский",
  "restrict": "18+",
  "kinopoisk_id": "745390",
  "kinopoisk_rating": "5.84",
  "duration": "5451",
  "category": "Фильмы",
  "genres": "Мелодрамы,Русские",
  "vr_identifier": "Исключение из правил",
  "iframe": "https://www.ivi.ru/embeds/video/?subsite=1&autostart=0&videoid=190649"
}