{
  "content_id": "185420",
  "title": "Пишто уезжает",
  "release_date": "2011",
  "orig_country": "Россия",
  "lang": "Русский",
  "restrict": "6+",
  "kinopoisk_id": "748630",
  "kinopoisk_rating": "7.1",
  "duration": "512",
  "category": "Мультфильмы",
  "genres": "Для детей,Русские",
  "vr_identifier": "Пишто уезжает",
  "iframe": "https://www.ivi.ru/embeds/video/?subsite=1&autostart=0&videoid=185420"
}