{
  "content_id": "192121",
  "title": "Родной человек",
  "release_date": "2013",
  "orig_country": "Россия",
  "lang": "Русский",
  "restrict": "0+",
  "kinopoisk_id": "751631",
  "kinopoisk_rating": "5.64",
  "duration": "5431",
  "category": "Фильмы",
  "genres": "Мелодрамы,Русские",
  "vr_identifier": "Родной человек",
  "iframe": "https://www.ivi.ru/embeds/video/?subsite=1&autostart=0&videoid=192121"
}