{
  "content_id": "103344",
  "title": "Славные ублюдки",
  "orig_title": "Les salauds",
  "release_date": "2013",
  "orig_country": "Франция",
  "lang": "Французский",
  "restrict": "18+",
  "kinopoisk_id": "757978",
  "kinopoisk_rating": "5.39",
  "imdb_rating": "6.1",
  "duration": "5779",
  "category": "Фильмы",
  "genres": "Драмы,Зарубежные,Мелодрамы",
  "vr_identifier": "Славные ублюдки",
  "iframe": "https://www.ivi.ru/embeds/video/?subsite=1&autostart=0&videoid=103344"
}