{
  "content_id": "114380",
  "title": "Легок на помине",
  "release_date": "2014",
  "orig_country": "Россия",
  "lang": "Русский",
  "restrict": "12+",
  "kinopoisk_id": "761690",
  "kinopoisk_rating": "4.98",
  "imdb_rating": "4.8",
  "duration": "4938",
  "category": "Фильмы",
  "genres": "Комедии,Русские,Фантастика",
  "vr_identifier": "Легок на помине",
  "iframe": "https://www.ivi.ru/embeds/video/?subsite=1&autostart=0&videoid=114380"
}