{
  "content_id": "136641",
  "title": "Месть от кутюр",
  "orig_title": "The Dressmaker",
  "release_date": "2015",
  "orig_country": "Австралия",
  "restrict": "16+",
  "kinopoisk_id": "762750",
  "kinopoisk_rating": "7.24",
  "imdb_rating": "7.1",
  "duration": "7088",
  "category": "Фильмы",
  "genres": "Драмы,Зарубежные,Комедии",
  "vr_identifier": "Месть от кутюр",
  "iframe": "https://www.ivi.ru/embeds/video/?subsite=1&autostart=0&videoid=136641"
}