{
  "content_id": "155854",
  "title": "Нина навсегда",
  "orig_title": "Nina Forever",
  "release_date": "2015",
  "orig_country": "Великобритания",
  "lang": "Английский",
  "restrict": "18+",
  "kinopoisk_id": "762938",
  "kinopoisk_rating": "4.87",
  "imdb_rating": "5.6",
  "duration": "5688",
  "category": "Фильмы",
  "genres": "Зарубежные,Комедии,Мелодрамы,Ужасы",
  "vr_identifier": "Нина навсегда",
  "iframe": "https://www.ivi.ru/embeds/video/?subsite=1&autostart=0&videoid=155854"
}