{
  "content_id": "411881",
  "title": "Озеро страха",
  "orig_title": "The Hatching",
  "release_date": "2017",
  "orig_country": "Великобритания",
  "lang": "Английский",
  "restrict": "18+",
  "kinopoisk_id": "764544",
  "kinopoisk_rating": "3.74",
  "imdb_rating": "4",
  "duration": "5223",
  "category": "Фильмы",
  "genres": "Детективы,Зарубежные,Комедии,Ужасы",
  "vr_identifier": "Озеро страха",
  "iframe": "https://www.ivi.ru/embeds/video/?subsite=1&autostart=0&videoid=411881"
}