{
  "content_id": "62637",
  "title": "Дневник его жены",
  "release_date": "2000",
  "orig_country": "Россия",
  "lang": "Русский",
  "restrict": "16+",
  "kinopoisk_id": "7648",
  "kinopoisk_rating": "7.54",
  "imdb_rating": "7.1",
  "duration": "6184",
  "category": "Фильмы",
  "genres": "Артхаус,Биография,Драмы,Русские",
  "vr_identifier": "Дневник его жены",
  "iframe": "https://www.ivi.ru/embeds/video/?subsite=1&autostart=0&videoid=62637"
}