{
  "content_id": "46328",
  "title": "Макаров",
  "release_date": "1993",
  "orig_country": "Россия",
  "lang": "Русский",
  "restrict": "16+",
  "kinopoisk_id": "7655",
  "kinopoisk_rating": "6.91",
  "imdb_rating": "6.9",
  "duration": "5638",
  "category": "Фильмы",
  "genres": "Драмы,Русские,Триллеры",
  "vr_identifier": "Макаров",
  "iframe": "https://www.ivi.ru/embeds/video/?subsite=1&autostart=0&videoid=46328"
}