{
  "content_id": "53159",
  "title": "Летят журавли",
  "release_date": "1957",
  "orig_country": "СССР",
  "lang": "Русский",
  "restrict": "12+",
  "kinopoisk_id": "7724",
  "kinopoisk_rating": "8.29",
  "imdb_rating": "8.3",
  "duration": "5536",
  "category": "Фильмы",
  "genres": "Военные,Драмы,Советское кино",
  "vr_identifier": "Летят журавли*",
  "iframe": "https://www.ivi.ru/embeds/video/?subsite=1&autostart=0&videoid=53159"
}