{
  "content_id": "121546",
  "title": "Медведи-соседи: Зимние каникулы",
  "orig_title": "Boonie Bears: Homeward Journey",
  "release_date": "2013",
  "orig_country": "Китай",
  "restrict": "6+",
  "kinopoisk_id": "773193",
  "kinopoisk_rating": "4.41",
  "imdb_rating": "5.4",
  "duration": "3916",
  "category": "Мультфильмы",
  "genres": "Для детей,Зарубежные,Полнометражные",
  "vr_identifier": "Медведи-соседи: Зимние каникулы",
  "iframe": "https://www.ivi.ru/embeds/video/?subsite=1&autostart=0&videoid=121546"
}