{
  "content_id": "217240",
  "title": "Подари мне немного тепла",
  "release_date": "2013",
  "orig_country": "Россия",
  "lang": "Русский",
  "restrict": "16+",
  "kinopoisk_id": "777805",
  "kinopoisk_rating": "6.09",
  "duration": "5303",
  "category": "Фильмы",
  "genres": "Драмы,Мелодрамы,Русские",
  "vr_identifier": "Подари мне немного тепла",
  "iframe": "https://www.ivi.ru/embeds/video/?subsite=1&autostart=0&videoid=217240"
}