{
  "content_id": "151591",
  "title": "Чудеса",
  "orig_title": "Le meraviglie",
  "release_date": "2014",
  "orig_country": "Италия",
  "lang": "Итальянский",
  "restrict": "16+",
  "kinopoisk_id": "780468",
  "kinopoisk_rating": "6.57",
  "imdb_rating": "6.6",
  "duration": "6668",
  "category": "Фильмы",
  "genres": "Драмы,Зарубежные,Мелодрамы",
  "vr_identifier": "Чудеса",
  "iframe": "https://www.ivi.ru/embeds/video/?subsite=1&autostart=0&videoid=151591"
}