{
  "content_id": "122614",
  "title": "Не видать нам Париж, как своих ушей",
  "orig_title": "We'll Never Have Paris",
  "release_date": "2014",
  "orig_country": "США",
  "lang": "Английский",
  "restrict": "16+",
  "kinopoisk_id": "782977",
  "kinopoisk_rating": "4.83",
  "imdb_rating": "4.6",
  "duration": "5283",
  "category": "Фильмы",
  "genres": "Зарубежные,Комедии,Мелодрамы",
  "vr_identifier": "Не видать нам Париж, как своих ушей",
  "iframe": "https://www.ivi.ru/embeds/video/?subsite=1&autostart=0&videoid=122614"
}