{
  "content_id": "155913",
  "title": "Любовь и дружба",
  "orig_title": "Love & Friendship",
  "release_date": "2016",
  "orig_country": "Ирландия",
  "lang": "Английский",
  "restrict": "12+",
  "kinopoisk_id": "784288",
  "kinopoisk_rating": "5.9",
  "imdb_rating": "6.4",
  "duration": "5389",
  "category": "Фильмы",
  "genres": "Драмы,Зарубежные,Комедии,Мелодрамы",
  "vr_identifier": "Любовь и дружба",
  "iframe": "https://www.ivi.ru/embeds/video/?subsite=1&autostart=0&videoid=155913"
}