{
  "content_id": "226637",
  "title": "Личность #74",
  "release_date": "2013",
  "orig_country": "Россия",
  "lang": "Русский",
  "restrict": "12+",
  "kinopoisk_id": "789471",
  "kinopoisk_rating": "0",
  "duration": "1427",
  "category": "Фильмы",
  "genres": "Короткометражки,Русские,Триллеры,Фантастика",
  "vr_identifier": "Личность № 74",
  "iframe": "https://www.ivi.ru/embeds/video/?subsite=1&autostart=0&videoid=226637"
}