{
  "content_id": "138175",
  "title": "Повесть о любви и тьме",
  "orig_title": "A Tale of Love and Darkness",
  "release_date": "2015",
  "orig_country": "Израиль",
  "lang": "Английский",
  "restrict": "16+",
  "kinopoisk_id": "790284",
  "kinopoisk_rating": "6.68",
  "imdb_rating": "6",
  "duration": "5897",
  "category": "Фильмы",
  "genres": "Биография,Драмы,Зарубежные",
  "vr_identifier": "Повесть о любви и тьме",
  "iframe": "https://www.ivi.ru/embeds/video/?subsite=1&autostart=0&videoid=138175"
}