{
  "content_id": "222476",
  "title": "Сердце мое",
  "orig_title": "The Heart of Me",
  "release_date": "2002",
  "orig_country": "Великобритания",
  "lang": "Английский",
  "restrict": "18+",
  "kinopoisk_id": "7950",
  "kinopoisk_rating": "7.4",
  "imdb_rating": "6.6",
  "duration": "5501",
  "category": "Фильмы",
  "genres": "Драмы,Зарубежные,Мелодрамы,Экранизации",
  "vr_identifier": "The Heart of Me",
  "iframe": "https://www.ivi.ru/embeds/video/?subsite=1&autostart=0&videoid=222476"
}