{
  "content_id": "414535",
  "title": "Вальс-бостон",
  "release_date": "2013",
  "orig_country": "Россия",
  "lang": "Русский",
  "restrict": "12+",
  "kinopoisk_id": "799215",
  "duration": "5519",
  "category": "Фильмы",
  "genres": "Мелодрамы,Музыкальные,Русские",
  "vr_identifier": "Вальс-бостон",
  "iframe": "https://www.ivi.ru/embeds/video/?subsite=1&autostart=0&videoid=414535"
}