{
  "content_id": "313962",
  "title": "Про Петра и Павла",
  "release_date": "2015",
  "orig_country": "Россия",
  "lang": "Русский",
  "restrict": "6+",
  "kinopoisk_id": "803407",
  "kinopoisk_rating": "6.11",
  "duration": "5392",
  "category": "Фильмы",
  "genres": "Драмы,Русские",
  "vr_identifier": "Про Петра и Павла",
  "iframe": "https://www.ivi.ru/embeds/video/?subsite=1&autostart=0&videoid=313962"
}