{
  "content_id": "157310",
  "title": "Адский смерч",
  "orig_title": "Fire Twister",
  "release_date": "2015",
  "orig_country": "США",
  "lang": "Английский",
  "restrict": "16+",
  "kinopoisk_id": "809524",
  "kinopoisk_rating": "2.65",
  "imdb_rating": "2.5",
  "duration": "4935",
  "category": "Фильмы",
  "genres": "Боевики,Приключения,Триллеры,Фантастика,Фильмы-катастрофы",
  "vr_identifier": "FIRE TWISTER",
  "iframe": "https://www.ivi.ru/embeds/video/?subsite=1&autostart=0&videoid=157310"
}