{
  "content_id": "121516",
  "title": "День дурака",
  "release_date": "2014",
  "orig_country": "Россия",
  "lang": "Русский",
  "restrict": "16+",
  "kinopoisk_id": "810248",
  "kinopoisk_rating": "4.32",
  "imdb_rating": "4.7",
  "duration": "5410",
  "category": "Фильмы",
  "genres": "Комедии,Приключения,Русские",
  "vr_identifier": "День Дурака",
  "iframe": "https://www.ivi.ru/embeds/video/?subsite=1&autostart=0&videoid=121516"
}