{
  "content_id": "65982",
  "title": "88 минут",
  "orig_title": "88 Minutes",
  "release_date": "2007",
  "orig_country": "США",
  "lang": "Английский",
  "restrict": "18+",
  "kinopoisk_id": "81490",
  "kinopoisk_rating": "6.44",
  "imdb_rating": "5.9",
  "duration": "6390",
  "category": "Фильмы",
  "genres": "Детективы,Драмы,Криминал,Триллеры",
  "vr_identifier": "88 минут",
  "iframe": "https://www.ivi.ru/embeds/video/?subsite=1&autostart=0&videoid=65982"
}