{
  "content_id": "108918",
  "title": "Любовь на острове",
  "orig_title": "Love Wrecked",
  "release_date": "2005",
  "orig_country": "США",
  "lang": "Английский",
  "restrict": "16+",
  "kinopoisk_id": "81826",
  "kinopoisk_rating": "6.09",
  "imdb_rating": "4.9",
  "duration": "4982",
  "category": "Фильмы",
  "genres": "Зарубежные,Комедии,Мелодрамы,Приключения",
  "vr_identifier": "Любовь на острове",
  "iframe": "https://www.ivi.ru/embeds/video/?subsite=1&autostart=0&videoid=108918"
}