{
  "content_id": "127004",
  "title": "Зажигая звезды",
  "orig_title": "Set Fire to the Stars",
  "release_date": "2014",
  "orig_country": "Великобритания",
  "lang": "Английский",
  "restrict": "16+",
  "kinopoisk_id": "819283",
  "kinopoisk_rating": "5.82",
  "imdb_rating": "5.7",
  "duration": "5820",
  "category": "Фильмы",
  "genres": "Биография,Драмы,Зарубежные",
  "vr_identifier": "Зажигая звезды",
  "iframe": "https://www.ivi.ru/embeds/video/?subsite=1&autostart=0&videoid=127004"
}