{
  "content_id": "181126",
  "title": "Орбита 9",
  "orig_title": "Órbita 9",
  "release_date": "2017",
  "orig_country": "Испания",
  "lang": "Испанский",
  "restrict": "16+",
  "kinopoisk_id": "822446",
  "kinopoisk_rating": "5.56",
  "imdb_rating": "5.9",
  "duration": "5460",
  "category": "Фильмы",
  "genres": "Драмы,Зарубежные,Мелодрамы,Фантастика",
  "vr_identifier": "Орбита 9",
  "iframe": "https://www.ivi.ru/embeds/video/?subsite=1&autostart=0&videoid=181126"
}