{
  "content_id": "138017",
  "title": "Куда уходит любовь",
  "release_date": "2014",
  "orig_country": "Россия",
  "lang": "Русский",
  "restrict": "12+",
  "kinopoisk_id": "837658",
  "duration": "5538",
  "category": "Фильмы",
  "genres": "Мелодрамы,Русские",
  "vr_identifier": "Куда уходит любовь",
  "iframe": "https://www.ivi.ru/embeds/video/?subsite=1&autostart=0&videoid=138017"
}