{
  "content_id": "52909",
  "title": "Александр Невский",
  "release_date": "1938",
  "orig_country": "СССР",
  "lang": "Русский",
  "restrict": "6+",
  "kinopoisk_id": "8387",
  "kinopoisk_rating": "8.03",
  "imdb_rating": "7.7",
  "duration": "6209",
  "category": "Фильмы",
  "genres": "Биография,Боевики,Военные,Для всей семьи,Драмы,Исторические,Советское кино",
  "vr_identifier": "Александр Невский*",
  "iframe": "https://www.ivi.ru/embeds/video/?subsite=1&autostart=0&videoid=52909"
}