{
  "content_id": "121614",
  "title": "Чебурашка",
  "orig_title": "Cheburashka",
  "release_date": "2013",
  "orig_country": "Япония",
  "lang": "Русский",
  "restrict": "0+",
  "kinopoisk_id": "839110",
  "kinopoisk_rating": "7.71",
  "imdb_rating": "7",
  "duration": "4745",
  "category": "Мультфильмы",
  "genres": "Для детей,Зарубежные,Полнометражные",
  "vr_identifier": "Чебурашка",
  "iframe": "https://www.ivi.ru/embeds/video/?subsite=1&autostart=0&videoid=121614"
}