{
  "content_id": "127020",
  "title": "А зори здесь тихие...",
  "release_date": "2015",
  "orig_country": "Россия",
  "lang": "Русский",
  "restrict": "12+",
  "kinopoisk_id": "840754",
  "kinopoisk_rating": "6.98",
  "imdb_rating": "6.7",
  "duration": "6667",
  "category": "Фильмы",
  "genres": "Военные,Драмы,Исторические,Русские",
  "vr_identifier": "А зори здесь тихие",
  "iframe": "https://www.ivi.ru/embeds/video/?subsite=1&autostart=0&videoid=127020"
}