{
  "content_id": "126985",
  "title": "Женщины против мужчин",
  "release_date": "2015",
  "orig_country": "Россия",
  "lang": "Русский",
  "restrict": "18+",
  "kinopoisk_id": "841956",
  "kinopoisk_rating": "3.74",
  "imdb_rating": "2.6",
  "duration": "5047",
  "category": "Фильмы",
  "genres": "Комедии,Русские",
  "vr_identifier": "Женщины против мужчин",
  "iframe": "https://www.ivi.ru/embeds/video/?subsite=1&autostart=0&videoid=126985"
}