{
  "content_id": "31870",
  "title": "Пиковая дама",
  "release_date": "1982",
  "orig_country": "СССР",
  "lang": "Русский",
  "restrict": "12+",
  "kinopoisk_id": "84222",
  "kinopoisk_rating": "7.56",
  "imdb_rating": "7.4",
  "duration": "5197",
  "category": "Фильмы",
  "genres": "Драмы,Советское кино",
  "vr_identifier": "Пиковая дама",
  "iframe": "https://www.ivi.ru/embeds/video/?subsite=1&autostart=0&videoid=31870"
}