{
  "content_id": "146596",
  "title": "Девятая жизнь Луи Дракса",
  "orig_title": "The 9th Life of Louis Drax",
  "release_date": "2016",
  "orig_country": "Великобритания",
  "lang": "Английский",
  "restrict": "16+",
  "kinopoisk_id": "842442",
  "kinopoisk_rating": "6.64",
  "imdb_rating": "6.3",
  "duration": "6210",
  "category": "Фильмы",
  "genres": "Детективы,Зарубежные,Триллеры",
  "vr_identifier": "Девятая жизнь Луи Дракса*",
  "iframe": "https://www.ivi.ru/embeds/video/?subsite=1&autostart=0&videoid=146596"
}