{
  "content_id": "138454",
  "title": "Колония Дигнидад",
  "orig_title": "Colonia",
  "release_date": "2015",
  "orig_country": "Германия",
  "restrict": "18+",
  "kinopoisk_id": "842913",
  "kinopoisk_rating": "7.29",
  "imdb_rating": "7.1",
  "duration": "6330",
  "category": "Фильмы",
  "genres": "Драмы,Зарубежные,Мелодрамы,Триллеры",
  "vr_identifier": "Колония Дигнидад",
  "iframe": "https://www.ivi.ru/embeds/video/?subsite=1&autostart=0&videoid=138454"
}