{
  "content_id": "180556",
  "title": "Уедем к чертовой бабушке!",
  "orig_title": "Andiamo a quel paese",
  "release_date": "2014",
  "orig_country": "Италия",
  "lang": "Итальянский",
  "restrict": "12+",
  "kinopoisk_id": "844159",
  "kinopoisk_rating": "6.52",
  "imdb_rating": "6.1",
  "duration": "5726",
  "category": "Фильмы",
  "genres": "Зарубежные,Комедии",
  "vr_identifier": "Уедем к чертовой бабушке",
  "iframe": "https://www.ivi.ru/embeds/video/?subsite=1&autostart=0&videoid=180556"
}