{
  "content_id": "92975",
  "title": "От праздника к празднику",
  "release_date": "2014",
  "orig_country": "Россия",
  "lang": "Русский",
  "restrict": "12+",
  "kinopoisk_id": "855909",
  "duration": "5448",
  "category": "Фильмы",
  "genres": "Мелодрамы,Русские",
  "vr_identifier": "От праздника к празднику",
  "iframe": "https://www.ivi.ru/embeds/video/?subsite=1&autostart=0&videoid=92975"
}