{
  "content_id": "412922",
  "title": "Гости",
  "orig_title": "The Guests",
  "release_date": "2015",
  "orig_country": "Австралия",
  "lang": "Английский",
  "restrict": "12+",
  "kinopoisk_id": "863331",
  "duration": "605",
  "category": "Фильмы",
  "genres": "Короткометражки",
  "vr_identifier": "Гости",
  "iframe": "https://www.ivi.ru/embeds/video/?subsite=1&autostart=0&videoid=412922"
}