{
  "content_id": "106314",
  "title": "Доброй ночи и удачи",
  "orig_title": "Good Night, and Good Luck.",
  "release_date": "2005",
  "orig_country": "США",
  "lang": "Английский",
  "restrict": "16+",
  "kinopoisk_id": "86991",
  "kinopoisk_rating": "7.03",
  "imdb_rating": "7.5",
  "duration": "5562",
  "category": "Фильмы",
  "genres": "Биография,Драмы,Зарубежные,Исторические",
  "vr_identifier": "GOOD NIGHT, AND GOOD LUCK",
  "iframe": "https://www.ivi.ru/embeds/video/?subsite=1&autostart=0&videoid=106314"
}