{
  "content_id": "171563",
  "title": "Хроники мстителя",
  "orig_title": "Vigilante Diaries",
  "release_date": "2016",
  "orig_country": "США",
  "lang": "Английский",
  "restrict": "16+",
  "kinopoisk_id": "874438",
  "kinopoisk_rating": "3.69",
  "imdb_rating": "6",
  "duration": "6457",
  "category": "Фильмы",
  "genres": "Боевики,Зарубежные,Криминал,Триллеры",
  "vr_identifier": "Хроники мстителя",
  "iframe": "https://www.ivi.ru/embeds/video/?subsite=1&autostart=0&videoid=171563"
}