{
  "content_id": "115361",
  "title": "Спеши любить",
  "orig_title": "A Walk to Remember",
  "release_date": "2002",
  "orig_country": "США",
  "lang": "Английский",
  "restrict": "12+",
  "kinopoisk_id": "875",
  "kinopoisk_rating": "7.88",
  "imdb_rating": "7.4",
  "duration": "6134",
  "category": "Фильмы",
  "genres": "Драмы,Зарубежные,Мелодрамы",
  "vr_identifier": "WALK TO REMEMBER",
  "iframe": "https://www.ivi.ru/embeds/video/?subsite=1&autostart=0&videoid=115361"
}