{
  "content_id": "173047",
  "title": "Неизлечимо счастливы",
  "orig_title": "Terminally Happy",
  "release_date": "2015",
  "orig_country": "Норвегия",
  "lang": "Английский",
  "restrict": "16+",
  "kinopoisk_id": "882734",
  "duration": "796",
  "category": "Фильмы",
  "genres": "Короткометражки",
  "vr_identifier": "Terminally Happy/ Неизличимо счастливы",
  "iframe": "https://www.ivi.ru/embeds/video/?subsite=1&autostart=0&videoid=173047"
}