{
  "content_id": "65031",
  "title": "Вундеркинды",
  "orig_title": "Wonder Boys",
  "release_date": "2000",
  "orig_country": "США",
  "lang": "Английский",
  "restrict": "12+",
  "kinopoisk_id": "885",
  "kinopoisk_rating": "7.07",
  "imdb_rating": "7.3",
  "duration": "6177",
  "category": "Фильмы",
  "genres": "Драмы,Зарубежные,Комедии",
  "vr_identifier": "Вундеркинды",
  "iframe": "https://www.ivi.ru/embeds/video/?subsite=1&autostart=0&videoid=65031"
}