{
  "content_id": "136127",
  "title": "Такси",
  "orig_title": "Taxi",
  "release_date": "2015",
  "orig_country": "Иран",
  "restrict": "12+",
  "kinopoisk_id": "885646",
  "kinopoisk_rating": "6.82",
  "imdb_rating": "7.3",
  "duration": "4868",
  "category": "Фильмы",
  "genres": "Драмы,Зарубежные,Комедии",
  "vr_identifier": "Такси",
  "iframe": "https://www.ivi.ru/embeds/video/?subsite=1&autostart=0&videoid=136127"
}