{
  "content_id": "173044",
  "title": "Нэлли",
  "orig_title": "Nelly",
  "release_date": "2014",
  "orig_country": "Австрия",
  "lang": "Немецкий",
  "restrict": "12+",
  "kinopoisk_id": "892389",
  "duration": "989",
  "category": "Фильмы",
  "genres": "Короткометражки",
  "vr_identifier": "Nelly/ Нэли",
  "iframe": "https://www.ivi.ru/embeds/video/?subsite=1&autostart=0&videoid=173044"
}