{
  "content_id": "137162",
  "title": "Голоса большой страны",
  "release_date": "2016",
  "orig_country": "Россия",
  "lang": "Русский",
  "restrict": "6+",
  "kinopoisk_id": "893520",
  "kinopoisk_rating": "5.82",
  "imdb_rating": "4.4",
  "duration": "6072",
  "category": "Фильмы",
  "genres": "Комедии,Мелодрамы,Мюзикл,Русские",
  "vr_identifier": "Голоса большой страны",
  "iframe": "https://www.ivi.ru/embeds/video/?subsite=1&autostart=0&videoid=137162"
}