{
  "content_id": "413005",
  "title": "Не бесплатный обед",
  "orig_title": "No Free Lunch",
  "release_date": "2014",
  "orig_country": "Израиль",
  "lang": "Иврит",
  "restrict": "12+",
  "kinopoisk_id": "894483",
  "duration": "1200",
  "category": "Фильмы",
  "genres": "Короткометражки",
  "vr_identifier": "Не бесплатный обед",
  "iframe": "https://www.ivi.ru/embeds/video/?subsite=1&autostart=0&videoid=413005"
}