{
  "content_id": "173026",
  "title": "Выход справа",
  "orig_title": "Ausstieg rechts",
  "release_date": "2015",
  "orig_country": "Австрия",
  "lang": "Немецкий",
  "restrict": "16+",
  "kinopoisk_id": "896857",
  "duration": "199",
  "category": "Фильмы",
  "genres": "Короткометражки",
  "vr_identifier": "Ausstieg rechts/ Выход справа",
  "iframe": "https://www.ivi.ru/embeds/video/?subsite=1&autostart=0&videoid=173026"
}