{
  "content_id": "314744",
  "title": "Любовь в Вечном городе",
  "orig_title": "Finché c'è vita c'è speranza",
  "release_date": "2018",
  "orig_country": "Италия",
  "restrict": "16+",
  "kinopoisk_id": "904047",
  "kinopoisk_rating": "0",
  "imdb_rating": "8",
  "duration": "6023",
  "category": "Фильмы",
  "genres": "Зарубежные,Комедии,Мелодрамы",
  "vr_identifier": "Любовь в вечном городе",
  "iframe": "https://www.ivi.ru/embeds/video/?subsite=1&autostart=0&videoid=314744"
}