{
  "content_id": "157373",
  "title": "Сдается дом со всеми неудобствами",
  "release_date": "2016",
  "orig_country": "Россия",
  "lang": "Русский",
  "restrict": "12+",
  "kinopoisk_id": "904657",
  "kinopoisk_rating": "5.73",
  "duration": "5170",
  "category": "Фильмы",
  "genres": "Комедии,Русские",
  "vr_identifier": "Сдается дом со всеми неудобствами",
  "iframe": "https://www.ivi.ru/embeds/video/?subsite=1&autostart=0&videoid=157373"
}