{
  "content_id": "159087",
  "title": "Джек Стоун",
  "orig_title": "Riot",
  "release_date": "2015",
  "orig_country": "США",
  "lang": "Английский",
  "restrict": "16+",
  "kinopoisk_id": "906453",
  "kinopoisk_rating": "5.14",
  "imdb_rating": "5.2",
  "duration": "5014",
  "category": "Фильмы",
  "genres": "Боевики,Зарубежные",
  "vr_identifier": "Джек Стоун",
  "iframe": "https://www.ivi.ru/embeds/video/?subsite=1&autostart=0&videoid=159087"
}