{
  "content_id": "191425",
  "title": "Во имя любви",
  "release_date": "2015",
  "orig_country": "Россия",
  "lang": "Русский",
  "restrict": "12+",
  "kinopoisk_id": "908392",
  "kinopoisk_rating": "6.85",
  "duration": "5417",
  "category": "Фильмы",
  "genres": "Мелодрамы,Русские",
  "vr_identifier": "Во имя любви",
  "iframe": "https://www.ivi.ru/embeds/video/?subsite=1&autostart=0&videoid=191425"
}