{
  "content_id": "171202",
  "title": "Как Витька Чеснок вез Леху Штыря в дом инвалидов",
  "release_date": "2017",
  "orig_country": "Россия",
  "lang": "Русский",
  "restrict": "16+",
  "kinopoisk_id": "909700",
  "kinopoisk_rating": "7.2",
  "imdb_rating": "7.2",
  "duration": "5380",
  "category": "Фильмы",
  "genres": "Драмы,Комедии,Криминал,Русские",
  "vr_identifier": "Как Витька Чеснок вез Леху Штыря в дом инвалидов",
  "iframe": "https://www.ivi.ru/embeds/video/?subsite=1&autostart=0&videoid=171202"
}