{
  "content_id": "151616",
  "title": "Хармс",
  "release_date": "2016",
  "orig_country": "Россия",
  "lang": "Русский",
  "restrict": "16+",
  "kinopoisk_id": "911235",
  "kinopoisk_rating": "6.16",
  "imdb_rating": "6.6",
  "duration": "5740",
  "category": "Фильмы",
  "genres": "Биография,Драмы,Русские",
  "vr_identifier": "Хармс",
  "iframe": "https://www.ivi.ru/embeds/video/?subsite=1&autostart=0&videoid=151616"
}