{
  "content_id": "160354",
  "title": "Море в огне",
  "orig_title": "Fuocoammare",
  "release_date": "2016",
  "orig_country": "Италия",
  "lang": "Итальянский",
  "restrict": "16+",
  "kinopoisk_id": "924837",
  "kinopoisk_rating": "6.08",
  "imdb_rating": "6.8",
  "duration": "6539",
  "category": "Фильмы",
  "genres": "Документальные,Зарубежные",
  "vr_identifier": "Море в огне",
  "iframe": "https://www.ivi.ru/embeds/video/?subsite=1&autostart=0&videoid=160354"
}