{
  "content_id": "185728",
  "title": "Неаполитанские истории",
  "orig_title": "Bagnoli Jungle",
  "release_date": "2015",
  "orig_country": "Италия",
  "lang": "Итальянский",
  "restrict": "16+",
  "kinopoisk_id": "930419",
  "kinopoisk_rating": "5.98",
  "imdb_rating": "6.5",
  "duration": "6219",
  "category": "Фильмы",
  "genres": "Драмы,Зарубежные",
  "vr_identifier": "Неаполитанские истории",
  "iframe": "https://www.ivi.ru/embeds/video/?subsite=1&autostart=0&videoid=185728"
}