{
  "content_id": "145189",
  "title": "Танцы насмерть",
  "release_date": "2017",
  "orig_country": "Россия",
  "lang": "Русский",
  "restrict": "12+",
  "kinopoisk_id": "930535",
  "kinopoisk_rating": "3.97",
  "imdb_rating": "3.3",
  "duration": "5914",
  "category": "Фильмы",
  "genres": "Русские,Фантастика",
  "vr_identifier": "Танцы насмерть",
  "iframe": "https://www.ivi.ru/embeds/video/?subsite=1&autostart=0&videoid=145189"
}