{
  "content_id": "164487",
  "title": "Титан",
  "orig_title": "The Titan",
  "release_date": "2018",
  "orig_country": "США",
  "lang": "Английский",
  "restrict": "16+",
  "kinopoisk_id": "930555",
  "kinopoisk_rating": "4.81",
  "imdb_rating": "4.8",
  "duration": "5600",
  "category": "Фильмы",
  "genres": "Зарубежные,Триллеры,Фантастика",
  "vr_identifier": "Титан",
  "iframe": "https://www.ivi.ru/embeds/video/?subsite=1&autostart=0&videoid=164487"
}