{
  "content_id": "154332",
  "title": "Коллайдер",
  "orig_title": "Collider",
  "release_date": "2018",
  "orig_country": "США",
  "lang": "Английский",
  "restrict": "18+",
  "kinopoisk_id": "930709",
  "duration": "5052",
  "category": "Фильмы",
  "genres": "Боевики,Зарубежные,Фантастика",
  "vr_identifier": "Коллайдер",
  "iframe": "https://www.ivi.ru/embeds/video/?subsite=1&autostart=0&videoid=154332"
}