{
  "content_id": "165167",
  "title": "За пропастью во ржи",
  "orig_title": "Rebel in the Rye",
  "release_date": "2017",
  "orig_country": "США",
  "lang": "Английский",
  "restrict": "16+",
  "kinopoisk_id": "930962",
  "kinopoisk_rating": "7.05",
  "imdb_rating": "6.7",
  "duration": "6296",
  "category": "Фильмы",
  "genres": "Биография,Драмы,Зарубежные",
  "vr_identifier": "За пропастью во ржи",
  "iframe": "https://www.ivi.ru/embeds/video/?subsite=1&autostart=0&videoid=165167"
}