{
  "content_id": "226633",
  "title": "Вера и сомнение",
  "release_date": "2015",
  "orig_country": "Россия",
  "lang": "Русский",
  "restrict": "16+",
  "kinopoisk_id": "931689",
  "duration": "799",
  "category": "Фильмы",
  "genres": "Комедии,Короткометражки,Русские",
  "vr_identifier": "Вера и сомнение",
  "iframe": "https://www.ivi.ru/embeds/video/?subsite=1&autostart=0&videoid=226633"
}