{
  "content_id": "191499",
  "title": "Некрасивая Любовь",
  "release_date": "2013",
  "orig_country": "Россия",
  "lang": "Русский",
  "restrict": "12+",
  "kinopoisk_id": "932492",
  "kinopoisk_rating": "6.07",
  "duration": "5423",
  "category": "Фильмы",
  "genres": "Мелодрамы,Русские",
  "vr_identifier": "Некрасивая любовь",
  "iframe": "https://www.ivi.ru/embeds/video/?subsite=1&autostart=0&videoid=191499"
}