{
  "content_id": "191505",
  "title": "Любовь на четырех колесах",
  "release_date": "2015",
  "orig_country": "Россия",
  "lang": "Русский",
  "restrict": "12+",
  "kinopoisk_id": "933353",
  "kinopoisk_rating": "6.07",
  "duration": "5690",
  "category": "Фильмы",
  "genres": "Мелодрамы,Русские",
  "vr_identifier": "Любовь на четырех колесах",
  "iframe": "https://www.ivi.ru/embeds/video/?subsite=1&autostart=0&videoid=191505"
}