{
  "content_id": "171731",
  "title": "Полярные приключения",
  "orig_title": "Polar Adventure",
  "release_date": "2016",
  "orig_country": "Китай",
  "lang": "Китайский",
  "restrict": "6+",
  "kinopoisk_id": "935874",
  "imdb_rating": "4.2",
  "duration": "5444",
  "category": "Мультфильмы",
  "genres": "Для всей семьи,Для детей,Зарубежные,Комедия,Приключения",
  "vr_identifier": "Полярные приключения",
  "iframe": "https://www.ivi.ru/embeds/video/?subsite=1&autostart=0&videoid=171731"
}