{
  "content_id": "411333",
  "title": "Побег из аула: Операция «Махаббат‎»",
  "release_date": "2015",
  "orig_country": "Казахстан",
  "lang": "Русский",
  "restrict": "12+",
  "kinopoisk_id": "938850",
  "duration": "5764",
  "category": "Фильмы",
  "genres": "Зарубежные,Комедии,Мелодрамы",
  "vr_identifier": "Побег из Аула",
  "iframe": "https://www.ivi.ru/embeds/video/?subsite=1&autostart=0&videoid=411333"
}