{
  "content_id": "155010",
  "title": "Ивановы",
  "release_date": "2016",
  "orig_country": "Россия",
  "lang": "Русский",
  "restrict": "12+",
  "kinopoisk_id": "940716",
  "kinopoisk_rating": "6.27",
  "duration": "5535",
  "category": "Фильмы",
  "genres": "Драмы,Русские",
  "vr_identifier": "Ивановы",
  "iframe": "https://www.ivi.ru/embeds/video/?subsite=1&autostart=0&videoid=155010"
}