{
  "content_id": "26600",
  "title": "Марица",
  "release_date": "1985",
  "orig_country": "СССР",
  "lang": "Русский",
  "restrict": "0+",
  "kinopoisk_id": "94315",
  "kinopoisk_rating": "6.27",
  "imdb_rating": "5.6",
  "duration": "3849",
  "category": "Фильмы",
  "genres": "Комедии,Музыкальные,Советское кино",
  "vr_identifier": "Марица",
  "iframe": "https://www.ivi.ru/embeds/video/?subsite=1&autostart=0&videoid=26600"
}