{
  "content_id": "192816",
  "title": "Лавалантула 2",
  "orig_title": "2 Lava 2 Lantula!",
  "release_date": "2016",
  "orig_country": "США",
  "lang": "Английский",
  "restrict": "16+",
  "kinopoisk_id": "944083",
  "kinopoisk_rating": "4.22",
  "imdb_rating": "4.4",
  "duration": "4874",
  "category": "Фильмы",
  "genres": "Зарубежные,Триллеры,Ужасы,Фантастика",
  "vr_identifier": "2 LAVA 2 LANTULA",
  "iframe": "https://www.ivi.ru/embeds/video/?subsite=1&autostart=0&videoid=192816"
}