{
  "content_id": "193667",
  "title": "Клаустрофобия",
  "orig_title": "Escape Room",
  "release_date": "2017",
  "orig_country": "США",
  "lang": "Английский",
  "restrict": "18+",
  "kinopoisk_id": "946735",
  "kinopoisk_rating": "4.68",
  "imdb_rating": "4.2",
  "duration": "5175",
  "category": "Фильмы",
  "genres": "Зарубежные,Триллеры,Ужасы",
  "vr_identifier": "Клаустрофобия",
  "iframe": "https://www.ivi.ru/embeds/video/?subsite=1&autostart=0&videoid=193667"
}