{
  "content_id": "34379",
  "title": "Табачный капитан",
  "release_date": "1972",
  "orig_country": "СССР",
  "lang": "Русский",
  "restrict": "6+",
  "kinopoisk_id": "94754",
  "kinopoisk_rating": "7.3",
  "imdb_rating": "7",
  "duration": "4874",
  "category": "Фильмы",
  "genres": "Для всей семьи,Комедии,Советское кино",
  "vr_identifier": "Табачный капитан",
  "iframe": "https://www.ivi.ru/embeds/video/?subsite=1&autostart=0&videoid=34379"
}