{
  "content_id": "223845",
  "title": "Улыбки летней ночи",
  "orig_title": "Sommarnattens leende",
  "release_date": "1955",
  "orig_country": "Швеция",
  "lang": "Шведский",
  "restrict": "16+",
  "kinopoisk_id": "94793",
  "kinopoisk_rating": "7.62",
  "imdb_rating": "7.9",
  "duration": "6332",
  "category": "Фильмы",
  "genres": "Драмы,Зарубежные,Комедии,Мировая классика",
  "vr_identifier": "Улыбки летней ночи",
  "iframe": "https://www.ivi.ru/embeds/video/?subsite=1&autostart=0&videoid=223845"
}