{
  "content_id": "70341",
  "title": "Жестокие челюсти",
  "orig_title": "Cruel Jaws",
  "release_date": "1995",
  "orig_country": "США",
  "lang": "Английский",
  "restrict": "16+",
  "kinopoisk_id": "94884",
  "kinopoisk_rating": "2.41",
  "imdb_rating": "3",
  "duration": "5535",
  "category": "Фильмы",
  "genres": "Боевики,Зарубежные,Приключения,Триллеры,Ужасы",
  "vr_identifier": "CRUEL JAWS",
  "iframe": "https://www.ivi.ru/embeds/video/?subsite=1&autostart=0&videoid=70341"
}