{
  "content_id": "53369",
  "title": "Страховой агент",
  "release_date": "1986",
  "orig_country": "СССР",
  "lang": "Русский",
  "restrict": "0+",
  "kinopoisk_id": "94977",
  "kinopoisk_rating": "5.75",
  "imdb_rating": "5.3",
  "duration": "3868",
  "category": "Фильмы",
  "genres": "Комедии,Приключения,Советское кино",
  "vr_identifier": "Страховой агент",
  "iframe": "https://www.ivi.ru/embeds/video/?subsite=1&autostart=0&videoid=53369"
}