{
  "content_id": "130823",
  "title": "Жил-был настройщик",
  "release_date": "1979",
  "orig_country": "СССР",
  "lang": "Русский",
  "restrict": "0+",
  "kinopoisk_id": "95345",
  "kinopoisk_rating": "6.43",
  "imdb_rating": "6.1",
  "duration": "4080",
  "category": "Фильмы",
  "genres": "Комедии",
  "vr_identifier": "Жил-был настройщик",
  "iframe": "https://www.ivi.ru/embeds/video/?subsite=1&autostart=0&videoid=130823"
}