{
  "content_id": "158893",
  "title": "Дизлайк",
  "release_date": "2016",
  "orig_country": "Россия",
  "lang": "Русский",
  "restrict": "18+",
  "kinopoisk_id": "957762",
  "kinopoisk_rating": "1.5",
  "imdb_rating": "2.1",
  "duration": "5025",
  "category": "Фильмы",
  "genres": "Русские,Ужасы",
  "vr_identifier": "Дизлайк",
  "iframe": "https://www.ivi.ru/embeds/video/?subsite=1&autostart=0&videoid=158893"
}