{
  "content_id": "189102",
  "title": "Прорубь",
  "release_date": "2017",
  "orig_country": "Россия",
  "lang": "Русский",
  "restrict": "16+",
  "kinopoisk_id": "957794",
  "kinopoisk_rating": "4.97",
  "duration": "4115",
  "category": "Фильмы",
  "genres": "Артхаус,Комедии,Русские,Экранизации",
  "vr_identifier": "Прорубь",
  "iframe": "https://www.ivi.ru/embeds/video/?subsite=1&autostart=0&videoid=189102"
}