{
  "content_id": "166814",
  "title": "Коммивояжер",
  "orig_title": "Forushande",
  "release_date": "2016",
  "orig_country": "Иран",
  "lang": "Французский",
  "restrict": "18+",
  "kinopoisk_id": "958494",
  "kinopoisk_rating": "6.64",
  "imdb_rating": "7.8",
  "duration": "7380",
  "category": "Фильмы",
  "genres": "Артхаус,Драмы,Зарубежные,Триллеры",
  "vr_identifier": "Коммивояжер",
  "iframe": "https://www.ivi.ru/embeds/video/?subsite=1&autostart=0&videoid=166814"
}