{
  "content_id": "164966",
  "title": "За гранью реальности",
  "release_date": "2018",
  "orig_country": "Россия",
  "lang": "Русский",
  "restrict": "12+",
  "kinopoisk_id": "961712",
  "kinopoisk_rating": "5.2",
  "imdb_rating": "4.7",
  "duration": "6136",
  "category": "Фильмы",
  "genres": "Приключения,Русские,Фэнтези",
  "vr_identifier": "За гранью реальности",
  "iframe": "https://www.ivi.ru/embeds/video/?subsite=1&autostart=0&videoid=164966"
}