{
  "content_id": "172250",
  "title": "Инволюция",
  "orig_title": "Involution",
  "release_date": "2018",
  "orig_country": "Россия",
  "lang": "Английский",
  "restrict": "18+",
  "kinopoisk_id": "970133",
  "kinopoisk_rating": "4.65",
  "imdb_rating": "4.2",
  "duration": "4931",
  "category": "Фильмы",
  "genres": "Драмы,Русские,Триллеры,Фантастика",
  "vr_identifier": "Инволюция",
  "iframe": "https://www.ivi.ru/embeds/video/?subsite=1&autostart=0&videoid=172250"
}