{
  "content_id": "165490",
  "title": "Бабоньки",
  "release_date": "2015",
  "orig_country": "Россия",
  "lang": "Русский",
  "restrict": "16+",
  "kinopoisk_id": "970602",
  "kinopoisk_rating": "5.48",
  "duration": "5309",
  "category": "Фильмы",
  "genres": "Комедии,Русские",
  "vr_identifier": "Бабоньки",
  "iframe": "https://www.ivi.ru/embeds/video/?subsite=1&autostart=0&videoid=165490"
}