{
  "content_id": "172624",
  "title": "Поезд в Пусан",
  "orig_title": "Busanhaeng",
  "release_date": "2016",
  "orig_country": "Южная Корея",
  "lang": "Корейский",
  "restrict": "16+",
  "kinopoisk_id": "977288",
  "kinopoisk_rating": "6.99",
  "imdb_rating": "7.5",
  "duration": "7085",
  "category": "Фильмы",
  "genres": "Боевики,Зарубежные,Триллеры,Ужасы",
  "vr_identifier": "Поезд в Пуссан",
  "iframe": "https://www.ivi.ru/embeds/video/?subsite=1&autostart=0&videoid=172624"
}