{
  "content_id": "172171",
  "title": "Невидимка",
  "orig_title": "In Darkness",
  "release_date": "2018",
  "orig_country": "Великобритания",
  "lang": "Английский",
  "restrict": "18+",
  "kinopoisk_id": "977435",
  "kinopoisk_rating": "5.81",
  "imdb_rating": "5.8",
  "duration": "5840",
  "category": "Фильмы",
  "genres": "Зарубежные,Триллеры",
  "vr_identifier": "Невидимка",
  "iframe": "https://www.ivi.ru/embeds/video/?subsite=1&autostart=0&videoid=172171"
}