{
  "content_id": "214214",
  "title": "Супергеройское наказание",
  "orig_title": "Super Detention",
  "release_date": "2016",
  "orig_country": "Канада",
  "lang": "Английский",
  "restrict": "12+",
  "kinopoisk_id": "977609",
  "duration": "4877",
  "category": "Фильмы",
  "genres": "Боевики,Для всей семьи,Зарубежные,Фантастика",
  "vr_identifier": "Супергеройское наказание",
  "iframe": "https://www.ivi.ru/embeds/video/?subsite=1&autostart=0&videoid=214214"
}