{
  "content_id": "172635",
  "title": "Эйфория",
  "orig_title": "Euphoria",
  "release_date": "2017",
  "orig_country": "Великобритания",
  "lang": "Английский",
  "restrict": "16+",
  "kinopoisk_id": "978886",
  "kinopoisk_rating": "5.94",
  "imdb_rating": "5.8",
  "duration": "5646",
  "category": "Фильмы",
  "genres": "Драмы,Зарубежные",
  "vr_identifier": "Эйфория",
  "iframe": "https://www.ivi.ru/embeds/video/?subsite=1&autostart=0&videoid=172635"
}