{
  "content_id": "180858",
  "title": "Сводные сестры",
  "release_date": "2016",
  "orig_country": "Россия",
  "lang": "Русский",
  "restrict": "12+",
  "kinopoisk_id": "984272",
  "kinopoisk_rating": "5.43",
  "duration": "6110",
  "category": "Фильмы",
  "genres": "Мелодрамы,Русские",
  "vr_identifier": "Сводные сестры",
  "iframe": "https://www.ivi.ru/embeds/video/?subsite=1&autostart=0&videoid=180858"
}