{
  "content_id": "171726",
  "title": "Невеста",
  "release_date": "2017",
  "orig_country": "Россия",
  "lang": "Русский",
  "restrict": "16+",
  "kinopoisk_id": "984360",
  "kinopoisk_rating": "4.7",
  "imdb_rating": "4.7",
  "duration": "5496",
  "category": "Фильмы",
  "genres": "Русские,Триллеры,Ужасы",
  "vr_identifier": "Невеста",
  "iframe": "https://www.ivi.ru/embeds/video/?subsite=1&autostart=0&videoid=171726"
}