{
  "content_id": "185431",
  "title": "Хит",
  "release_date": "2018",
  "orig_country": "Россия",
  "lang": "Русский",
  "restrict": "16+",
  "kinopoisk_id": "992648",
  "kinopoisk_rating": "4.18",
  "duration": "5532",
  "category": "Фильмы",
  "genres": "Драмы,Русские",
  "vr_identifier": "Хит",
  "iframe": "https://www.ivi.ru/embeds/video/?subsite=1&autostart=0&videoid=185431"
}