{
  "content_id": "191283",
  "title": "Последний лепесток",
  "release_date": "2016",
  "orig_country": "Россия",
  "lang": "Русский",
  "restrict": "12+",
  "kinopoisk_id": "996290",
  "kinopoisk_rating": "5.56",
  "duration": "5444",
  "category": "Фильмы",
  "genres": "Мелодрамы,Русские",
  "vr_identifier": "Последний лепесток",
  "iframe": "https://www.ivi.ru/embeds/video/?subsite=1&autostart=0&videoid=191283"
}